2015-09-12 21:56:46 - INFO --> ======================================================
2015-09-12 21:56:46 - INFO --> ================== Starting process ==================
2015-09-12 21:56:46 - INFO --> ======================================================
2015-09-12 21:56:46 - DEBUG --> Connecting to BigCouch...
2015-09-12 21:56:46 - DEBUG -->  - GET - retrieve account doc 458de30a32811fb3747e14696b4c6146
2015-09-12 21:56:46 - DEBUG --> Request coming from 162.216.4.136
2015-09-12 21:56:46 - INFO --> ======================================================
2015-09-12 21:56:46 - INFO --> ================== Starting process ==================
2015-09-12 21:56:46 - INFO --> ======================================================
2015-09-12 21:56:46 - DEBUG --> Connecting to BigCouch...
2015-09-12 21:56:46 - DEBUG -->  - POST - edit account doc 458de30a32811fb3747e14696b4c6146
2015-09-12 21:56:46 - DEBUG --> Request coming from 162.216.4.136
