2015-06-13 10:30:48 - INFO --> ======================================================
2015-06-13 10:30:48 - INFO --> ================== Starting process ==================
2015-06-13 10:30:48 - INFO --> ======================================================
2015-06-13 10:30:48 - DEBUG --> Connecting to BigCouch...
2015-06-13 10:30:48 - DEBUG -->  - GET - retrieve account doc 80774cb0d3dad42de9f7a8d8599e08b4
2015-06-13 10:30:48 - DEBUG --> Request coming from 162.216.4.136
2015-06-13 10:30:49 - INFO --> ======================================================
2015-06-13 10:30:49 - INFO --> ================== Starting process ==================
2015-06-13 10:30:49 - INFO --> ======================================================
2015-06-13 10:30:49 - DEBUG --> Connecting to BigCouch...
2015-06-13 10:30:49 - DEBUG -->  - POST - edit account doc 80774cb0d3dad42de9f7a8d8599e08b4
2015-06-13 10:30:49 - DEBUG --> Request coming from 162.216.4.136
