2015-12-04 9:06:54 - INFO --> ======================================================
2015-12-04 9:06:54 - INFO --> ================== Starting process ==================
2015-12-04 9:06:54 - INFO --> ======================================================
2015-12-04 9:06:54 - DEBUG --> Connecting to BigCouch...
2015-12-04 9:06:54 - DEBUG -->  - GET - retrieve account doc 6afe0296c69eac23a004ab0483770377
2015-12-04 9:06:54 - DEBUG --> Request coming from 162.216.4.136
2015-12-04 9:06:55 - INFO --> ======================================================
2015-12-04 9:06:55 - INFO --> ================== Starting process ==================
2015-12-04 9:06:55 - INFO --> ======================================================
2015-12-04 9:06:55 - DEBUG --> Connecting to BigCouch...
2015-12-04 9:06:55 - DEBUG -->  - POST - edit account doc 6afe0296c69eac23a004ab0483770377
2015-12-04 9:06:55 - DEBUG --> Request coming from 162.216.4.136
