2015-09-24 10:05:02 - INFO --> ======================================================
2015-09-24 10:05:02 - INFO --> ================== Starting process ==================
2015-09-24 10:05:02 - INFO --> ======================================================
2015-09-24 10:05:02 - DEBUG --> Connecting to BigCouch...
2015-09-24 10:05:02 - DEBUG -->  - GET - retrieve account doc d6df56c4be666c0e21c3559894d25173
2015-09-24 10:05:02 - DEBUG --> Request coming from 162.216.4.136
2015-09-24 10:05:02 - INFO --> ======================================================
2015-09-24 10:05:02 - INFO --> ================== Starting process ==================
2015-09-24 10:05:02 - INFO --> ======================================================
2015-09-24 10:05:02 - DEBUG --> Connecting to BigCouch...
2015-09-24 10:05:02 - DEBUG -->  - POST - edit account doc d6df56c4be666c0e21c3559894d25173
2015-09-24 10:05:02 - DEBUG --> Request coming from 162.216.4.136
2015-09-24 10:08:34 - INFO --> ======================================================
2015-09-24 10:08:34 - INFO --> ================== Starting process ==================
2015-09-24 10:08:34 - INFO --> ======================================================
2015-09-24 10:08:34 - DEBUG --> Connecting to BigCouch...
2015-09-24 10:08:34 - DEBUG -->  - GET - retrieve account doc d6df56c4be666c0e21c3559894d25173
2015-09-24 10:08:34 - DEBUG --> Request coming from 162.216.4.136
2015-09-24 10:08:34 - INFO --> ======================================================
2015-09-24 10:08:34 - INFO --> ================== Starting process ==================
2015-09-24 10:08:34 - INFO --> ======================================================
2015-09-24 10:08:34 - DEBUG --> Connecting to BigCouch...
2015-09-24 10:08:34 - DEBUG -->  - POST - edit account doc d6df56c4be666c0e21c3559894d25173
2015-09-24 10:08:34 - DEBUG --> Request coming from 162.216.4.136
2015-09-24 10:09:05 - INFO --> ======================================================
2015-09-24 10:09:05 - INFO --> ================== Starting process ==================
2015-09-24 10:09:05 - INFO --> ======================================================
2015-09-24 10:09:05 - DEBUG --> Connecting to BigCouch...
2015-09-24 10:09:05 - DEBUG -->  - GET - retrieve account doc d6df56c4be666c0e21c3559894d25173
2015-09-24 10:09:05 - DEBUG --> Request coming from 162.216.4.136
2015-09-24 10:09:05 - INFO --> ======================================================
2015-09-24 10:09:05 - INFO --> ================== Starting process ==================
2015-09-24 10:09:05 - INFO --> ======================================================
2015-09-24 10:09:05 - DEBUG --> Connecting to BigCouch...
2015-09-24 10:09:05 - DEBUG -->  - POST - edit account doc d6df56c4be666c0e21c3559894d25173
2015-09-24 10:09:05 - DEBUG --> Request coming from 162.216.4.136
2015-09-24 10:11:44 - INFO --> ======================================================
2015-09-24 10:11:44 - INFO --> ================== Starting process ==================
2015-09-24 10:11:44 - INFO --> ======================================================
2015-09-24 10:11:44 - DEBUG --> Connecting to BigCouch...
2015-09-24 10:11:44 - DEBUG -->  - GET - retrieve account doc d6df56c4be666c0e21c3559894d25173
2015-09-24 10:11:44 - DEBUG --> Request coming from 162.216.4.136
2015-09-24 10:11:45 - INFO --> ======================================================
2015-09-24 10:11:45 - INFO --> ================== Starting process ==================
2015-09-24 10:11:45 - INFO --> ======================================================
2015-09-24 10:11:45 - DEBUG --> Connecting to BigCouch...
2015-09-24 10:11:45 - DEBUG -->  - POST - edit account doc d6df56c4be666c0e21c3559894d25173
2015-09-24 10:11:45 - DEBUG --> Request coming from 162.216.4.136
2015-09-24 14:28:51 - INFO --> ======================================================
2015-09-24 14:28:51 - INFO --> ================== Starting process ==================
2015-09-24 14:28:51 - INFO --> ======================================================
2015-09-24 14:28:51 - DEBUG --> Connecting to BigCouch...
2015-09-24 14:28:51 - DEBUG -->  - GET - retrieve account doc d6df56c4be666c0e21c3559894d25173
2015-09-24 14:28:51 - DEBUG --> Request coming from 162.216.4.136
2015-09-24 14:28:51 - INFO --> ======================================================
2015-09-24 14:28:51 - INFO --> ================== Starting process ==================
2015-09-24 14:28:51 - INFO --> ======================================================
2015-09-24 14:28:51 - DEBUG --> Connecting to BigCouch...
2015-09-24 14:28:51 - DEBUG -->  - POST - edit account doc d6df56c4be666c0e21c3559894d25173
2015-09-24 14:28:51 - DEBUG --> Request coming from 162.216.4.136
2015-09-24 14:29:40 - INFO --> ======================================================
2015-09-24 14:29:40 - INFO --> ================== Starting process ==================
2015-09-24 14:29:40 - INFO --> ======================================================
2015-09-24 14:29:40 - DEBUG --> Connecting to BigCouch...
2015-09-24 14:29:40 - DEBUG -->  - GET - retrieve account doc d6df56c4be666c0e21c3559894d25173
2015-09-24 14:29:40 - DEBUG --> Request coming from 162.216.4.136
2015-09-24 14:29:40 - INFO --> ======================================================
2015-09-24 14:29:40 - INFO --> ================== Starting process ==================
2015-09-24 14:29:40 - INFO --> ======================================================
2015-09-24 14:29:40 - DEBUG --> Connecting to BigCouch...
2015-09-24 14:29:40 - DEBUG -->  - POST - edit account doc d6df56c4be666c0e21c3559894d25173
2015-09-24 14:29:40 - DEBUG --> Request coming from 162.216.4.136
2015-09-24 14:29:55 - INFO --> ======================================================
2015-09-24 14:29:55 - INFO --> ================== Starting process ==================
2015-09-24 14:29:55 - INFO --> ======================================================
2015-09-24 14:29:55 - DEBUG --> Connecting to BigCouch...
2015-09-24 14:29:55 - DEBUG -->  - GET - retrieve account doc d6df56c4be666c0e21c3559894d25173
2015-09-24 14:29:55 - DEBUG --> Request coming from 162.216.4.136
2015-09-24 14:29:55 - INFO --> ======================================================
2015-09-24 14:29:55 - INFO --> ================== Starting process ==================
2015-09-24 14:29:55 - INFO --> ======================================================
2015-09-24 14:29:55 - DEBUG --> Connecting to BigCouch...
2015-09-24 14:29:55 - DEBUG -->  - POST - edit account doc d6df56c4be666c0e21c3559894d25173
2015-09-24 14:29:55 - DEBUG --> Request coming from 162.216.4.136
2015-09-24 14:30:23 - INFO --> ======================================================
2015-09-24 14:30:23 - INFO --> ================== Starting process ==================
2015-09-24 14:30:23 - INFO --> ======================================================
2015-09-24 14:30:23 - DEBUG --> Connecting to BigCouch...
2015-09-24 14:30:23 - DEBUG -->  - GET - retrieve account doc d6df56c4be666c0e21c3559894d25173
2015-09-24 14:30:23 - DEBUG --> Request coming from 162.216.4.136
2015-09-24 14:30:24 - INFO --> ======================================================
2015-09-24 14:30:24 - INFO --> ================== Starting process ==================
2015-09-24 14:30:24 - INFO --> ======================================================
2015-09-24 14:30:24 - DEBUG --> Connecting to BigCouch...
2015-09-24 14:30:24 - DEBUG -->  - POST - edit account doc d6df56c4be666c0e21c3559894d25173
2015-09-24 14:30:24 - DEBUG --> Request coming from 162.216.4.136
2015-09-24 14:30:38 - INFO --> ======================================================
2015-09-24 14:30:38 - INFO --> ================== Starting process ==================
2015-09-24 14:30:38 - INFO --> ======================================================
2015-09-24 14:30:38 - DEBUG --> Connecting to BigCouch...
2015-09-24 14:30:38 - DEBUG -->  - GET - retrieve account doc d6df56c4be666c0e21c3559894d25173
2015-09-24 14:30:38 - DEBUG --> Request coming from 162.216.4.136
2015-09-24 14:30:38 - INFO --> ======================================================
2015-09-24 14:30:38 - INFO --> ================== Starting process ==================
2015-09-24 14:30:38 - INFO --> ======================================================
2015-09-24 14:30:38 - DEBUG --> Connecting to BigCouch...
2015-09-24 14:30:38 - DEBUG -->  - POST - edit account doc d6df56c4be666c0e21c3559894d25173
2015-09-24 14:30:38 - DEBUG --> Request coming from 162.216.4.136
2015-09-24 14:30:53 - INFO --> ======================================================
2015-09-24 14:30:53 - INFO --> ================== Starting process ==================
2015-09-24 14:30:53 - INFO --> ======================================================
2015-09-24 14:30:53 - DEBUG --> Connecting to BigCouch...
2015-09-24 14:30:53 - DEBUG -->  - GET - retrieve account doc d6df56c4be666c0e21c3559894d25173
2015-09-24 14:30:53 - DEBUG --> Request coming from 162.216.4.136
2015-09-24 14:30:54 - INFO --> ======================================================
2015-09-24 14:30:54 - INFO --> ================== Starting process ==================
2015-09-24 14:30:54 - INFO --> ======================================================
2015-09-24 14:30:54 - DEBUG --> Connecting to BigCouch...
2015-09-24 14:30:54 - DEBUG -->  - POST - edit account doc d6df56c4be666c0e21c3559894d25173
2015-09-24 14:30:54 - DEBUG --> Request coming from 162.216.4.136
2015-09-24 14:31:07 - INFO --> ======================================================
2015-09-24 14:31:07 - INFO --> ================== Starting process ==================
2015-09-24 14:31:07 - INFO --> ======================================================
2015-09-24 14:31:07 - DEBUG --> Connecting to BigCouch...
2015-09-24 14:31:07 - DEBUG -->  - GET - retrieve account doc d6df56c4be666c0e21c3559894d25173
2015-09-24 14:31:07 - DEBUG --> Request coming from 162.216.4.136
2015-09-24 14:31:07 - INFO --> ======================================================
2015-09-24 14:31:07 - INFO --> ================== Starting process ==================
2015-09-24 14:31:07 - INFO --> ======================================================
2015-09-24 14:31:07 - DEBUG --> Connecting to BigCouch...
2015-09-24 14:31:07 - DEBUG -->  - POST - edit account doc d6df56c4be666c0e21c3559894d25173
2015-09-24 14:31:07 - DEBUG --> Request coming from 162.216.4.136
2015-09-24 14:31:28 - INFO --> ======================================================
2015-09-24 14:31:28 - INFO --> ================== Starting process ==================
2015-09-24 14:31:28 - INFO --> ======================================================
2015-09-24 14:31:28 - DEBUG --> Connecting to BigCouch...
2015-09-24 14:31:28 - DEBUG -->  - GET - retrieve account doc d6df56c4be666c0e21c3559894d25173
2015-09-24 14:31:28 - DEBUG --> Request coming from 162.216.4.136
2015-09-24 14:31:28 - INFO --> ======================================================
2015-09-24 14:31:28 - INFO --> ================== Starting process ==================
2015-09-24 14:31:28 - INFO --> ======================================================
2015-09-24 14:31:28 - DEBUG --> Connecting to BigCouch...
2015-09-24 14:31:28 - DEBUG -->  - POST - edit account doc d6df56c4be666c0e21c3559894d25173
2015-09-24 14:31:28 - DEBUG --> Request coming from 162.216.4.136
2015-09-24 14:31:42 - INFO --> ======================================================
2015-09-24 14:31:42 - INFO --> ================== Starting process ==================
2015-09-24 14:31:42 - INFO --> ======================================================
2015-09-24 14:31:42 - DEBUG --> Connecting to BigCouch...
2015-09-24 14:31:42 - DEBUG -->  - GET - retrieve account doc d6df56c4be666c0e21c3559894d25173
2015-09-24 14:31:42 - DEBUG --> Request coming from 162.216.4.136
2015-09-24 14:31:42 - INFO --> ======================================================
2015-09-24 14:31:42 - INFO --> ================== Starting process ==================
2015-09-24 14:31:42 - INFO --> ======================================================
2015-09-24 14:31:42 - DEBUG --> Connecting to BigCouch...
2015-09-24 14:31:42 - DEBUG -->  - POST - edit account doc d6df56c4be666c0e21c3559894d25173
2015-09-24 14:31:42 - DEBUG --> Request coming from 162.216.4.136
2015-09-24 14:32:02 - INFO --> ======================================================
2015-09-24 14:32:02 - INFO --> ================== Starting process ==================
2015-09-24 14:32:02 - INFO --> ======================================================
2015-09-24 14:32:02 - DEBUG --> Connecting to BigCouch...
2015-09-24 14:32:02 - DEBUG -->  - GET - retrieve account doc d6df56c4be666c0e21c3559894d25173
2015-09-24 14:32:02 - DEBUG --> Request coming from 162.216.4.136
2015-09-24 14:32:03 - INFO --> ======================================================
2015-09-24 14:32:03 - INFO --> ================== Starting process ==================
2015-09-24 14:32:03 - INFO --> ======================================================
2015-09-24 14:32:03 - DEBUG --> Connecting to BigCouch...
2015-09-24 14:32:03 - DEBUG -->  - POST - edit account doc d6df56c4be666c0e21c3559894d25173
2015-09-24 14:32:03 - DEBUG --> Request coming from 162.216.4.136
2015-09-24 14:32:31 - INFO --> ======================================================
2015-09-24 14:32:31 - INFO --> ================== Starting process ==================
2015-09-24 14:32:31 - INFO --> ======================================================
2015-09-24 14:32:31 - DEBUG --> Connecting to BigCouch...
2015-09-24 14:32:31 - DEBUG -->  - GET - retrieve account doc d6df56c4be666c0e21c3559894d25173
2015-09-24 14:32:31 - DEBUG --> Request coming from 162.216.4.136
2015-09-24 14:32:31 - INFO --> ======================================================
2015-09-24 14:32:31 - INFO --> ================== Starting process ==================
2015-09-24 14:32:31 - INFO --> ======================================================
2015-09-24 14:32:31 - DEBUG --> Connecting to BigCouch...
2015-09-24 14:32:31 - DEBUG -->  - POST - edit account doc d6df56c4be666c0e21c3559894d25173
2015-09-24 14:32:31 - DEBUG --> Request coming from 162.216.4.136
2015-09-24 14:32:37 - INFO --> ======================================================
2015-09-24 14:32:37 - INFO --> ================== Starting process ==================
2015-09-24 14:32:37 - INFO --> ======================================================
2015-09-24 14:32:37 - DEBUG --> Connecting to BigCouch...
2015-09-24 14:32:37 - DEBUG -->  - GET - retrieve account doc d6df56c4be666c0e21c3559894d25173
2015-09-24 14:32:37 - DEBUG --> Request coming from 162.216.4.136
2015-09-24 14:32:37 - INFO --> ======================================================
2015-09-24 14:32:37 - INFO --> ================== Starting process ==================
2015-09-24 14:32:37 - INFO --> ======================================================
2015-09-24 14:32:37 - DEBUG --> Connecting to BigCouch...
2015-09-24 14:32:37 - DEBUG -->  - POST - edit account doc d6df56c4be666c0e21c3559894d25173
2015-09-24 14:32:37 - DEBUG --> Request coming from 162.216.4.136
2015-09-24 14:33:01 - INFO --> ======================================================
2015-09-24 14:33:01 - INFO --> ================== Starting process ==================
2015-09-24 14:33:01 - INFO --> ======================================================
2015-09-24 14:33:01 - DEBUG --> Connecting to BigCouch...
2015-09-24 14:33:01 - DEBUG -->  - GET - retrieve account doc d6df56c4be666c0e21c3559894d25173
2015-09-24 14:33:01 - DEBUG --> Request coming from 162.216.4.136
2015-09-24 14:33:01 - INFO --> ======================================================
2015-09-24 14:33:01 - INFO --> ================== Starting process ==================
2015-09-24 14:33:01 - INFO --> ======================================================
2015-09-24 14:33:01 - DEBUG --> Connecting to BigCouch...
2015-09-24 14:33:01 - DEBUG -->  - POST - edit account doc d6df56c4be666c0e21c3559894d25173
2015-09-24 14:33:01 - DEBUG --> Request coming from 162.216.4.136
2015-09-24 14:33:43 - INFO --> ======================================================
2015-09-24 14:33:43 - INFO --> ================== Starting process ==================
2015-09-24 14:33:43 - INFO --> ======================================================
2015-09-24 14:33:43 - DEBUG --> Connecting to BigCouch...
2015-09-24 14:33:43 - DEBUG -->  - GET - retrieve account doc d6df56c4be666c0e21c3559894d25173
2015-09-24 14:33:43 - DEBUG --> Request coming from 162.216.4.136
2015-09-24 14:33:43 - INFO --> ======================================================
2015-09-24 14:33:43 - INFO --> ================== Starting process ==================
2015-09-24 14:33:43 - INFO --> ======================================================
2015-09-24 14:33:43 - DEBUG --> Connecting to BigCouch...
2015-09-24 14:33:43 - DEBUG -->  - POST - edit account doc d6df56c4be666c0e21c3559894d25173
2015-09-24 14:33:43 - DEBUG --> Request coming from 162.216.4.136
2015-09-24 14:34:00 - INFO --> ======================================================
2015-09-24 14:34:00 - INFO --> ================== Starting process ==================
2015-09-24 14:34:00 - INFO --> ======================================================
2015-09-24 14:34:00 - DEBUG --> Connecting to BigCouch...
2015-09-24 14:34:00 - DEBUG -->  - GET - retrieve account doc d6df56c4be666c0e21c3559894d25173
2015-09-24 14:34:00 - DEBUG --> Request coming from 162.216.4.136
2015-09-24 14:34:01 - INFO --> ======================================================
2015-09-24 14:34:01 - INFO --> ================== Starting process ==================
2015-09-24 14:34:01 - INFO --> ======================================================
2015-09-24 14:34:01 - DEBUG --> Connecting to BigCouch...
2015-09-24 14:34:01 - DEBUG -->  - POST - edit account doc d6df56c4be666c0e21c3559894d25173
2015-09-24 14:34:01 - DEBUG --> Request coming from 162.216.4.136
2015-09-24 14:34:41 - INFO --> ======================================================
2015-09-24 14:34:41 - INFO --> ================== Starting process ==================
2015-09-24 14:34:41 - INFO --> ======================================================
2015-09-24 14:34:41 - DEBUG --> Connecting to BigCouch...
2015-09-24 14:34:41 - DEBUG -->  - GET - retrieve account doc d6df56c4be666c0e21c3559894d25173
2015-09-24 14:34:41 - DEBUG --> Request coming from 162.216.4.136
2015-09-24 14:34:41 - INFO --> ======================================================
2015-09-24 14:34:41 - INFO --> ================== Starting process ==================
2015-09-24 14:34:41 - INFO --> ======================================================
2015-09-24 14:34:41 - DEBUG --> Connecting to BigCouch...
2015-09-24 14:34:41 - DEBUG -->  - POST - edit account doc d6df56c4be666c0e21c3559894d25173
2015-09-24 14:34:41 - DEBUG --> Request coming from 162.216.4.136
2015-09-24 14:34:53 - INFO --> ======================================================
2015-09-24 14:34:53 - INFO --> ================== Starting process ==================
2015-09-24 14:34:53 - INFO --> ======================================================
2015-09-24 14:34:53 - DEBUG --> Connecting to BigCouch...
2015-09-24 14:34:53 - DEBUG -->  - GET - retrieve account doc d6df56c4be666c0e21c3559894d25173
2015-09-24 14:34:53 - DEBUG --> Request coming from 162.216.4.136
2015-09-24 14:34:53 - INFO --> ======================================================
2015-09-24 14:34:53 - INFO --> ================== Starting process ==================
2015-09-24 14:34:53 - INFO --> ======================================================
2015-09-24 14:34:53 - DEBUG --> Connecting to BigCouch...
2015-09-24 14:34:53 - DEBUG -->  - POST - edit account doc d6df56c4be666c0e21c3559894d25173
2015-09-24 14:34:53 - DEBUG --> Request coming from 162.216.4.136
2015-09-24 14:35:45 - INFO --> ======================================================
2015-09-24 14:35:45 - INFO --> ================== Starting process ==================
2015-09-24 14:35:45 - INFO --> ======================================================
2015-09-24 14:35:45 - DEBUG --> Connecting to BigCouch...
2015-09-24 14:35:45 - DEBUG -->  - GET - retrieve account doc d6df56c4be666c0e21c3559894d25173
2015-09-24 14:35:45 - DEBUG --> Request coming from 162.216.4.136
2015-09-24 14:35:45 - INFO --> ======================================================
2015-09-24 14:35:45 - INFO --> ================== Starting process ==================
2015-09-24 14:35:45 - INFO --> ======================================================
2015-09-24 14:35:45 - DEBUG --> Connecting to BigCouch...
2015-09-24 14:35:45 - DEBUG -->  - POST - edit account doc d6df56c4be666c0e21c3559894d25173
2015-09-24 14:35:45 - DEBUG --> Request coming from 162.216.4.136
2015-09-24 14:42:59 - INFO --> ======================================================
2015-09-24 14:42:59 - INFO --> ================== Starting process ==================
2015-09-24 14:42:59 - INFO --> ======================================================
2015-09-24 14:42:59 - DEBUG --> Connecting to BigCouch...
2015-09-24 14:42:59 - DEBUG -->  - GET - retrieve account doc d6df56c4be666c0e21c3559894d25173
2015-09-24 14:42:59 - DEBUG --> Request coming from 162.216.4.136
2015-09-24 14:42:59 - INFO --> ======================================================
2015-09-24 14:42:59 - INFO --> ================== Starting process ==================
2015-09-24 14:42:59 - INFO --> ======================================================
2015-09-24 14:42:59 - DEBUG --> Connecting to BigCouch...
2015-09-24 14:42:59 - DEBUG -->  - POST - edit account doc d6df56c4be666c0e21c3559894d25173
2015-09-24 14:42:59 - DEBUG --> Request coming from 162.216.4.136
2015-09-24 14:43:00 - INFO --> ======================================================
2015-09-24 14:43:00 - INFO --> ================== Starting process ==================
2015-09-24 14:43:00 - INFO --> ======================================================
2015-09-24 14:43:00 - DEBUG --> Connecting to BigCouch...
2015-09-24 14:43:00 - DEBUG -->  - GET - retrieve account doc d6df56c4be666c0e21c3559894d25173 for mac doc 0015659102b2
2015-09-24 14:43:00 - DEBUG --> Request coming from 162.216.4.136
2015-09-24 14:43:00 - DEBUG --> No doc for this mac address - EXIT
2015-09-24 14:43:00 - INFO --> ======================================================
2015-09-24 14:43:00 - INFO --> ================== Starting process ==================
2015-09-24 14:43:00 - INFO --> ======================================================
2015-09-24 14:43:00 - DEBUG --> Connecting to BigCouch...
2015-09-24 14:43:00 - DEBUG -->  - PUT - Adding account first...
2015-09-24 14:43:00 - DEBUG --> Request coming from 162.216.4.136
2015-09-24 14:43:00 - DEBUG --> Adding the device with mac_address 0015659102b2...
2015-09-24 14:43:00 - DEBUG --> The mac_lookup...
2015-09-24 14:43:00 - DEBUG --> SUCCESS! exit...
2015-09-24 14:43:09 - INFO --> ======================================================
2015-09-24 14:43:09 - INFO --> ================== Starting process ==================
2015-09-24 14:43:09 - INFO --> ======================================================
2015-09-24 14:43:09 - DEBUG --> Connecting to BigCouch...
2015-09-24 14:43:09 - DEBUG -->  - GET - retrieve account doc d6df56c4be666c0e21c3559894d25173
2015-09-24 14:43:09 - DEBUG --> Request coming from 162.216.4.136
2015-09-24 14:43:10 - INFO --> ======================================================
2015-09-24 14:43:10 - INFO --> ================== Starting process ==================
2015-09-24 14:43:10 - INFO --> ======================================================
2015-09-24 14:43:10 - DEBUG --> Connecting to BigCouch...
2015-09-24 14:43:10 - DEBUG -->  - POST - edit account doc d6df56c4be666c0e21c3559894d25173
2015-09-24 14:43:10 - DEBUG --> Request coming from 162.216.4.136
2015-09-24 14:43:10 - INFO --> ======================================================
2015-09-24 14:43:10 - INFO --> ================== Starting process ==================
2015-09-24 14:43:10 - INFO --> ======================================================
2015-09-24 14:43:10 - DEBUG --> Connecting to BigCouch...
2015-09-24 14:43:10 - DEBUG -->  - GET - retrieve account doc d6df56c4be666c0e21c3559894d25173 for mac doc 0015659102b2
2015-09-24 14:43:10 - DEBUG --> Request coming from 162.216.4.136
2015-09-24 14:43:10 - INFO --> ======================================================
2015-09-24 14:43:10 - INFO --> ================== Starting process ==================
2015-09-24 14:43:10 - INFO --> ======================================================
2015-09-24 14:43:10 - DEBUG --> Connecting to BigCouch...
2015-09-24 14:43:10 - DEBUG -->  - POST - edit in doc d6df56c4be666c0e21c3559894d25173 mac address 0015659102b2
2015-09-24 14:43:10 - DEBUG --> Request coming from 162.216.4.136
2015-09-24 14:43:11 - DEBUG --> Will now edit the mac_lookup...
2015-09-24 14:43:11 - DEBUG --> done... Edit for account d6df56c4be666c0e21c3559894d25173 and mac_address 0015659102b2 SUCCESS
2015-09-24 14:44:51 - INFO --> ======================================================
2015-09-24 14:44:51 - INFO --> ================== Starting process ==================
2015-09-24 14:44:51 - INFO --> ======================================================
2015-09-24 14:44:51 - DEBUG --> Connecting to BigCouch...
2015-09-24 14:44:51 - DEBUG -->  - GET - retrieve account doc d6df56c4be666c0e21c3559894d25173
2015-09-24 14:44:51 - DEBUG --> Request coming from 162.216.4.136
2015-09-24 14:44:52 - INFO --> ======================================================
2015-09-24 14:44:52 - INFO --> ================== Starting process ==================
2015-09-24 14:44:52 - INFO --> ======================================================
2015-09-24 14:44:52 - DEBUG --> Connecting to BigCouch...
2015-09-24 14:44:52 - DEBUG -->  - POST - edit account doc d6df56c4be666c0e21c3559894d25173
2015-09-24 14:44:52 - DEBUG --> Request coming from 162.216.4.136
2015-09-24 14:55:02 - INFO --> ======================================================
2015-09-24 14:55:02 - INFO --> ================== Starting process ==================
2015-09-24 14:55:02 - INFO --> ======================================================
2015-09-24 14:55:02 - DEBUG --> Connecting to BigCouch...
2015-09-24 14:55:02 - DEBUG -->  - GET - retrieve account doc d6df56c4be666c0e21c3559894d25173
2015-09-24 14:55:02 - DEBUG --> Request coming from 162.216.4.136
2015-09-24 14:55:02 - INFO --> ======================================================
2015-09-24 14:55:02 - INFO --> ================== Starting process ==================
2015-09-24 14:55:02 - INFO --> ======================================================
2015-09-24 14:55:02 - DEBUG --> Connecting to BigCouch...
2015-09-24 14:55:02 - DEBUG -->  - GET - retrieve account doc d6df56c4be666c0e21c3559894d25173
2015-09-24 14:55:02 - DEBUG --> Request coming from 162.216.4.136
2015-09-24 14:55:02 - INFO --> ======================================================
2015-09-24 14:55:02 - INFO --> ================== Starting process ==================
2015-09-24 14:55:02 - INFO --> ======================================================
2015-09-24 14:55:02 - DEBUG --> Connecting to BigCouch...
2015-09-24 14:55:02 - DEBUG -->  - POST - edit account doc d6df56c4be666c0e21c3559894d25173
2015-09-24 14:55:02 - DEBUG --> Request coming from 162.216.4.136
2015-09-24 14:55:02 - INFO --> ======================================================
2015-09-24 14:55:02 - INFO --> ================== Starting process ==================
2015-09-24 14:55:02 - INFO --> ======================================================
2015-09-24 14:55:02 - DEBUG --> Connecting to BigCouch...
2015-09-24 14:55:02 - DEBUG -->  - POST - edit account doc d6df56c4be666c0e21c3559894d25173
2015-09-24 14:55:02 - DEBUG --> Request coming from 162.216.4.136
2015-09-24 14:55:02 - DEBUG --> Could not save key:provider_id - EXIT
2015-09-24 14:55:10 - INFO --> ======================================================
2015-09-24 14:55:10 - INFO --> ================== Starting process ==================
2015-09-24 14:55:10 - INFO --> ======================================================
2015-09-24 14:55:10 - DEBUG --> Connecting to BigCouch...
2015-09-24 14:55:10 - DEBUG -->  - GET - retrieve account doc d6df56c4be666c0e21c3559894d25173
2015-09-24 14:55:10 - DEBUG --> Request coming from 162.216.4.136
2015-09-24 14:55:10 - INFO --> ======================================================
2015-09-24 14:55:10 - INFO --> ================== Starting process ==================
2015-09-24 14:55:10 - INFO --> ======================================================
2015-09-24 14:55:10 - DEBUG --> Connecting to BigCouch...
2015-09-24 14:55:10 - DEBUG -->  - GET - retrieve account doc d6df56c4be666c0e21c3559894d25173
2015-09-24 14:55:10 - DEBUG --> Request coming from 162.216.4.136
2015-09-24 14:55:10 - INFO --> ======================================================
2015-09-24 14:55:10 - INFO --> ================== Starting process ==================
2015-09-24 14:55:10 - INFO --> ======================================================
2015-09-24 14:55:10 - DEBUG --> Connecting to BigCouch...
2015-09-24 14:55:10 - DEBUG -->  - GET - retrieve account doc d6df56c4be666c0e21c3559894d25173
2015-09-24 14:55:10 - DEBUG --> Request coming from 162.216.4.136
2015-09-24 14:55:11 - INFO --> ======================================================
2015-09-24 14:55:11 - INFO --> ================== Starting process ==================
2015-09-24 14:55:11 - INFO --> ======================================================
2015-09-24 14:55:11 - DEBUG --> Connecting to BigCouch...
2015-09-24 14:55:11 - DEBUG -->  - POST - edit account doc d6df56c4be666c0e21c3559894d25173
2015-09-24 14:55:11 - DEBUG --> Request coming from 162.216.4.136
2015-09-24 14:55:11 - INFO --> ======================================================
2015-09-24 14:55:11 - INFO --> ================== Starting process ==================
2015-09-24 14:55:11 - INFO --> ======================================================
2015-09-24 14:55:11 - DEBUG --> Connecting to BigCouch...
2015-09-24 14:55:11 - DEBUG -->  - POST - edit account doc d6df56c4be666c0e21c3559894d25173
2015-09-24 14:55:11 - DEBUG --> Request coming from 162.216.4.136
2015-09-24 14:55:11 - INFO --> ======================================================
2015-09-24 14:55:11 - INFO --> ================== Starting process ==================
2015-09-24 14:55:11 - INFO --> ======================================================
2015-09-24 14:55:11 - DEBUG --> Connecting to BigCouch...
2015-09-24 14:55:11 - DEBUG -->  - POST - edit account doc d6df56c4be666c0e21c3559894d25173
2015-09-24 14:55:11 - DEBUG --> Request coming from 162.216.4.136
2015-09-24 14:55:11 - DEBUG --> Could not save key:provider_id - EXIT
2015-09-24 14:55:11 - DEBUG --> Could not save key:provider_id - EXIT
2015-09-24 14:55:27 - INFO --> ======================================================
2015-09-24 14:55:27 - INFO --> ================== Starting process ==================
2015-09-24 14:55:27 - INFO --> ======================================================
2015-09-24 14:55:27 - DEBUG --> Connecting to BigCouch...
2015-09-24 14:55:27 - DEBUG -->  - GET - retrieve account doc d6df56c4be666c0e21c3559894d25173
2015-09-24 14:55:27 - DEBUG --> Request coming from 162.216.4.136
2015-09-24 14:55:27 - INFO --> ======================================================
2015-09-24 14:55:27 - INFO --> ================== Starting process ==================
2015-09-24 14:55:27 - INFO --> ======================================================
2015-09-24 14:55:27 - DEBUG --> Connecting to BigCouch...
2015-09-24 14:55:27 - DEBUG -->  - POST - edit account doc d6df56c4be666c0e21c3559894d25173
2015-09-24 14:55:27 - DEBUG --> Request coming from 162.216.4.136
2015-09-24 14:55:33 - INFO --> ======================================================
2015-09-24 14:55:33 - INFO --> ================== Starting process ==================
2015-09-24 14:55:33 - INFO --> ======================================================
2015-09-24 14:55:33 - DEBUG --> Connecting to BigCouch...
2015-09-24 14:55:33 - DEBUG -->  - GET - retrieve account doc d6df56c4be666c0e21c3559894d25173
2015-09-24 14:55:33 - DEBUG --> Request coming from 162.216.4.136
2015-09-24 14:55:33 - INFO --> ======================================================
2015-09-24 14:55:33 - INFO --> ================== Starting process ==================
2015-09-24 14:55:33 - INFO --> ======================================================
2015-09-24 14:55:33 - DEBUG --> Connecting to BigCouch...
2015-09-24 14:55:33 - DEBUG -->  - POST - edit account doc d6df56c4be666c0e21c3559894d25173
2015-09-24 14:55:33 - DEBUG --> Request coming from 162.216.4.136
2015-09-24 14:55:35 - INFO --> ======================================================
2015-09-24 14:55:35 - INFO --> ================== Starting process ==================
2015-09-24 14:55:35 - INFO --> ======================================================
2015-09-24 14:55:35 - DEBUG --> Connecting to BigCouch...
2015-09-24 14:55:35 - DEBUG -->  - GET - retrieve account doc d6df56c4be666c0e21c3559894d25173
2015-09-24 14:55:35 - DEBUG --> Request coming from 162.216.4.136
2015-09-24 14:55:35 - INFO --> ======================================================
2015-09-24 14:55:35 - INFO --> ================== Starting process ==================
2015-09-24 14:55:35 - INFO --> ======================================================
2015-09-24 14:55:35 - DEBUG --> Connecting to BigCouch...
2015-09-24 14:55:35 - DEBUG -->  - POST - edit account doc d6df56c4be666c0e21c3559894d25173
2015-09-24 14:55:35 - DEBUG --> Request coming from 162.216.4.136
2015-09-24 15:02:40 - INFO --> ======================================================
2015-09-24 15:02:40 - INFO --> ================== Starting process ==================
2015-09-24 15:02:40 - INFO --> ======================================================
2015-09-24 15:02:40 - DEBUG --> Connecting to BigCouch...
2015-09-24 15:02:40 - DEBUG -->  - GET - retrieve account doc d6df56c4be666c0e21c3559894d25173
2015-09-24 15:02:40 - DEBUG --> Request coming from 162.216.4.136
2015-09-24 15:02:40 - INFO --> ======================================================
2015-09-24 15:02:40 - INFO --> ================== Starting process ==================
2015-09-24 15:02:40 - INFO --> ======================================================
2015-09-24 15:02:40 - DEBUG --> Connecting to BigCouch...
2015-09-24 15:02:40 - DEBUG -->  - POST - edit account doc d6df56c4be666c0e21c3559894d25173
2015-09-24 15:02:40 - DEBUG --> Request coming from 162.216.4.136
2015-09-24 15:50:37 - INFO --> ======================================================
2015-09-24 15:50:37 - INFO --> ================== Starting process ==================
2015-09-24 15:50:37 - INFO --> ======================================================
2015-09-24 15:50:37 - DEBUG --> Connecting to BigCouch...
2015-09-24 15:50:37 - DEBUG -->  - GET - retrieve account doc d6df56c4be666c0e21c3559894d25173
2015-09-24 15:50:37 - DEBUG --> Request coming from 162.216.4.136
2015-09-24 15:50:37 - INFO --> ======================================================
2015-09-24 15:50:37 - INFO --> ================== Starting process ==================
2015-09-24 15:50:37 - INFO --> ======================================================
2015-09-24 15:50:37 - DEBUG --> Connecting to BigCouch...
2015-09-24 15:50:37 - DEBUG -->  - POST - edit account doc d6df56c4be666c0e21c3559894d25173
2015-09-24 15:50:37 - DEBUG --> Request coming from 162.216.4.136
2015-09-24 15:50:38 - INFO --> ======================================================
2015-09-24 15:50:38 - INFO --> ================== Starting process ==================
2015-09-24 15:50:38 - INFO --> ======================================================
2015-09-24 15:50:38 - DEBUG --> Connecting to BigCouch...
2015-09-24 15:50:38 - DEBUG -->  - GET - retrieve account doc d6df56c4be666c0e21c3559894d25173 for mac doc 0015658ce9d1
2015-09-24 15:50:38 - DEBUG --> Request coming from 162.216.4.136
2015-09-24 15:50:38 - DEBUG --> No doc for this mac address - EXIT
2015-09-24 15:50:38 - INFO --> ======================================================
2015-09-24 15:50:38 - INFO --> ================== Starting process ==================
2015-09-24 15:50:38 - INFO --> ======================================================
2015-09-24 15:50:38 - DEBUG --> Connecting to BigCouch...
2015-09-24 15:50:38 - DEBUG -->  - PUT - Adding account first...
2015-09-24 15:50:38 - DEBUG --> Request coming from 162.216.4.136
2015-09-24 15:50:38 - DEBUG --> Adding the device with mac_address 0015658ce9d1...
2015-09-24 15:50:38 - DEBUG --> The mac_lookup...
2015-09-24 15:50:38 - DEBUG --> SUCCESS! exit...
2015-09-24 15:50:44 - INFO --> ======================================================
2015-09-24 15:50:44 - INFO --> ================== Starting process ==================
2015-09-24 15:50:44 - INFO --> ======================================================
2015-09-24 15:50:44 - DEBUG --> Connecting to BigCouch...
2015-09-24 15:50:44 - DEBUG -->  - GET - retrieve account doc d6df56c4be666c0e21c3559894d25173
2015-09-24 15:50:44 - DEBUG --> Request coming from 162.216.4.136
2015-09-24 15:50:45 - INFO --> ======================================================
2015-09-24 15:50:45 - INFO --> ================== Starting process ==================
2015-09-24 15:50:45 - INFO --> ======================================================
2015-09-24 15:50:45 - DEBUG --> Connecting to BigCouch...
2015-09-24 15:50:45 - DEBUG -->  - POST - edit account doc d6df56c4be666c0e21c3559894d25173
2015-09-24 15:50:45 - DEBUG --> Request coming from 162.216.4.136
2015-09-24 23:38:47 - INFO --> ======================================================
2015-09-24 23:38:47 - INFO --> ================== Starting process ==================
2015-09-24 23:38:47 - INFO --> ======================================================
2015-09-24 23:38:47 - DEBUG --> Connecting to BigCouch...
2015-09-24 23:38:47 - DEBUG -->  - GET - retrieve account doc 7739c32aa4a069b9180d94a0dfefa77c
2015-09-24 23:38:47 - DEBUG --> Request coming from 162.216.4.136
2015-09-24 23:38:47 - INFO --> ======================================================
2015-09-24 23:38:47 - INFO --> ================== Starting process ==================
2015-09-24 23:38:47 - INFO --> ======================================================
2015-09-24 23:38:47 - DEBUG --> Connecting to BigCouch...
2015-09-24 23:38:47 - DEBUG -->  - POST - edit account doc 7739c32aa4a069b9180d94a0dfefa77c
2015-09-24 23:38:47 - DEBUG --> Request coming from 162.216.4.136
2015-09-24 23:41:36 - INFO --> ======================================================
2015-09-24 23:41:36 - INFO --> ================== Starting process ==================
2015-09-24 23:41:36 - INFO --> ======================================================
2015-09-24 23:41:36 - DEBUG --> Connecting to BigCouch...
2015-09-24 23:41:36 - DEBUG -->  - GET - retrieve account doc 7739c32aa4a069b9180d94a0dfefa77c
2015-09-24 23:41:36 - DEBUG --> Request coming from 162.216.4.136
2015-09-24 23:41:36 - INFO --> ======================================================
2015-09-24 23:41:36 - INFO --> ================== Starting process ==================
2015-09-24 23:41:36 - INFO --> ======================================================
2015-09-24 23:41:36 - DEBUG --> Connecting to BigCouch...
2015-09-24 23:41:36 - DEBUG -->  - POST - edit account doc 7739c32aa4a069b9180d94a0dfefa77c
2015-09-24 23:41:36 - DEBUG --> Request coming from 162.216.4.136
2015-09-24 23:44:09 - INFO --> ======================================================
2015-09-24 23:44:09 - INFO --> ================== Starting process ==================
2015-09-24 23:44:09 - INFO --> ======================================================
2015-09-24 23:44:09 - DEBUG --> Connecting to BigCouch...
2015-09-24 23:44:09 - DEBUG -->  - GET - retrieve account doc 7739c32aa4a069b9180d94a0dfefa77c
2015-09-24 23:44:09 - DEBUG --> Request coming from 162.216.4.136
2015-09-24 23:44:09 - INFO --> ======================================================
2015-09-24 23:44:09 - INFO --> ================== Starting process ==================
2015-09-24 23:44:09 - INFO --> ======================================================
2015-09-24 23:44:09 - DEBUG --> Connecting to BigCouch...
2015-09-24 23:44:09 - DEBUG -->  - POST - edit account doc 7739c32aa4a069b9180d94a0dfefa77c
2015-09-24 23:44:09 - DEBUG --> Request coming from 162.216.4.136
2015-09-24 23:46:21 - INFO --> ======================================================
2015-09-24 23:46:21 - INFO --> ================== Starting process ==================
2015-09-24 23:46:21 - INFO --> ======================================================
2015-09-24 23:46:21 - DEBUG --> Connecting to BigCouch...
2015-09-24 23:46:21 - DEBUG -->  - GET - retrieve account doc 7739c32aa4a069b9180d94a0dfefa77c
2015-09-24 23:46:21 - DEBUG --> Request coming from 162.216.4.136
2015-09-24 23:46:21 - INFO --> ======================================================
2015-09-24 23:46:21 - INFO --> ================== Starting process ==================
2015-09-24 23:46:21 - INFO --> ======================================================
2015-09-24 23:46:21 - DEBUG --> Connecting to BigCouch...
2015-09-24 23:46:21 - DEBUG -->  - POST - edit account doc 7739c32aa4a069b9180d94a0dfefa77c
2015-09-24 23:46:21 - DEBUG --> Request coming from 162.216.4.136
2015-09-24 23:49:29 - INFO --> ======================================================
2015-09-24 23:49:29 - INFO --> ================== Starting process ==================
2015-09-24 23:49:29 - INFO --> ======================================================
2015-09-24 23:49:29 - DEBUG --> Connecting to BigCouch...
2015-09-24 23:49:29 - DEBUG -->  - GET - retrieve account doc 7739c32aa4a069b9180d94a0dfefa77c
2015-09-24 23:49:29 - DEBUG --> Request coming from 162.216.4.136
2015-09-24 23:49:29 - INFO --> ======================================================
2015-09-24 23:49:29 - INFO --> ================== Starting process ==================
2015-09-24 23:49:29 - INFO --> ======================================================
2015-09-24 23:49:29 - DEBUG --> Connecting to BigCouch...
2015-09-24 23:49:29 - DEBUG -->  - POST - edit account doc 7739c32aa4a069b9180d94a0dfefa77c
2015-09-24 23:49:29 - DEBUG --> Request coming from 162.216.4.136
2015-09-24 23:55:05 - INFO --> ======================================================
2015-09-24 23:55:05 - INFO --> ================== Starting process ==================
2015-09-24 23:55:05 - INFO --> ======================================================
2015-09-24 23:55:05 - DEBUG --> Connecting to BigCouch...
2015-09-24 23:55:05 - DEBUG -->  - GET - retrieve account doc 7739c32aa4a069b9180d94a0dfefa77c
2015-09-24 23:55:05 - DEBUG --> Request coming from 162.216.4.136
2015-09-24 23:55:05 - INFO --> ======================================================
2015-09-24 23:55:05 - INFO --> ================== Starting process ==================
2015-09-24 23:55:05 - INFO --> ======================================================
2015-09-24 23:55:05 - DEBUG --> Connecting to BigCouch...
2015-09-24 23:55:05 - DEBUG -->  - POST - edit account doc 7739c32aa4a069b9180d94a0dfefa77c
2015-09-24 23:55:05 - DEBUG --> Request coming from 162.216.4.136
2015-09-24 23:55:37 - INFO --> ======================================================
2015-09-24 23:55:37 - INFO --> ================== Starting process ==================
2015-09-24 23:55:37 - INFO --> ======================================================
2015-09-24 23:55:37 - DEBUG --> Connecting to BigCouch...
2015-09-24 23:55:37 - DEBUG -->  - GET - retrieve account doc 7739c32aa4a069b9180d94a0dfefa77c
2015-09-24 23:55:37 - DEBUG --> Request coming from 162.216.4.136
2015-09-24 23:55:37 - INFO --> ======================================================
2015-09-24 23:55:37 - INFO --> ================== Starting process ==================
2015-09-24 23:55:37 - INFO --> ======================================================
2015-09-24 23:55:37 - DEBUG --> Connecting to BigCouch...
2015-09-24 23:55:37 - DEBUG -->  - GET - retrieve account doc 7739c32aa4a069b9180d94a0dfefa77c
2015-09-24 23:55:37 - DEBUG --> Request coming from 162.216.4.136
2015-09-24 23:55:37 - INFO --> ======================================================
2015-09-24 23:55:37 - INFO --> ================== Starting process ==================
2015-09-24 23:55:37 - INFO --> ======================================================
2015-09-24 23:55:37 - DEBUG --> Connecting to BigCouch...
2015-09-24 23:55:37 - DEBUG -->  - GET - retrieve account doc 7739c32aa4a069b9180d94a0dfefa77c
2015-09-24 23:55:37 - DEBUG --> Request coming from 162.216.4.136
2015-09-24 23:55:37 - INFO --> ======================================================
2015-09-24 23:55:37 - INFO --> ================== Starting process ==================
2015-09-24 23:55:37 - INFO --> ======================================================
2015-09-24 23:55:37 - DEBUG --> Connecting to BigCouch...
2015-09-24 23:55:37 - DEBUG -->  - POST - edit account doc 7739c32aa4a069b9180d94a0dfefa77c
2015-09-24 23:55:37 - DEBUG --> Request coming from 162.216.4.136
2015-09-24 23:55:37 - INFO --> ======================================================
2015-09-24 23:55:37 - INFO --> ================== Starting process ==================
2015-09-24 23:55:37 - INFO --> ======================================================
2015-09-24 23:55:37 - DEBUG --> Connecting to BigCouch...
2015-09-24 23:55:37 - DEBUG -->  - POST - edit account doc 7739c32aa4a069b9180d94a0dfefa77c
2015-09-24 23:55:37 - DEBUG --> Request coming from 162.216.4.136
2015-09-24 23:55:37 - INFO --> ======================================================
2015-09-24 23:55:37 - INFO --> ================== Starting process ==================
2015-09-24 23:55:37 - INFO --> ======================================================
2015-09-24 23:55:37 - DEBUG --> Connecting to BigCouch...
2015-09-24 23:55:37 - DEBUG -->  - POST - edit account doc 7739c32aa4a069b9180d94a0dfefa77c
2015-09-24 23:55:37 - DEBUG --> Request coming from 162.216.4.136
2015-09-24 23:55:37 - DEBUG --> Could not save key:provider_id - EXIT
2015-09-24 23:55:37 - DEBUG --> Could not save key:provider_id - EXIT
