2015-06-04 11:52:16 - INFO --> ======================================================
2015-06-04 11:52:16 - INFO --> ================== Starting process ==================
2015-06-04 11:52:16 - INFO --> ======================================================
2015-06-04 11:52:16 - DEBUG --> Connecting to BigCouch...
2015-06-04 11:52:16 - DEBUG -->  - DELETE - Deleting a device (acf2c5365152) for account 34bc154acbd06c7ba7b25cacdf3729f8...
2015-06-04 11:52:16 - DEBUG --> Request coming from 162.216.4.136
2015-06-04 11:52:16 - DEBUG --> The device does exist... let's delete it
2015-06-04 11:52:16 - DEBUG --> Now deleting the mac lookup entry...
2015-06-04 11:52:16 - DEBUG --> Successfully deleted device (acf2c5365152)
2015-06-04 13:05:36 - INFO --> ======================================================
2015-06-04 13:05:36 - INFO --> ================== Starting process ==================
2015-06-04 13:05:36 - INFO --> ======================================================
2015-06-04 13:05:36 - DEBUG --> Connecting to BigCouch...
2015-06-04 13:05:36 - DEBUG -->  - GET - retrieve account doc 2af7f44ac2a02341a3db177758566657
2015-06-04 13:05:36 - DEBUG --> Request coming from 162.216.4.136
2015-06-04 13:05:36 - INFO --> ======================================================
2015-06-04 13:05:36 - INFO --> ================== Starting process ==================
2015-06-04 13:05:36 - INFO --> ======================================================
2015-06-04 13:05:36 - DEBUG --> Connecting to BigCouch...
2015-06-04 13:05:36 - DEBUG -->  - POST - edit account doc 2af7f44ac2a02341a3db177758566657
2015-06-04 13:05:36 - DEBUG --> Request coming from 162.216.4.136
