2015-12-01 7:21:47 - INFO --> ======================================================
2015-12-01 7:21:47 - INFO --> ================== Starting process ==================
2015-12-01 7:21:47 - INFO --> ======================================================
2015-12-01 7:21:47 - DEBUG --> Connecting to BigCouch...
2015-12-01 7:21:47 - DEBUG -->  - GET - retrieve account doc d66e0c7d141ff341bca411f52aa8c55e
2015-12-01 7:21:47 - DEBUG --> Request coming from 162.216.4.136
2015-12-01 7:21:47 - INFO --> ======================================================
2015-12-01 7:21:47 - INFO --> ================== Starting process ==================
2015-12-01 7:21:47 - INFO --> ======================================================
2015-12-01 7:21:47 - DEBUG --> Connecting to BigCouch...
2015-12-01 7:21:47 - DEBUG -->  - POST - edit account doc d66e0c7d141ff341bca411f52aa8c55e
2015-12-01 7:21:47 - DEBUG --> Request coming from 162.216.4.136
2015-12-01 7:26:43 - INFO --> ======================================================
2015-12-01 7:26:43 - INFO --> ================== Starting process ==================
2015-12-01 7:26:43 - INFO --> ======================================================
2015-12-01 7:26:43 - DEBUG --> Connecting to BigCouch...
2015-12-01 7:26:43 - DEBUG -->  - GET - retrieve account doc d66e0c7d141ff341bca411f52aa8c55e
2015-12-01 7:26:43 - DEBUG --> Request coming from 162.216.4.136
2015-12-01 7:26:43 - INFO --> ======================================================
2015-12-01 7:26:43 - INFO --> ================== Starting process ==================
2015-12-01 7:26:43 - INFO --> ======================================================
2015-12-01 7:26:43 - DEBUG --> Connecting to BigCouch...
2015-12-01 7:26:43 - DEBUG -->  - POST - edit account doc d66e0c7d141ff341bca411f52aa8c55e
2015-12-01 7:26:43 - DEBUG --> Request coming from 162.216.4.136
2015-12-01 7:26:50 - INFO --> ======================================================
2015-12-01 7:26:50 - INFO --> ================== Starting process ==================
2015-12-01 7:26:50 - INFO --> ======================================================
2015-12-01 7:26:50 - DEBUG --> Connecting to BigCouch...
2015-12-01 7:26:50 - DEBUG -->  - GET - retrieve account doc d66e0c7d141ff341bca411f52aa8c55e
2015-12-01 7:26:50 - DEBUG --> Request coming from 162.216.4.136
2015-12-01 7:26:51 - INFO --> ======================================================
2015-12-01 7:26:51 - INFO --> ================== Starting process ==================
2015-12-01 7:26:51 - INFO --> ======================================================
2015-12-01 7:26:51 - DEBUG --> Connecting to BigCouch...
2015-12-01 7:26:51 - DEBUG -->  - POST - edit account doc d66e0c7d141ff341bca411f52aa8c55e
2015-12-01 7:26:51 - DEBUG --> Request coming from 162.216.4.136
2015-12-01 9:49:56 - INFO --> ======================================================
2015-12-01 9:49:56 - INFO --> ================== Starting process ==================
2015-12-01 9:49:56 - INFO --> ======================================================
2015-12-01 9:49:56 - DEBUG --> Connecting to BigCouch...
2015-12-01 9:49:56 - DEBUG -->  - GET - retrieve account doc 6afe0296c69eac23a004ab0483770377
2015-12-01 9:49:56 - DEBUG --> Request coming from 162.216.4.136
2015-12-01 9:49:56 - INFO --> ======================================================
2015-12-01 9:49:56 - INFO --> ================== Starting process ==================
2015-12-01 9:49:56 - INFO --> ======================================================
2015-12-01 9:49:56 - DEBUG --> Connecting to BigCouch...
2015-12-01 9:49:56 - DEBUG -->  - POST - edit account doc 6afe0296c69eac23a004ab0483770377
2015-12-01 9:49:56 - DEBUG --> Request coming from 162.216.4.136
2015-12-01 9:50:46 - INFO --> ======================================================
2015-12-01 9:50:46 - INFO --> ================== Starting process ==================
2015-12-01 9:50:46 - INFO --> ======================================================
2015-12-01 9:50:46 - DEBUG --> Connecting to BigCouch...
2015-12-01 9:50:46 - DEBUG -->  - GET - retrieve account doc 6afe0296c69eac23a004ab0483770377
2015-12-01 9:50:46 - DEBUG --> Request coming from 162.216.4.136
2015-12-01 9:50:46 - INFO --> ======================================================
2015-12-01 9:50:46 - INFO --> ================== Starting process ==================
2015-12-01 9:50:46 - INFO --> ======================================================
2015-12-01 9:50:46 - DEBUG --> Connecting to BigCouch...
2015-12-01 9:50:46 - DEBUG -->  - POST - edit account doc 6afe0296c69eac23a004ab0483770377
2015-12-01 9:50:46 - DEBUG --> Request coming from 162.216.4.136
2015-12-01 9:54:39 - INFO --> ======================================================
2015-12-01 9:54:39 - INFO --> ================== Starting process ==================
2015-12-01 9:54:39 - INFO --> ======================================================
2015-12-01 9:54:39 - DEBUG --> Connecting to BigCouch...
2015-12-01 9:54:39 - DEBUG -->  - GET - retrieve account doc 6afe0296c69eac23a004ab0483770377
2015-12-01 9:54:39 - DEBUG --> Request coming from 162.216.4.136
2015-12-01 9:54:40 - INFO --> ======================================================
2015-12-01 9:54:40 - INFO --> ================== Starting process ==================
2015-12-01 9:54:40 - INFO --> ======================================================
2015-12-01 9:54:40 - DEBUG --> Connecting to BigCouch...
2015-12-01 9:54:40 - DEBUG -->  - POST - edit account doc 6afe0296c69eac23a004ab0483770377
2015-12-01 9:54:40 - DEBUG --> Request coming from 162.216.4.136
2015-12-01 9:58:44 - INFO --> ======================================================
2015-12-01 9:58:44 - INFO --> ================== Starting process ==================
2015-12-01 9:58:44 - INFO --> ======================================================
2015-12-01 9:58:44 - DEBUG --> Connecting to BigCouch...
2015-12-01 9:58:44 - DEBUG -->  - GET - retrieve account doc d66e0c7d141ff341bca411f52aa8c55e
2015-12-01 9:58:44 - DEBUG --> Request coming from 162.216.4.136
2015-12-01 9:58:50 - INFO --> ======================================================
2015-12-01 9:58:50 - INFO --> ================== Starting process ==================
2015-12-01 9:58:50 - INFO --> ======================================================
2015-12-01 9:58:50 - DEBUG --> Connecting to BigCouch...
2015-12-01 9:58:50 - DEBUG -->  - POST - edit account doc d66e0c7d141ff341bca411f52aa8c55e
2015-12-01 9:58:50 - DEBUG --> Request coming from 162.216.4.136
2015-12-01 10:02:32 - INFO --> ======================================================
2015-12-01 10:02:32 - INFO --> ================== Starting process ==================
2015-12-01 10:02:32 - INFO --> ======================================================
2015-12-01 10:02:32 - DEBUG --> Connecting to BigCouch...
2015-12-01 10:02:32 - DEBUG -->  - GET - retrieve account doc 6afe0296c69eac23a004ab0483770377
2015-12-01 10:02:32 - DEBUG --> Request coming from 162.216.4.136
2015-12-01 10:02:32 - INFO --> ======================================================
2015-12-01 10:02:32 - INFO --> ================== Starting process ==================
2015-12-01 10:02:32 - INFO --> ======================================================
2015-12-01 10:02:32 - DEBUG --> Connecting to BigCouch...
2015-12-01 10:02:32 - DEBUG -->  - POST - edit account doc 6afe0296c69eac23a004ab0483770377
2015-12-01 10:02:32 - DEBUG --> Request coming from 162.216.4.136
2015-12-01 10:04:10 - INFO --> ======================================================
2015-12-01 10:04:10 - INFO --> ================== Starting process ==================
2015-12-01 10:04:10 - INFO --> ======================================================
2015-12-01 10:04:10 - DEBUG --> Connecting to BigCouch...
2015-12-01 10:04:10 - DEBUG -->  - GET - retrieve account doc 6afe0296c69eac23a004ab0483770377
2015-12-01 10:04:10 - DEBUG --> Request coming from 162.216.4.136
2015-12-01 10:04:11 - INFO --> ======================================================
2015-12-01 10:04:11 - INFO --> ================== Starting process ==================
2015-12-01 10:04:11 - INFO --> ======================================================
2015-12-01 10:04:11 - DEBUG --> Connecting to BigCouch...
2015-12-01 10:04:11 - DEBUG -->  - POST - edit account doc 6afe0296c69eac23a004ab0483770377
2015-12-01 10:04:11 - DEBUG --> Request coming from 162.216.4.136
2015-12-01 10:05:49 - INFO --> ======================================================
2015-12-01 10:05:49 - INFO --> ================== Starting process ==================
2015-12-01 10:05:49 - INFO --> ======================================================
2015-12-01 10:05:49 - DEBUG --> Connecting to BigCouch...
2015-12-01 10:05:49 - DEBUG -->  - GET - retrieve account doc 6afe0296c69eac23a004ab0483770377
2015-12-01 10:05:49 - DEBUG --> Request coming from 162.216.4.136
2015-12-01 10:05:49 - INFO --> ======================================================
2015-12-01 10:05:49 - INFO --> ================== Starting process ==================
2015-12-01 10:05:49 - INFO --> ======================================================
2015-12-01 10:05:49 - DEBUG --> Connecting to BigCouch...
2015-12-01 10:05:49 - DEBUG -->  - POST - edit account doc 6afe0296c69eac23a004ab0483770377
2015-12-01 10:05:49 - DEBUG --> Request coming from 162.216.4.136
2015-12-01 10:07:39 - INFO --> ======================================================
2015-12-01 10:07:39 - INFO --> ================== Starting process ==================
2015-12-01 10:07:39 - INFO --> ======================================================
2015-12-01 10:07:39 - DEBUG --> Connecting to BigCouch...
2015-12-01 10:07:39 - DEBUG -->  - GET - retrieve account doc 6afe0296c69eac23a004ab0483770377
2015-12-01 10:07:39 - DEBUG --> Request coming from 162.216.4.136
2015-12-01 10:07:39 - INFO --> ======================================================
2015-12-01 10:07:39 - INFO --> ================== Starting process ==================
2015-12-01 10:07:39 - INFO --> ======================================================
2015-12-01 10:07:39 - DEBUG --> Connecting to BigCouch...
2015-12-01 10:07:39 - DEBUG -->  - POST - edit account doc 6afe0296c69eac23a004ab0483770377
2015-12-01 10:07:39 - DEBUG --> Request coming from 162.216.4.136
2015-12-01 10:08:41 - INFO --> ======================================================
2015-12-01 10:08:41 - INFO --> ================== Starting process ==================
2015-12-01 10:08:41 - INFO --> ======================================================
2015-12-01 10:08:41 - DEBUG --> Connecting to BigCouch...
2015-12-01 10:08:41 - DEBUG -->  - GET - retrieve account doc a3f9d1ead65264530ac4dca955ac60ba
2015-12-01 10:08:41 - DEBUG --> Request coming from 162.216.4.136
2015-12-01 10:08:41 - DEBUG --> No account with this id - EXIT
2015-12-01 10:08:42 - INFO --> ======================================================
2015-12-01 10:08:42 - INFO --> ================== Starting process ==================
2015-12-01 10:08:42 - INFO --> ======================================================
2015-12-01 10:08:42 - DEBUG --> Connecting to BigCouch...
2015-12-01 10:08:42 - DEBUG -->  - PUT - Adding account first...
2015-12-01 10:08:42 - DEBUG --> Request coming from 162.216.4.136
2015-12-01 10:08:42 - DEBUG --> Successfully Add account
2015-12-01 10:11:08 - INFO --> ======================================================
2015-12-01 10:11:08 - INFO --> ================== Starting process ==================
2015-12-01 10:11:08 - INFO --> ======================================================
2015-12-01 10:11:08 - DEBUG --> Connecting to BigCouch...
2015-12-01 10:11:08 - DEBUG -->  - GET - retrieve account doc 6afe0296c69eac23a004ab0483770377
2015-12-01 10:11:08 - DEBUG --> Request coming from 162.216.4.136
2015-12-01 10:11:08 - INFO --> ======================================================
2015-12-01 10:11:08 - INFO --> ================== Starting process ==================
2015-12-01 10:11:08 - INFO --> ======================================================
2015-12-01 10:11:08 - DEBUG --> Connecting to BigCouch...
2015-12-01 10:11:08 - DEBUG -->  - POST - edit account doc 6afe0296c69eac23a004ab0483770377
2015-12-01 10:11:08 - DEBUG --> Request coming from 162.216.4.136
2015-12-01 10:12:13 - INFO --> ======================================================
2015-12-01 10:12:13 - INFO --> ================== Starting process ==================
2015-12-01 10:12:13 - INFO --> ======================================================
2015-12-01 10:12:13 - DEBUG --> Connecting to BigCouch...
2015-12-01 10:12:13 - DEBUG -->  - GET - retrieve account doc 6afe0296c69eac23a004ab0483770377
2015-12-01 10:12:13 - DEBUG --> Request coming from 162.216.4.136
2015-12-01 10:12:13 - INFO --> ======================================================
2015-12-01 10:12:13 - INFO --> ================== Starting process ==================
2015-12-01 10:12:13 - INFO --> ======================================================
2015-12-01 10:12:13 - DEBUG --> Connecting to BigCouch...
2015-12-01 10:12:13 - DEBUG -->  - POST - edit account doc 6afe0296c69eac23a004ab0483770377
2015-12-01 10:12:13 - DEBUG --> Request coming from 162.216.4.136
2015-12-01 10:13:07 - INFO --> ======================================================
2015-12-01 10:13:07 - INFO --> ================== Starting process ==================
2015-12-01 10:13:07 - INFO --> ======================================================
2015-12-01 10:13:07 - DEBUG --> Connecting to BigCouch...
2015-12-01 10:13:07 - DEBUG -->  - GET - retrieve account doc 6afe0296c69eac23a004ab0483770377
2015-12-01 10:13:07 - DEBUG --> Request coming from 162.216.4.136
2015-12-01 10:13:07 - INFO --> ======================================================
2015-12-01 10:13:07 - INFO --> ================== Starting process ==================
2015-12-01 10:13:07 - INFO --> ======================================================
2015-12-01 10:13:07 - DEBUG --> Connecting to BigCouch...
2015-12-01 10:13:07 - DEBUG -->  - POST - edit account doc 6afe0296c69eac23a004ab0483770377
2015-12-01 10:13:07 - DEBUG --> Request coming from 162.216.4.136
2015-12-01 10:13:51 - INFO --> ======================================================
2015-12-01 10:13:51 - INFO --> ================== Starting process ==================
2015-12-01 10:13:51 - INFO --> ======================================================
2015-12-01 10:13:51 - DEBUG --> Connecting to BigCouch...
2015-12-01 10:13:51 - DEBUG -->  - GET - retrieve account doc 6afe0296c69eac23a004ab0483770377
2015-12-01 10:13:51 - DEBUG --> Request coming from 162.216.4.136
2015-12-01 10:13:52 - INFO --> ======================================================
2015-12-01 10:13:52 - INFO --> ================== Starting process ==================
2015-12-01 10:13:52 - INFO --> ======================================================
2015-12-01 10:13:52 - DEBUG --> Connecting to BigCouch...
2015-12-01 10:13:52 - DEBUG -->  - POST - edit account doc 6afe0296c69eac23a004ab0483770377
2015-12-01 10:13:52 - DEBUG --> Request coming from 162.216.4.136
2015-12-01 10:14:22 - INFO --> ======================================================
2015-12-01 10:14:22 - INFO --> ================== Starting process ==================
2015-12-01 10:14:22 - INFO --> ======================================================
2015-12-01 10:14:22 - DEBUG --> Connecting to BigCouch...
2015-12-01 10:14:22 - DEBUG -->  - GET - retrieve account doc 6afe0296c69eac23a004ab0483770377
2015-12-01 10:14:22 - DEBUG --> Request coming from 162.216.4.136
2015-12-01 10:14:22 - INFO --> ======================================================
2015-12-01 10:14:22 - INFO --> ================== Starting process ==================
2015-12-01 10:14:22 - INFO --> ======================================================
2015-12-01 10:14:22 - DEBUG --> Connecting to BigCouch...
2015-12-01 10:14:22 - DEBUG -->  - POST - edit account doc 6afe0296c69eac23a004ab0483770377
2015-12-01 10:14:22 - DEBUG --> Request coming from 162.216.4.136
2015-12-01 10:14:52 - INFO --> ======================================================
2015-12-01 10:14:52 - INFO --> ================== Starting process ==================
2015-12-01 10:14:52 - INFO --> ======================================================
2015-12-01 10:14:52 - DEBUG --> Connecting to BigCouch...
2015-12-01 10:14:52 - DEBUG -->  - GET - retrieve account doc 6afe0296c69eac23a004ab0483770377
2015-12-01 10:14:52 - DEBUG --> Request coming from 162.216.4.136
2015-12-01 10:14:52 - INFO --> ======================================================
2015-12-01 10:14:52 - INFO --> ================== Starting process ==================
2015-12-01 10:14:52 - INFO --> ======================================================
2015-12-01 10:14:52 - DEBUG --> Connecting to BigCouch...
2015-12-01 10:14:52 - DEBUG -->  - POST - edit account doc 6afe0296c69eac23a004ab0483770377
2015-12-01 10:14:52 - DEBUG --> Request coming from 162.216.4.136
2015-12-01 10:15:26 - INFO --> ======================================================
2015-12-01 10:15:26 - INFO --> ================== Starting process ==================
2015-12-01 10:15:26 - INFO --> ======================================================
2015-12-01 10:15:26 - DEBUG --> Connecting to BigCouch...
2015-12-01 10:15:26 - DEBUG -->  - GET - retrieve account doc 6afe0296c69eac23a004ab0483770377
2015-12-01 10:15:26 - DEBUG --> Request coming from 162.216.4.136
2015-12-01 10:15:26 - INFO --> ======================================================
2015-12-01 10:15:26 - INFO --> ================== Starting process ==================
2015-12-01 10:15:26 - INFO --> ======================================================
2015-12-01 10:15:26 - DEBUG --> Connecting to BigCouch...
2015-12-01 10:15:26 - DEBUG -->  - POST - edit account doc 6afe0296c69eac23a004ab0483770377
2015-12-01 10:15:26 - DEBUG --> Request coming from 162.216.4.136
2015-12-01 10:19:17 - INFO --> ======================================================
2015-12-01 10:19:17 - INFO --> ================== Starting process ==================
2015-12-01 10:19:17 - INFO --> ======================================================
2015-12-01 10:19:17 - DEBUG --> Connecting to BigCouch...
2015-12-01 10:19:17 - DEBUG -->  - GET - retrieve account doc 074f14eb4ac8ac3e7f88e02de6183c7a
2015-12-01 10:19:17 - DEBUG --> Request coming from 162.216.4.136
2015-12-01 10:19:17 - DEBUG --> No account with this id - EXIT
2015-12-01 10:19:18 - INFO --> ======================================================
2015-12-01 10:19:18 - INFO --> ================== Starting process ==================
2015-12-01 10:19:18 - INFO --> ======================================================
2015-12-01 10:19:18 - DEBUG --> Connecting to BigCouch...
2015-12-01 10:19:18 - DEBUG -->  - PUT - Adding account first...
2015-12-01 10:19:18 - DEBUG --> Request coming from 162.216.4.136
2015-12-01 10:19:18 - DEBUG --> Successfully Add account
2015-12-01 10:21:58 - INFO --> ======================================================
2015-12-01 10:21:58 - INFO --> ================== Starting process ==================
2015-12-01 10:21:58 - INFO --> ======================================================
2015-12-01 10:21:58 - DEBUG --> Connecting to BigCouch...
2015-12-01 10:21:58 - DEBUG -->  - GET - retrieve account doc 3c150787c254554418b543d4b27cfd49
2015-12-01 10:21:58 - DEBUG --> Request coming from 162.216.4.136
2015-12-01 10:21:58 - DEBUG --> No account with this id - EXIT
2015-12-01 10:21:58 - INFO --> ======================================================
2015-12-01 10:21:58 - INFO --> ================== Starting process ==================
2015-12-01 10:21:58 - INFO --> ======================================================
2015-12-01 10:21:58 - DEBUG --> Connecting to BigCouch...
2015-12-01 10:21:58 - DEBUG -->  - PUT - Adding account first...
2015-12-01 10:21:58 - DEBUG --> Request coming from 162.216.4.136
2015-12-01 10:21:59 - DEBUG --> Successfully Add account
2015-12-01 10:24:19 - INFO --> ======================================================
2015-12-01 10:24:19 - INFO --> ================== Starting process ==================
2015-12-01 10:24:19 - INFO --> ======================================================
2015-12-01 10:24:19 - DEBUG --> Connecting to BigCouch...
2015-12-01 10:24:19 - DEBUG -->  - GET - retrieve account doc 3c150787c254554418b543d4b27cfd49
2015-12-01 10:24:19 - DEBUG --> Request coming from 162.216.4.136
2015-12-01 10:24:19 - INFO --> ======================================================
2015-12-01 10:24:19 - INFO --> ================== Starting process ==================
2015-12-01 10:24:19 - INFO --> ======================================================
2015-12-01 10:24:19 - DEBUG --> Connecting to BigCouch...
2015-12-01 10:24:19 - DEBUG -->  - POST - edit account doc 3c150787c254554418b543d4b27cfd49
2015-12-01 10:24:19 - DEBUG --> Request coming from 162.216.4.136
2015-12-01 10:24:19 - INFO --> ======================================================
2015-12-01 10:24:19 - INFO --> ================== Starting process ==================
2015-12-01 10:24:19 - INFO --> ======================================================
2015-12-01 10:24:19 - DEBUG --> Connecting to BigCouch...
2015-12-01 10:24:19 - DEBUG -->  - GET - retrieve account doc 3c150787c254554418b543d4b27cfd49 for mac doc 011213141516
2015-12-01 10:24:19 - DEBUG --> Request coming from 162.216.4.136
2015-12-01 10:24:19 - DEBUG --> No doc for this mac address - EXIT
2015-12-01 10:24:19 - INFO --> ======================================================
2015-12-01 10:24:19 - INFO --> ================== Starting process ==================
2015-12-01 10:24:19 - INFO --> ======================================================
2015-12-01 10:24:19 - DEBUG --> Connecting to BigCouch...
2015-12-01 10:24:19 - DEBUG -->  - PUT - Adding account first...
2015-12-01 10:24:19 - DEBUG --> Request coming from 162.216.4.136
2015-12-01 10:24:19 - DEBUG --> Adding the device with mac_address 011213141516...
2015-12-01 10:24:19 - DEBUG --> The mac_lookup...
2015-12-01 10:24:19 - DEBUG --> SUCCESS! exit...
2015-12-01 10:24:23 - INFO --> ======================================================
2015-12-01 10:24:23 - INFO --> ================== Starting process ==================
2015-12-01 10:24:23 - INFO --> ======================================================
2015-12-01 10:24:23 - DEBUG --> Connecting to BigCouch...
2015-12-01 10:24:23 - DEBUG -->  - GET - retrieve account doc 3c150787c254554418b543d4b27cfd49
2015-12-01 10:24:23 - DEBUG --> Request coming from 162.216.4.136
2015-12-01 10:24:23 - INFO --> ======================================================
2015-12-01 10:24:23 - INFO --> ================== Starting process ==================
2015-12-01 10:24:23 - INFO --> ======================================================
2015-12-01 10:24:23 - DEBUG --> Connecting to BigCouch...
2015-12-01 10:24:23 - DEBUG -->  - POST - edit account doc 3c150787c254554418b543d4b27cfd49
2015-12-01 10:24:23 - DEBUG --> Request coming from 162.216.4.136
2015-12-01 10:24:23 - INFO --> ======================================================
2015-12-01 10:24:23 - INFO --> ================== Starting process ==================
2015-12-01 10:24:23 - INFO --> ======================================================
2015-12-01 10:24:23 - DEBUG --> Connecting to BigCouch...
2015-12-01 10:24:23 - DEBUG -->  - GET - retrieve account doc 3c150787c254554418b543d4b27cfd49 for mac doc 011213141516
2015-12-01 10:24:23 - DEBUG --> Request coming from 162.216.4.136
2015-12-01 10:24:24 - INFO --> ======================================================
2015-12-01 10:24:24 - INFO --> ================== Starting process ==================
2015-12-01 10:24:24 - INFO --> ======================================================
2015-12-01 10:24:24 - DEBUG --> Connecting to BigCouch...
2015-12-01 10:24:24 - DEBUG -->  - POST - edit in doc 3c150787c254554418b543d4b27cfd49 mac address 011213141516
2015-12-01 10:24:24 - DEBUG --> Request coming from 162.216.4.136
2015-12-01 10:24:24 - DEBUG --> Will now edit the mac_lookup...
2015-12-01 10:24:24 - DEBUG --> done... Edit for account 3c150787c254554418b543d4b27cfd49 and mac_address 011213141516 SUCCESS
2015-12-01 10:24:44 - INFO --> ======================================================
2015-12-01 10:24:44 - INFO --> ================== Starting process ==================
2015-12-01 10:24:44 - INFO --> ======================================================
2015-12-01 10:24:44 - DEBUG --> Connecting to BigCouch...
2015-12-01 10:24:44 - DEBUG -->  - GET - retrieve account doc 3c150787c254554418b543d4b27cfd49
2015-12-01 10:24:44 - DEBUG --> Request coming from 162.216.4.136
2015-12-01 10:24:44 - INFO --> ======================================================
2015-12-01 10:24:44 - INFO --> ================== Starting process ==================
2015-12-01 10:24:44 - INFO --> ======================================================
2015-12-01 10:24:44 - DEBUG --> Connecting to BigCouch...
2015-12-01 10:24:44 - DEBUG -->  - POST - edit account doc 3c150787c254554418b543d4b27cfd49
2015-12-01 10:24:44 - DEBUG --> Request coming from 162.216.4.136
2015-12-01 10:25:24 - INFO --> ======================================================
2015-12-01 10:25:24 - INFO --> ================== Starting process ==================
2015-12-01 10:25:24 - INFO --> ======================================================
2015-12-01 10:25:24 - DEBUG --> Connecting to BigCouch...
2015-12-01 10:25:24 - DEBUG -->  - GET - retrieve account doc 3c150787c254554418b543d4b27cfd49
2015-12-01 10:25:24 - DEBUG --> Request coming from 162.216.4.136
2015-12-01 10:25:24 - INFO --> ======================================================
2015-12-01 10:25:24 - INFO --> ================== Starting process ==================
2015-12-01 10:25:24 - INFO --> ======================================================
2015-12-01 10:25:24 - DEBUG --> Connecting to BigCouch...
2015-12-01 10:25:24 - DEBUG -->  - POST - edit account doc 3c150787c254554418b543d4b27cfd49
2015-12-01 10:25:24 - DEBUG --> Request coming from 162.216.4.136
2015-12-01 10:25:43 - INFO --> ======================================================
2015-12-01 10:25:43 - INFO --> ================== Starting process ==================
2015-12-01 10:25:43 - INFO --> ======================================================
2015-12-01 10:25:43 - DEBUG --> Connecting to BigCouch...
2015-12-01 10:25:43 - DEBUG -->  - GET - retrieve account doc 3c150787c254554418b543d4b27cfd49
2015-12-01 10:25:43 - DEBUG --> Request coming from 162.216.4.136
2015-12-01 10:25:43 - INFO --> ======================================================
2015-12-01 10:25:43 - INFO --> ================== Starting process ==================
2015-12-01 10:25:43 - INFO --> ======================================================
2015-12-01 10:25:43 - DEBUG --> Connecting to BigCouch...
2015-12-01 10:25:43 - DEBUG -->  - POST - edit account doc 3c150787c254554418b543d4b27cfd49
2015-12-01 10:25:43 - DEBUG --> Request coming from 162.216.4.136
2015-12-01 10:31:52 - INFO --> ======================================================
2015-12-01 10:31:52 - INFO --> ================== Starting process ==================
2015-12-01 10:31:52 - INFO --> ======================================================
2015-12-01 10:31:52 - DEBUG --> Connecting to BigCouch...
2015-12-01 10:31:52 - DEBUG -->  - GET - retrieve account doc 3c150787c254554418b543d4b27cfd49
2015-12-01 10:31:52 - DEBUG --> Request coming from 162.216.4.136
2015-12-01 10:31:53 - INFO --> ======================================================
2015-12-01 10:31:53 - INFO --> ================== Starting process ==================
2015-12-01 10:31:53 - INFO --> ======================================================
2015-12-01 10:31:53 - DEBUG --> Connecting to BigCouch...
2015-12-01 10:31:53 - DEBUG -->  - POST - edit account doc 3c150787c254554418b543d4b27cfd49
2015-12-01 10:31:53 - DEBUG --> Request coming from 162.216.4.136
2015-12-01 10:42:52 - INFO --> ======================================================
2015-12-01 10:42:52 - INFO --> ================== Starting process ==================
2015-12-01 10:42:52 - INFO --> ======================================================
2015-12-01 10:42:52 - DEBUG --> Connecting to BigCouch...
2015-12-01 10:42:52 - DEBUG -->  - GET - retrieve account doc d66e0c7d141ff341bca411f52aa8c55e
2015-12-01 10:42:52 - DEBUG --> Request coming from 162.216.4.136
2015-12-01 10:42:52 - INFO --> ======================================================
2015-12-01 10:42:52 - INFO --> ================== Starting process ==================
2015-12-01 10:42:52 - INFO --> ======================================================
2015-12-01 10:42:52 - DEBUG --> Connecting to BigCouch...
2015-12-01 10:42:52 - DEBUG -->  - POST - edit account doc d66e0c7d141ff341bca411f52aa8c55e
2015-12-01 10:42:52 - DEBUG --> Request coming from 162.216.4.136
2015-12-01 10:43:57 - INFO --> ======================================================
2015-12-01 10:43:57 - INFO --> ================== Starting process ==================
2015-12-01 10:43:57 - INFO --> ======================================================
2015-12-01 10:43:57 - DEBUG --> Connecting to BigCouch...
2015-12-01 10:43:57 - DEBUG -->  - GET - retrieve account doc d66e0c7d141ff341bca411f52aa8c55e
2015-12-01 10:43:57 - DEBUG --> Request coming from 162.216.4.136
2015-12-01 10:43:57 - INFO --> ======================================================
2015-12-01 10:43:57 - INFO --> ================== Starting process ==================
2015-12-01 10:43:57 - INFO --> ======================================================
2015-12-01 10:43:57 - DEBUG --> Connecting to BigCouch...
2015-12-01 10:43:57 - DEBUG -->  - POST - edit account doc d66e0c7d141ff341bca411f52aa8c55e
2015-12-01 10:43:57 - DEBUG --> Request coming from 162.216.4.136
2015-12-01 10:43:59 - INFO --> ======================================================
2015-12-01 10:43:59 - INFO --> ================== Starting process ==================
2015-12-01 10:43:59 - INFO --> ======================================================
2015-12-01 10:43:59 - DEBUG --> Connecting to BigCouch...
2015-12-01 10:43:59 - DEBUG -->  - GET - retrieve account doc d66e0c7d141ff341bca411f52aa8c55e
2015-12-01 10:43:59 - DEBUG --> Request coming from 162.216.4.136
2015-12-01 10:43:59 - INFO --> ======================================================
2015-12-01 10:43:59 - INFO --> ================== Starting process ==================
2015-12-01 10:43:59 - INFO --> ======================================================
2015-12-01 10:43:59 - DEBUG --> Connecting to BigCouch...
2015-12-01 10:43:59 - DEBUG -->  - POST - edit account doc d66e0c7d141ff341bca411f52aa8c55e
2015-12-01 10:43:59 - DEBUG --> Request coming from 162.216.4.136
2015-12-01 10:50:27 - INFO --> ======================================================
2015-12-01 10:50:27 - INFO --> ================== Starting process ==================
2015-12-01 10:50:27 - INFO --> ======================================================
2015-12-01 10:50:27 - DEBUG --> Connecting to BigCouch...
2015-12-01 10:50:27 - DEBUG -->  - GET - retrieve account doc d66e0c7d141ff341bca411f52aa8c55e
2015-12-01 10:50:27 - DEBUG --> Request coming from 162.216.4.136
2015-12-01 10:50:27 - INFO --> ======================================================
2015-12-01 10:50:27 - INFO --> ================== Starting process ==================
2015-12-01 10:50:27 - INFO --> ======================================================
2015-12-01 10:50:27 - DEBUG --> Connecting to BigCouch...
2015-12-01 10:50:27 - DEBUG -->  - POST - edit account doc d66e0c7d141ff341bca411f52aa8c55e
2015-12-01 10:50:27 - DEBUG --> Request coming from 162.216.4.136
2015-12-01 10:52:03 - INFO --> ======================================================
2015-12-01 10:52:03 - INFO --> ================== Starting process ==================
2015-12-01 10:52:03 - INFO --> ======================================================
2015-12-01 10:52:03 - DEBUG --> Connecting to BigCouch...
2015-12-01 10:52:03 - DEBUG -->  - GET - retrieve account doc d66e0c7d141ff341bca411f52aa8c55e
2015-12-01 10:52:03 - DEBUG --> Request coming from 162.216.4.136
2015-12-01 10:52:03 - INFO --> ======================================================
2015-12-01 10:52:03 - INFO --> ================== Starting process ==================
2015-12-01 10:52:03 - INFO --> ======================================================
2015-12-01 10:52:03 - DEBUG --> Connecting to BigCouch...
2015-12-01 10:52:03 - DEBUG -->  - POST - edit account doc d66e0c7d141ff341bca411f52aa8c55e
2015-12-01 10:52:03 - DEBUG --> Request coming from 162.216.4.136
2015-12-01 10:52:06 - INFO --> ======================================================
2015-12-01 10:52:06 - INFO --> ================== Starting process ==================
2015-12-01 10:52:06 - INFO --> ======================================================
2015-12-01 10:52:06 - DEBUG --> Connecting to BigCouch...
2015-12-01 10:52:06 - DEBUG -->  - GET - retrieve account doc d66e0c7d141ff341bca411f52aa8c55e
2015-12-01 10:52:06 - DEBUG --> Request coming from 162.216.4.136
2015-12-01 10:52:06 - INFO --> ======================================================
2015-12-01 10:52:06 - INFO --> ================== Starting process ==================
2015-12-01 10:52:06 - INFO --> ======================================================
2015-12-01 10:52:06 - DEBUG --> Connecting to BigCouch...
2015-12-01 10:52:06 - DEBUG -->  - POST - edit account doc d66e0c7d141ff341bca411f52aa8c55e
2015-12-01 10:52:06 - DEBUG --> Request coming from 162.216.4.136
2015-12-01 11:21:34 - INFO --> ======================================================
2015-12-01 11:21:34 - INFO --> ================== Starting process ==================
2015-12-01 11:21:34 - INFO --> ======================================================
2015-12-01 11:21:34 - DEBUG --> Connecting to BigCouch...
2015-12-01 11:21:34 - DEBUG -->  - GET - retrieve account doc 6afe0296c69eac23a004ab0483770377
2015-12-01 11:21:34 - DEBUG --> Request coming from 162.216.4.136
2015-12-01 11:21:34 - INFO --> ======================================================
2015-12-01 11:21:34 - INFO --> ================== Starting process ==================
2015-12-01 11:21:34 - INFO --> ======================================================
2015-12-01 11:21:34 - DEBUG --> Connecting to BigCouch...
2015-12-01 11:21:34 - DEBUG -->  - POST - edit account doc 6afe0296c69eac23a004ab0483770377
2015-12-01 11:21:34 - DEBUG --> Request coming from 162.216.4.136
2015-12-01 11:21:35 - INFO --> ======================================================
2015-12-01 11:21:35 - INFO --> ================== Starting process ==================
2015-12-01 11:21:35 - INFO --> ======================================================
2015-12-01 11:21:35 - DEBUG --> Connecting to BigCouch...
2015-12-01 11:21:35 - DEBUG -->  - GET - retrieve account doc 6afe0296c69eac23a004ab0483770377 for mac doc 0015659107a4
2015-12-01 11:21:35 - DEBUG --> Request coming from 162.216.4.136
2015-12-01 11:21:35 - DEBUG --> No doc for this mac address - EXIT
2015-12-01 11:21:35 - INFO --> ======================================================
2015-12-01 11:21:35 - INFO --> ================== Starting process ==================
2015-12-01 11:21:35 - INFO --> ======================================================
2015-12-01 11:21:35 - DEBUG --> Connecting to BigCouch...
2015-12-01 11:21:35 - DEBUG -->  - PUT - Adding account first...
2015-12-01 11:21:35 - DEBUG --> Request coming from 162.216.4.136
2015-12-01 11:21:35 - DEBUG --> Adding the device with mac_address 0015659107a4...
2015-12-01 11:21:35 - DEBUG --> The mac_lookup...
2015-12-01 11:21:35 - DEBUG --> SUCCESS! exit...
2015-12-01 11:32:54 - INFO --> ======================================================
2015-12-01 11:32:54 - INFO --> ================== Starting process ==================
2015-12-01 11:32:54 - INFO --> ======================================================
2015-12-01 11:32:54 - DEBUG --> Connecting to BigCouch...
2015-12-01 11:32:54 - DEBUG -->  - DELETE - Deleting a device (0015659107a4) for account 6afe0296c69eac23a004ab0483770377...
2015-12-01 11:32:54 - DEBUG --> Request coming from 162.216.4.136
2015-12-01 11:32:54 - DEBUG --> The device does exist... let's delete it
2015-12-01 11:32:54 - DEBUG --> Now deleting the mac lookup entry...
2015-12-01 11:32:54 - DEBUG --> Successfully deleted device (0015659107a4)
2015-12-01 11:34:01 - INFO --> ======================================================
2015-12-01 11:34:01 - INFO --> ================== Starting process ==================
2015-12-01 11:34:01 - INFO --> ======================================================
2015-12-01 11:34:01 - DEBUG --> Connecting to BigCouch...
2015-12-01 11:34:01 - DEBUG -->  - GET - retrieve account doc 6afe0296c69eac23a004ab0483770377
2015-12-01 11:34:01 - DEBUG --> Request coming from 162.216.4.136
2015-12-01 11:34:01 - INFO --> ======================================================
2015-12-01 11:34:01 - INFO --> ================== Starting process ==================
2015-12-01 11:34:01 - INFO --> ======================================================
2015-12-01 11:34:01 - DEBUG --> Connecting to BigCouch...
2015-12-01 11:34:01 - DEBUG -->  - POST - edit account doc 6afe0296c69eac23a004ab0483770377
2015-12-01 11:34:01 - DEBUG --> Request coming from 162.216.4.136
2015-12-01 11:36:36 - INFO --> ======================================================
2015-12-01 11:36:36 - INFO --> ================== Starting process ==================
2015-12-01 11:36:36 - INFO --> ======================================================
2015-12-01 11:36:36 - DEBUG --> Connecting to BigCouch...
2015-12-01 11:36:36 - DEBUG -->  - GET - retrieve account doc 6afe0296c69eac23a004ab0483770377
2015-12-01 11:36:36 - DEBUG --> Request coming from 162.216.4.136
2015-12-01 11:36:36 - INFO --> ======================================================
2015-12-01 11:36:36 - INFO --> ================== Starting process ==================
2015-12-01 11:36:36 - INFO --> ======================================================
2015-12-01 11:36:36 - DEBUG --> Connecting to BigCouch...
2015-12-01 11:36:36 - DEBUG -->  - POST - edit account doc 6afe0296c69eac23a004ab0483770377
2015-12-01 11:36:36 - DEBUG --> Request coming from 162.216.4.136
2015-12-01 11:36:36 - INFO --> ======================================================
2015-12-01 11:36:36 - INFO --> ================== Starting process ==================
2015-12-01 11:36:36 - INFO --> ======================================================
2015-12-01 11:36:36 - DEBUG --> Connecting to BigCouch...
2015-12-01 11:36:36 - DEBUG -->  - GET - retrieve account doc 6afe0296c69eac23a004ab0483770377 for mac doc 0015659107a4
2015-12-01 11:36:36 - DEBUG --> Request coming from 162.216.4.136
2015-12-01 11:36:36 - DEBUG --> No doc for this mac address - EXIT
2015-12-01 11:36:37 - INFO --> ======================================================
2015-12-01 11:36:37 - INFO --> ================== Starting process ==================
2015-12-01 11:36:37 - INFO --> ======================================================
2015-12-01 11:36:37 - DEBUG --> Connecting to BigCouch...
2015-12-01 11:36:37 - DEBUG -->  - PUT - Adding account first...
2015-12-01 11:36:37 - DEBUG --> Request coming from 162.216.4.136
2015-12-01 11:36:37 - DEBUG --> Adding the device with mac_address 0015659107a4...
2015-12-01 11:36:37 - DEBUG --> The mac_lookup...
2015-12-01 11:36:37 - DEBUG --> SUCCESS! exit...
2015-12-01 11:36:44 - INFO --> ======================================================
2015-12-01 11:36:44 - INFO --> ================== Starting process ==================
2015-12-01 11:36:44 - INFO --> ======================================================
2015-12-01 11:36:44 - DEBUG --> Connecting to BigCouch...
2015-12-01 11:36:44 - DEBUG -->  - GET - retrieve account doc 6afe0296c69eac23a004ab0483770377
2015-12-01 11:36:44 - DEBUG --> Request coming from 162.216.4.136
2015-12-01 11:36:44 - INFO --> ======================================================
2015-12-01 11:36:44 - INFO --> ================== Starting process ==================
2015-12-01 11:36:44 - INFO --> ======================================================
2015-12-01 11:36:44 - DEBUG --> Connecting to BigCouch...
2015-12-01 11:36:44 - DEBUG -->  - POST - edit account doc 6afe0296c69eac23a004ab0483770377
2015-12-01 11:36:44 - DEBUG --> Request coming from 162.216.4.136
2015-12-01 11:38:58 - INFO --> ======================================================
2015-12-01 11:38:58 - INFO --> ================== Starting process ==================
2015-12-01 11:38:58 - INFO --> ======================================================
2015-12-01 11:38:58 - DEBUG --> Connecting to BigCouch...
2015-12-01 11:38:58 - DEBUG -->  - GET - retrieve account doc 6afe0296c69eac23a004ab0483770377
2015-12-01 11:38:58 - DEBUG --> Request coming from 162.216.4.136
2015-12-01 11:38:58 - INFO --> ======================================================
2015-12-01 11:38:58 - INFO --> ================== Starting process ==================
2015-12-01 11:38:58 - INFO --> ======================================================
2015-12-01 11:38:58 - DEBUG --> Connecting to BigCouch...
2015-12-01 11:38:58 - DEBUG -->  - POST - edit account doc 6afe0296c69eac23a004ab0483770377
2015-12-01 11:38:58 - DEBUG --> Request coming from 162.216.4.136
2015-12-01 11:39:41 - INFO --> ======================================================
2015-12-01 11:39:41 - INFO --> ================== Starting process ==================
2015-12-01 11:39:41 - INFO --> ======================================================
2015-12-01 11:39:41 - DEBUG --> Connecting to BigCouch...
2015-12-01 11:39:41 - DEBUG -->  - GET - retrieve account doc 6afe0296c69eac23a004ab0483770377
2015-12-01 11:39:41 - DEBUG --> Request coming from 162.216.4.136
2015-12-01 11:39:41 - INFO --> ======================================================
2015-12-01 11:39:41 - INFO --> ================== Starting process ==================
2015-12-01 11:39:41 - INFO --> ======================================================
2015-12-01 11:39:41 - DEBUG --> Connecting to BigCouch...
2015-12-01 11:39:41 - DEBUG -->  - POST - edit account doc 6afe0296c69eac23a004ab0483770377
2015-12-01 11:39:41 - DEBUG --> Request coming from 162.216.4.136
2015-12-01 11:41:22 - INFO --> ======================================================
2015-12-01 11:41:22 - INFO --> ================== Starting process ==================
2015-12-01 11:41:22 - INFO --> ======================================================
2015-12-01 11:41:22 - DEBUG --> Connecting to BigCouch...
2015-12-01 11:41:22 - DEBUG -->  - GET - retrieve account doc 6afe0296c69eac23a004ab0483770377
2015-12-01 11:41:22 - DEBUG --> Request coming from 162.216.4.136
2015-12-01 11:41:22 - INFO --> ======================================================
2015-12-01 11:41:22 - INFO --> ================== Starting process ==================
2015-12-01 11:41:22 - INFO --> ======================================================
2015-12-01 11:41:22 - DEBUG --> Connecting to BigCouch...
2015-12-01 11:41:22 - DEBUG -->  - POST - edit account doc 6afe0296c69eac23a004ab0483770377
2015-12-01 11:41:22 - DEBUG --> Request coming from 162.216.4.136
2015-12-01 11:45:57 - INFO --> ======================================================
2015-12-01 11:45:57 - INFO --> ================== Starting process ==================
2015-12-01 11:45:57 - INFO --> ======================================================
2015-12-01 11:45:57 - DEBUG --> Connecting to BigCouch...
2015-12-01 11:45:57 - DEBUG -->  - GET - retrieve account doc 6afe0296c69eac23a004ab0483770377
2015-12-01 11:45:57 - DEBUG --> Request coming from 162.216.4.136
2015-12-01 11:45:57 - INFO --> ======================================================
2015-12-01 11:45:57 - INFO --> ================== Starting process ==================
2015-12-01 11:45:57 - INFO --> ======================================================
2015-12-01 11:45:57 - DEBUG --> Connecting to BigCouch...
2015-12-01 11:45:57 - DEBUG -->  - POST - edit account doc 6afe0296c69eac23a004ab0483770377
2015-12-01 11:45:57 - DEBUG --> Request coming from 162.216.4.136
2015-12-01 11:45:58 - INFO --> ======================================================
2015-12-01 11:45:58 - INFO --> ================== Starting process ==================
2015-12-01 11:45:58 - INFO --> ======================================================
2015-12-01 11:45:58 - DEBUG --> Connecting to BigCouch...
2015-12-01 11:45:58 - DEBUG -->  - GET - retrieve account doc 6afe0296c69eac23a004ab0483770377 for mac doc 00156590f9b2
2015-12-01 11:45:58 - DEBUG --> Request coming from 162.216.4.136
2015-12-01 11:45:58 - DEBUG --> No doc for this mac address - EXIT
2015-12-01 11:45:58 - INFO --> ======================================================
2015-12-01 11:45:58 - INFO --> ================== Starting process ==================
2015-12-01 11:45:58 - INFO --> ======================================================
2015-12-01 11:45:58 - DEBUG --> Connecting to BigCouch...
2015-12-01 11:45:58 - DEBUG -->  - PUT - Adding account first...
2015-12-01 11:45:58 - DEBUG --> Request coming from 162.216.4.136
2015-12-01 11:45:58 - DEBUG --> Adding the device with mac_address 00156590f9b2...
2015-12-01 11:45:58 - DEBUG --> The mac_lookup...
2015-12-01 11:45:58 - DEBUG --> SUCCESS! exit...
2015-12-01 11:46:22 - INFO --> ======================================================
2015-12-01 11:46:22 - INFO --> ================== Starting process ==================
2015-12-01 11:46:22 - INFO --> ======================================================
2015-12-01 11:46:22 - DEBUG --> Connecting to BigCouch...
2015-12-01 11:46:22 - DEBUG -->  - GET - retrieve account doc 6afe0296c69eac23a004ab0483770377
2015-12-01 11:46:22 - DEBUG --> Request coming from 162.216.4.136
2015-12-01 11:46:22 - INFO --> ======================================================
2015-12-01 11:46:22 - INFO --> ================== Starting process ==================
2015-12-01 11:46:22 - INFO --> ======================================================
2015-12-01 11:46:22 - DEBUG --> Connecting to BigCouch...
2015-12-01 11:46:22 - DEBUG -->  - POST - edit account doc 6afe0296c69eac23a004ab0483770377
2015-12-01 11:46:22 - DEBUG --> Request coming from 162.216.4.136
2015-12-01 11:46:23 - INFO --> ======================================================
2015-12-01 11:46:23 - INFO --> ================== Starting process ==================
2015-12-01 11:46:23 - INFO --> ======================================================
2015-12-01 11:46:23 - DEBUG --> Connecting to BigCouch...
2015-12-01 11:46:23 - DEBUG -->  - GET - retrieve account doc 6afe0296c69eac23a004ab0483770377 for mac doc 00156590f9b2
2015-12-01 11:46:23 - DEBUG --> Request coming from 162.216.4.136
2015-12-01 11:46:23 - INFO --> ======================================================
2015-12-01 11:46:23 - INFO --> ================== Starting process ==================
2015-12-01 11:46:23 - INFO --> ======================================================
2015-12-01 11:46:23 - DEBUG --> Connecting to BigCouch...
2015-12-01 11:46:23 - DEBUG -->  - POST - edit in doc 6afe0296c69eac23a004ab0483770377 mac address 00156590f9b2
2015-12-01 11:46:23 - DEBUG --> Request coming from 162.216.4.136
2015-12-01 11:46:23 - DEBUG --> Will now edit the mac_lookup...
2015-12-01 11:46:23 - DEBUG --> done... Edit for account 6afe0296c69eac23a004ab0483770377 and mac_address 00156590f9b2 SUCCESS
2015-12-01 11:46:52 - INFO --> ======================================================
2015-12-01 11:46:52 - INFO --> ================== Starting process ==================
2015-12-01 11:46:52 - INFO --> ======================================================
2015-12-01 11:46:52 - DEBUG --> Connecting to BigCouch...
2015-12-01 11:46:52 - DEBUG -->  - GET - retrieve account doc 6afe0296c69eac23a004ab0483770377
2015-12-01 11:46:52 - DEBUG --> Request coming from 162.216.4.136
2015-12-01 11:46:52 - INFO --> ======================================================
2015-12-01 11:46:52 - INFO --> ================== Starting process ==================
2015-12-01 11:46:52 - INFO --> ======================================================
2015-12-01 11:46:52 - DEBUG --> Connecting to BigCouch...
2015-12-01 11:46:52 - DEBUG -->  - POST - edit account doc 6afe0296c69eac23a004ab0483770377
2015-12-01 11:46:52 - DEBUG --> Request coming from 162.216.4.136
2015-12-01 11:52:52 - INFO --> ======================================================
2015-12-01 11:52:52 - INFO --> ================== Starting process ==================
2015-12-01 11:52:52 - INFO --> ======================================================
2015-12-01 11:52:52 - DEBUG --> Connecting to BigCouch...
2015-12-01 11:52:52 - DEBUG -->  - GET - retrieve account doc 6afe0296c69eac23a004ab0483770377
2015-12-01 11:52:52 - DEBUG --> Request coming from 162.216.4.136
2015-12-01 11:52:53 - INFO --> ======================================================
2015-12-01 11:52:53 - INFO --> ================== Starting process ==================
2015-12-01 11:52:53 - INFO --> ======================================================
2015-12-01 11:52:53 - DEBUG --> Connecting to BigCouch...
2015-12-01 11:52:53 - DEBUG -->  - POST - edit account doc 6afe0296c69eac23a004ab0483770377
2015-12-01 11:52:53 - DEBUG --> Request coming from 162.216.4.136
2015-12-01 11:52:53 - INFO --> ======================================================
2015-12-01 11:52:53 - INFO --> ================== Starting process ==================
2015-12-01 11:52:53 - INFO --> ======================================================
2015-12-01 11:52:53 - DEBUG --> Connecting to BigCouch...
2015-12-01 11:52:53 - DEBUG -->  - GET - retrieve account doc 6afe0296c69eac23a004ab0483770377 for mac doc 001565910482
2015-12-01 11:52:53 - DEBUG --> Request coming from 162.216.4.136
2015-12-01 11:52:53 - DEBUG --> No doc for this mac address - EXIT
2015-12-01 11:52:53 - INFO --> ======================================================
2015-12-01 11:52:53 - INFO --> ================== Starting process ==================
2015-12-01 11:52:53 - INFO --> ======================================================
2015-12-01 11:52:53 - DEBUG --> Connecting to BigCouch...
2015-12-01 11:52:53 - DEBUG -->  - PUT - Adding account first...
2015-12-01 11:52:53 - DEBUG --> Request coming from 162.216.4.136
2015-12-01 11:52:53 - DEBUG --> Adding the device with mac_address 001565910482...
2015-12-01 11:52:53 - DEBUG --> The mac_lookup...
2015-12-01 11:52:53 - DEBUG --> SUCCESS! exit...
2015-12-01 11:52:57 - INFO --> ======================================================
2015-12-01 11:52:57 - INFO --> ================== Starting process ==================
2015-12-01 11:52:57 - INFO --> ======================================================
2015-12-01 11:52:57 - DEBUG --> Connecting to BigCouch...
2015-12-01 11:52:57 - DEBUG -->  - GET - retrieve account doc 6afe0296c69eac23a004ab0483770377
2015-12-01 11:52:57 - DEBUG --> Request coming from 162.216.4.136
2015-12-01 11:52:57 - INFO --> ======================================================
2015-12-01 11:52:57 - INFO --> ================== Starting process ==================
2015-12-01 11:52:57 - INFO --> ======================================================
2015-12-01 11:52:57 - DEBUG --> Connecting to BigCouch...
2015-12-01 11:52:57 - DEBUG -->  - POST - edit account doc 6afe0296c69eac23a004ab0483770377
2015-12-01 11:52:57 - DEBUG --> Request coming from 162.216.4.136
2015-12-01 11:52:57 - INFO --> ======================================================
2015-12-01 11:52:57 - INFO --> ================== Starting process ==================
2015-12-01 11:52:57 - INFO --> ======================================================
2015-12-01 11:52:57 - DEBUG --> Connecting to BigCouch...
2015-12-01 11:52:57 - DEBUG -->  - GET - retrieve account doc 6afe0296c69eac23a004ab0483770377 for mac doc 001565910482
2015-12-01 11:52:57 - DEBUG --> Request coming from 162.216.4.136
2015-12-01 11:52:57 - INFO --> ======================================================
2015-12-01 11:52:57 - INFO --> ================== Starting process ==================
2015-12-01 11:52:57 - INFO --> ======================================================
2015-12-01 11:52:57 - DEBUG --> Connecting to BigCouch...
2015-12-01 11:52:57 - DEBUG -->  - POST - edit in doc 6afe0296c69eac23a004ab0483770377 mac address 001565910482
2015-12-01 11:52:57 - DEBUG --> Request coming from 162.216.4.136
2015-12-01 11:52:58 - DEBUG --> Will now edit the mac_lookup...
2015-12-01 11:52:58 - DEBUG --> done... Edit for account 6afe0296c69eac23a004ab0483770377 and mac_address 001565910482 SUCCESS
2015-12-01 11:53:35 - INFO --> ======================================================
2015-12-01 11:53:35 - INFO --> ================== Starting process ==================
2015-12-01 11:53:35 - INFO --> ======================================================
2015-12-01 11:53:35 - DEBUG --> Connecting to BigCouch...
2015-12-01 11:53:35 - DEBUG -->  - GET - retrieve account doc 6afe0296c69eac23a004ab0483770377
2015-12-01 11:53:35 - DEBUG --> Request coming from 162.216.4.136
2015-12-01 11:53:35 - INFO --> ======================================================
2015-12-01 11:53:35 - INFO --> ================== Starting process ==================
2015-12-01 11:53:35 - INFO --> ======================================================
2015-12-01 11:53:35 - DEBUG --> Connecting to BigCouch...
2015-12-01 11:53:35 - DEBUG -->  - POST - edit account doc 6afe0296c69eac23a004ab0483770377
2015-12-01 11:53:35 - DEBUG --> Request coming from 162.216.4.136
2015-12-01 11:56:04 - INFO --> ======================================================
2015-12-01 11:56:04 - INFO --> ================== Starting process ==================
2015-12-01 11:56:04 - INFO --> ======================================================
2015-12-01 11:56:04 - DEBUG --> Connecting to BigCouch...
2015-12-01 11:56:04 - DEBUG -->  - GET - retrieve account doc 6afe0296c69eac23a004ab0483770377
2015-12-01 11:56:04 - DEBUG --> Request coming from 162.216.4.136
2015-12-01 11:56:04 - INFO --> ======================================================
2015-12-01 11:56:04 - INFO --> ================== Starting process ==================
2015-12-01 11:56:04 - INFO --> ======================================================
2015-12-01 11:56:04 - DEBUG --> Connecting to BigCouch...
2015-12-01 11:56:04 - DEBUG -->  - POST - edit account doc 6afe0296c69eac23a004ab0483770377
2015-12-01 11:56:04 - DEBUG --> Request coming from 162.216.4.136
2015-12-01 11:56:05 - INFO --> ======================================================
2015-12-01 11:56:05 - INFO --> ================== Starting process ==================
2015-12-01 11:56:05 - INFO --> ======================================================
2015-12-01 11:56:05 - DEBUG --> Connecting to BigCouch...
2015-12-01 11:56:05 - DEBUG -->  - GET - retrieve account doc 6afe0296c69eac23a004ab0483770377 for mac doc 001565910484
2015-12-01 11:56:05 - DEBUG --> Request coming from 162.216.4.136
2015-12-01 11:56:05 - DEBUG --> No doc for this mac address - EXIT
2015-12-01 11:56:05 - INFO --> ======================================================
2015-12-01 11:56:05 - INFO --> ================== Starting process ==================
2015-12-01 11:56:05 - INFO --> ======================================================
2015-12-01 11:56:05 - DEBUG --> Connecting to BigCouch...
2015-12-01 11:56:05 - DEBUG -->  - PUT - Adding account first...
2015-12-01 11:56:05 - DEBUG --> Request coming from 162.216.4.136
2015-12-01 11:56:05 - DEBUG --> Adding the device with mac_address 001565910484...
2015-12-01 11:56:05 - DEBUG --> The mac_lookup...
2015-12-01 11:56:05 - DEBUG --> SUCCESS! exit...
2015-12-01 11:56:09 - INFO --> ======================================================
2015-12-01 11:56:09 - INFO --> ================== Starting process ==================
2015-12-01 11:56:09 - INFO --> ======================================================
2015-12-01 11:56:09 - DEBUG --> Connecting to BigCouch...
2015-12-01 11:56:09 - DEBUG -->  - GET - retrieve account doc 6afe0296c69eac23a004ab0483770377
2015-12-01 11:56:09 - DEBUG --> Request coming from 162.216.4.136
2015-12-01 11:56:09 - INFO --> ======================================================
2015-12-01 11:56:09 - INFO --> ================== Starting process ==================
2015-12-01 11:56:09 - INFO --> ======================================================
2015-12-01 11:56:09 - DEBUG --> Connecting to BigCouch...
2015-12-01 11:56:09 - DEBUG -->  - POST - edit account doc 6afe0296c69eac23a004ab0483770377
2015-12-01 11:56:09 - DEBUG --> Request coming from 162.216.4.136
2015-12-01 11:56:09 - INFO --> ======================================================
2015-12-01 11:56:09 - INFO --> ================== Starting process ==================
2015-12-01 11:56:09 - INFO --> ======================================================
2015-12-01 11:56:09 - DEBUG --> Connecting to BigCouch...
2015-12-01 11:56:09 - DEBUG -->  - GET - retrieve account doc 6afe0296c69eac23a004ab0483770377 for mac doc 001565910484
2015-12-01 11:56:09 - DEBUG --> Request coming from 162.216.4.136
2015-12-01 11:56:09 - INFO --> ======================================================
2015-12-01 11:56:09 - INFO --> ================== Starting process ==================
2015-12-01 11:56:09 - INFO --> ======================================================
2015-12-01 11:56:09 - DEBUG --> Connecting to BigCouch...
2015-12-01 11:56:09 - DEBUG -->  - POST - edit in doc 6afe0296c69eac23a004ab0483770377 mac address 001565910484
2015-12-01 11:56:09 - DEBUG --> Request coming from 162.216.4.136
2015-12-01 11:56:10 - DEBUG --> Will now edit the mac_lookup...
2015-12-01 11:56:10 - DEBUG --> done... Edit for account 6afe0296c69eac23a004ab0483770377 and mac_address 001565910484 SUCCESS
2015-12-01 11:56:40 - INFO --> ======================================================
2015-12-01 11:56:40 - INFO --> ================== Starting process ==================
2015-12-01 11:56:40 - INFO --> ======================================================
2015-12-01 11:56:40 - DEBUG --> Connecting to BigCouch...
2015-12-01 11:56:40 - DEBUG -->  - GET - retrieve account doc 6afe0296c69eac23a004ab0483770377
2015-12-01 11:56:40 - DEBUG --> Request coming from 162.216.4.136
2015-12-01 11:56:40 - INFO --> ======================================================
2015-12-01 11:56:40 - INFO --> ================== Starting process ==================
2015-12-01 11:56:40 - INFO --> ======================================================
2015-12-01 11:56:40 - DEBUG --> Connecting to BigCouch...
2015-12-01 11:56:40 - DEBUG -->  - POST - edit account doc 6afe0296c69eac23a004ab0483770377
2015-12-01 11:56:40 - DEBUG --> Request coming from 162.216.4.136
2015-12-01 11:58:45 - INFO --> ======================================================
2015-12-01 11:58:45 - INFO --> ================== Starting process ==================
2015-12-01 11:58:45 - INFO --> ======================================================
2015-12-01 11:58:45 - DEBUG --> Connecting to BigCouch...
2015-12-01 11:58:45 - DEBUG -->  - GET - retrieve account doc 6afe0296c69eac23a004ab0483770377
2015-12-01 11:58:45 - DEBUG --> Request coming from 162.216.4.136
2015-12-01 11:58:45 - INFO --> ======================================================
2015-12-01 11:58:45 - INFO --> ================== Starting process ==================
2015-12-01 11:58:45 - INFO --> ======================================================
2015-12-01 11:58:45 - DEBUG --> Connecting to BigCouch...
2015-12-01 11:58:45 - DEBUG -->  - POST - edit account doc 6afe0296c69eac23a004ab0483770377
2015-12-01 11:58:45 - DEBUG --> Request coming from 162.216.4.136
2015-12-01 11:58:45 - INFO --> ======================================================
2015-12-01 11:58:45 - INFO --> ================== Starting process ==================
2015-12-01 11:58:45 - INFO --> ======================================================
2015-12-01 11:58:45 - DEBUG --> Connecting to BigCouch...
2015-12-01 11:58:45 - DEBUG -->  - GET - retrieve account doc 6afe0296c69eac23a004ab0483770377 for mac doc 001565910469
2015-12-01 11:58:45 - DEBUG --> Request coming from 162.216.4.136
2015-12-01 11:58:45 - DEBUG --> No doc for this mac address - EXIT
2015-12-01 11:58:46 - INFO --> ======================================================
2015-12-01 11:58:46 - INFO --> ================== Starting process ==================
2015-12-01 11:58:46 - INFO --> ======================================================
2015-12-01 11:58:46 - DEBUG --> Connecting to BigCouch...
2015-12-01 11:58:46 - DEBUG -->  - PUT - Adding account first...
2015-12-01 11:58:46 - DEBUG --> Request coming from 162.216.4.136
2015-12-01 11:58:46 - DEBUG --> Adding the device with mac_address 001565910469...
2015-12-01 11:58:46 - DEBUG --> The mac_lookup...
2015-12-01 11:58:46 - DEBUG --> SUCCESS! exit...
2015-12-01 11:58:50 - INFO --> ======================================================
2015-12-01 11:58:50 - INFO --> ================== Starting process ==================
2015-12-01 11:58:50 - INFO --> ======================================================
2015-12-01 11:58:50 - DEBUG --> Connecting to BigCouch...
2015-12-01 11:58:50 - DEBUG -->  - GET - retrieve account doc 6afe0296c69eac23a004ab0483770377
2015-12-01 11:58:50 - DEBUG --> Request coming from 162.216.4.136
2015-12-01 11:58:50 - INFO --> ======================================================
2015-12-01 11:58:50 - INFO --> ================== Starting process ==================
2015-12-01 11:58:50 - INFO --> ======================================================
2015-12-01 11:58:50 - DEBUG --> Connecting to BigCouch...
2015-12-01 11:58:50 - DEBUG -->  - POST - edit account doc 6afe0296c69eac23a004ab0483770377
2015-12-01 11:58:50 - DEBUG --> Request coming from 162.216.4.136
2015-12-01 11:58:51 - INFO --> ======================================================
2015-12-01 11:58:51 - INFO --> ================== Starting process ==================
2015-12-01 11:58:51 - INFO --> ======================================================
2015-12-01 11:58:51 - DEBUG --> Connecting to BigCouch...
2015-12-01 11:58:51 - DEBUG -->  - GET - retrieve account doc 6afe0296c69eac23a004ab0483770377 for mac doc 001565910469
2015-12-01 11:58:51 - DEBUG --> Request coming from 162.216.4.136
2015-12-01 11:58:51 - INFO --> ======================================================
2015-12-01 11:58:51 - INFO --> ================== Starting process ==================
2015-12-01 11:58:51 - INFO --> ======================================================
2015-12-01 11:58:51 - DEBUG --> Connecting to BigCouch...
2015-12-01 11:58:51 - DEBUG -->  - POST - edit in doc 6afe0296c69eac23a004ab0483770377 mac address 001565910469
2015-12-01 11:58:51 - DEBUG --> Request coming from 162.216.4.136
2015-12-01 11:58:51 - DEBUG --> Will now edit the mac_lookup...
2015-12-01 11:58:51 - DEBUG --> done... Edit for account 6afe0296c69eac23a004ab0483770377 and mac_address 001565910469 SUCCESS
2015-12-01 11:59:29 - INFO --> ======================================================
2015-12-01 11:59:29 - INFO --> ================== Starting process ==================
2015-12-01 11:59:29 - INFO --> ======================================================
2015-12-01 11:59:29 - DEBUG --> Connecting to BigCouch...
2015-12-01 11:59:29 - DEBUG -->  - GET - retrieve account doc 6afe0296c69eac23a004ab0483770377
2015-12-01 11:59:29 - DEBUG --> Request coming from 162.216.4.136
2015-12-01 11:59:29 - INFO --> ======================================================
2015-12-01 11:59:29 - INFO --> ================== Starting process ==================
2015-12-01 11:59:29 - INFO --> ======================================================
2015-12-01 11:59:29 - DEBUG --> Connecting to BigCouch...
2015-12-01 11:59:29 - DEBUG -->  - POST - edit account doc 6afe0296c69eac23a004ab0483770377
2015-12-01 11:59:29 - DEBUG --> Request coming from 162.216.4.136
2015-12-01 12:01:07 - INFO --> ======================================================
2015-12-01 12:01:07 - INFO --> ================== Starting process ==================
2015-12-01 12:01:07 - INFO --> ======================================================
2015-12-01 12:01:07 - DEBUG --> Connecting to BigCouch...
2015-12-01 12:01:07 - DEBUG -->  - GET - retrieve account doc 6afe0296c69eac23a004ab0483770377
2015-12-01 12:01:07 - DEBUG --> Request coming from 162.216.4.136
2015-12-01 12:01:07 - INFO --> ======================================================
2015-12-01 12:01:07 - INFO --> ================== Starting process ==================
2015-12-01 12:01:07 - INFO --> ======================================================
2015-12-01 12:01:07 - DEBUG --> Connecting to BigCouch...
2015-12-01 12:01:07 - DEBUG -->  - POST - edit account doc 6afe0296c69eac23a004ab0483770377
2015-12-01 12:01:07 - DEBUG --> Request coming from 162.216.4.136
2015-12-01 12:01:07 - INFO --> ======================================================
2015-12-01 12:01:07 - INFO --> ================== Starting process ==================
2015-12-01 12:01:07 - INFO --> ======================================================
2015-12-01 12:01:07 - DEBUG --> Connecting to BigCouch...
2015-12-01 12:01:07 - DEBUG -->  - GET - retrieve account doc 6afe0296c69eac23a004ab0483770377 for mac doc 00156590f9b2
2015-12-01 12:01:07 - DEBUG --> Request coming from 162.216.4.136
2015-12-01 12:01:08 - INFO --> ======================================================
2015-12-01 12:01:08 - INFO --> ================== Starting process ==================
2015-12-01 12:01:08 - INFO --> ======================================================
2015-12-01 12:01:08 - DEBUG --> Connecting to BigCouch...
2015-12-01 12:01:08 - DEBUG -->  - POST - edit in doc 6afe0296c69eac23a004ab0483770377 mac address 00156590f9b2
2015-12-01 12:01:08 - DEBUG --> Request coming from 162.216.4.136
2015-12-01 12:01:08 - DEBUG --> Will now edit the mac_lookup...
2015-12-01 12:01:08 - DEBUG --> done... Edit for account 6afe0296c69eac23a004ab0483770377 and mac_address 00156590f9b2 SUCCESS
2015-12-01 12:01:20 - INFO --> ======================================================
2015-12-01 12:01:20 - INFO --> ================== Starting process ==================
2015-12-01 12:01:20 - INFO --> ======================================================
2015-12-01 12:01:20 - DEBUG --> Connecting to BigCouch...
2015-12-01 12:01:20 - DEBUG -->  - GET - retrieve account doc 6afe0296c69eac23a004ab0483770377
2015-12-01 12:01:20 - DEBUG --> Request coming from 162.216.4.136
2015-12-01 12:01:20 - INFO --> ======================================================
2015-12-01 12:01:20 - INFO --> ================== Starting process ==================
2015-12-01 12:01:20 - INFO --> ======================================================
2015-12-01 12:01:20 - DEBUG --> Connecting to BigCouch...
2015-12-01 12:01:20 - DEBUG -->  - POST - edit account doc 6afe0296c69eac23a004ab0483770377
2015-12-01 12:01:20 - DEBUG --> Request coming from 162.216.4.136
2015-12-01 12:01:20 - INFO --> ======================================================
2015-12-01 12:01:20 - INFO --> ================== Starting process ==================
2015-12-01 12:01:20 - INFO --> ======================================================
2015-12-01 12:01:20 - DEBUG --> Connecting to BigCouch...
2015-12-01 12:01:20 - DEBUG -->  - GET - retrieve account doc 6afe0296c69eac23a004ab0483770377 for mac doc 001565910482
2015-12-01 12:01:20 - DEBUG --> Request coming from 162.216.4.136
2015-12-01 12:01:20 - INFO --> ======================================================
2015-12-01 12:01:20 - INFO --> ================== Starting process ==================
2015-12-01 12:01:20 - INFO --> ======================================================
2015-12-01 12:01:20 - DEBUG --> Connecting to BigCouch...
2015-12-01 12:01:20 - DEBUG -->  - POST - edit in doc 6afe0296c69eac23a004ab0483770377 mac address 001565910482
2015-12-01 12:01:20 - DEBUG --> Request coming from 162.216.4.136
2015-12-01 12:01:21 - DEBUG --> Will now edit the mac_lookup...
2015-12-01 12:01:21 - DEBUG --> done... Edit for account 6afe0296c69eac23a004ab0483770377 and mac_address 001565910482 SUCCESS
2015-12-01 12:01:34 - INFO --> ======================================================
2015-12-01 12:01:34 - INFO --> ================== Starting process ==================
2015-12-01 12:01:34 - INFO --> ======================================================
2015-12-01 12:01:34 - DEBUG --> Connecting to BigCouch...
2015-12-01 12:01:34 - DEBUG -->  - GET - retrieve account doc 6afe0296c69eac23a004ab0483770377
2015-12-01 12:01:34 - DEBUG --> Request coming from 162.216.4.136
2015-12-01 12:01:34 - INFO --> ======================================================
2015-12-01 12:01:34 - INFO --> ================== Starting process ==================
2015-12-01 12:01:34 - INFO --> ======================================================
2015-12-01 12:01:34 - DEBUG --> Connecting to BigCouch...
2015-12-01 12:01:34 - DEBUG -->  - POST - edit account doc 6afe0296c69eac23a004ab0483770377
2015-12-01 12:01:34 - DEBUG --> Request coming from 162.216.4.136
2015-12-01 12:01:35 - INFO --> ======================================================
2015-12-01 12:01:35 - INFO --> ================== Starting process ==================
2015-12-01 12:01:35 - INFO --> ======================================================
2015-12-01 12:01:35 - DEBUG --> Connecting to BigCouch...
2015-12-01 12:01:35 - DEBUG -->  - GET - retrieve account doc 6afe0296c69eac23a004ab0483770377 for mac doc 001565910484
2015-12-01 12:01:35 - DEBUG --> Request coming from 162.216.4.136
2015-12-01 12:01:35 - INFO --> ======================================================
2015-12-01 12:01:35 - INFO --> ================== Starting process ==================
2015-12-01 12:01:35 - INFO --> ======================================================
2015-12-01 12:01:35 - DEBUG --> Connecting to BigCouch...
2015-12-01 12:01:35 - DEBUG -->  - POST - edit in doc 6afe0296c69eac23a004ab0483770377 mac address 001565910484
2015-12-01 12:01:35 - DEBUG --> Request coming from 162.216.4.136
2015-12-01 12:01:35 - DEBUG --> Will now edit the mac_lookup...
2015-12-01 12:01:35 - DEBUG --> done... Edit for account 6afe0296c69eac23a004ab0483770377 and mac_address 001565910484 SUCCESS
2015-12-01 12:01:45 - INFO --> ======================================================
2015-12-01 12:01:45 - INFO --> ================== Starting process ==================
2015-12-01 12:01:45 - INFO --> ======================================================
2015-12-01 12:01:45 - DEBUG --> Connecting to BigCouch...
2015-12-01 12:01:45 - DEBUG -->  - GET - retrieve account doc 6afe0296c69eac23a004ab0483770377
2015-12-01 12:01:45 - DEBUG --> Request coming from 162.216.4.136
2015-12-01 12:01:46 - INFO --> ======================================================
2015-12-01 12:01:46 - INFO --> ================== Starting process ==================
2015-12-01 12:01:46 - INFO --> ======================================================
2015-12-01 12:01:46 - DEBUG --> Connecting to BigCouch...
2015-12-01 12:01:46 - DEBUG -->  - POST - edit account doc 6afe0296c69eac23a004ab0483770377
2015-12-01 12:01:46 - DEBUG --> Request coming from 162.216.4.136
2015-12-01 12:01:46 - INFO --> ======================================================
2015-12-01 12:01:46 - INFO --> ================== Starting process ==================
2015-12-01 12:01:46 - INFO --> ======================================================
2015-12-01 12:01:46 - DEBUG --> Connecting to BigCouch...
2015-12-01 12:01:46 - DEBUG -->  - GET - retrieve account doc 6afe0296c69eac23a004ab0483770377 for mac doc 001565910469
2015-12-01 12:01:46 - DEBUG --> Request coming from 162.216.4.136
2015-12-01 12:01:46 - INFO --> ======================================================
2015-12-01 12:01:46 - INFO --> ================== Starting process ==================
2015-12-01 12:01:46 - INFO --> ======================================================
2015-12-01 12:01:46 - DEBUG --> Connecting to BigCouch...
2015-12-01 12:01:46 - DEBUG -->  - POST - edit in doc 6afe0296c69eac23a004ab0483770377 mac address 001565910469
2015-12-01 12:01:46 - DEBUG --> Request coming from 162.216.4.136
2015-12-01 12:01:46 - DEBUG --> Will now edit the mac_lookup...
2015-12-01 12:01:46 - DEBUG --> done... Edit for account 6afe0296c69eac23a004ab0483770377 and mac_address 001565910469 SUCCESS
2015-12-01 13:51:33 - INFO --> ======================================================
2015-12-01 13:51:33 - INFO --> ======================================================
2015-12-01 13:51:33 - INFO --> ================== Starting process ==================
2015-12-01 13:51:33 - INFO --> ================== Starting process ==================
2015-12-01 13:51:33 - INFO --> ======================================================
2015-12-01 13:51:33 - INFO --> ======================================================
2015-12-01 13:51:33 - DEBUG --> Connecting to BigCouch...
2015-12-01 13:51:33 - DEBUG --> Connecting to BigCouch...
2015-12-01 13:51:33 - DEBUG -->  - GET - retrieve account doc 22a9e436757c03ea85697bbcc4def680
2015-12-01 13:51:33 - DEBUG --> Request coming from 162.216.4.136
2015-12-01 13:51:33 - DEBUG -->  - GET - retrieve account doc 22a9e436757c03ea85697bbcc4def680
2015-12-01 13:51:33 - DEBUG --> Request coming from 162.216.4.136
2015-12-01 13:51:33 - INFO --> ======================================================
2015-12-01 13:51:33 - INFO --> ================== Starting process ==================
2015-12-01 13:51:33 - INFO --> ======================================================
2015-12-01 13:51:33 - DEBUG --> Connecting to BigCouch...
2015-12-01 13:51:33 - DEBUG -->  - POST - edit account doc 22a9e436757c03ea85697bbcc4def680
2015-12-01 13:51:33 - DEBUG --> Request coming from 162.216.4.136
2015-12-01 13:51:33 - INFO --> ======================================================
2015-12-01 13:51:33 - INFO --> ================== Starting process ==================
2015-12-01 13:51:33 - INFO --> ======================================================
2015-12-01 13:51:33 - DEBUG --> Connecting to BigCouch...
2015-12-01 13:51:33 - DEBUG -->  - POST - edit account doc 22a9e436757c03ea85697bbcc4def680
2015-12-01 13:51:33 - DEBUG --> Request coming from 162.216.4.136
2015-12-01 13:51:33 - DEBUG --> Could not save key:provider_id - EXIT
2015-12-01 13:51:33 - INFO --> ======================================================
2015-12-01 13:51:33 - INFO --> ================== Starting process ==================
2015-12-01 13:51:33 - INFO --> ======================================================
2015-12-01 13:51:33 - DEBUG --> Connecting to BigCouch...
2015-12-01 13:51:33 - DEBUG -->  - GET - retrieve account doc 22a9e436757c03ea85697bbcc4def680 for mac doc 0015651f6a4c
2015-12-01 13:51:33 - DEBUG --> Request coming from 162.216.4.136
2015-12-01 13:51:33 - DEBUG --> No doc for this mac address - EXIT
2015-12-01 13:51:33 - INFO --> ======================================================
2015-12-01 13:51:33 - INFO --> ================== Starting process ==================
2015-12-01 13:51:33 - INFO --> ======================================================
2015-12-01 13:51:33 - DEBUG --> Connecting to BigCouch...
2015-12-01 13:51:33 - DEBUG -->  - PUT - Adding account first...
2015-12-01 13:51:33 - DEBUG --> Request coming from 162.216.4.136
2015-12-01 13:51:33 - DEBUG --> Adding the device with mac_address 0015651f6a4c...
2015-12-01 13:51:33 - DEBUG --> The mac_lookup...
2015-12-01 13:51:33 - DEBUG --> SUCCESS! exit...
2015-12-01 16:02:00 - INFO --> ======================================================
2015-12-01 16:02:00 - INFO --> ================== Starting process ==================
2015-12-01 16:02:00 - INFO --> ======================================================
2015-12-01 16:02:00 - DEBUG --> Connecting to BigCouch...
2015-12-01 16:02:00 - DEBUG -->  - GET - retrieve account doc d66e0c7d141ff341bca411f52aa8c55e
2015-12-01 16:02:00 - DEBUG --> Request coming from 162.216.4.136
2015-12-01 16:02:01 - INFO --> ======================================================
2015-12-01 16:02:01 - INFO --> ================== Starting process ==================
2015-12-01 16:02:01 - INFO --> ======================================================
2015-12-01 16:02:01 - DEBUG --> Connecting to BigCouch...
2015-12-01 16:02:01 - DEBUG -->  - POST - edit account doc d66e0c7d141ff341bca411f52aa8c55e
2015-12-01 16:02:01 - DEBUG --> Request coming from 162.216.4.136
2015-12-01 16:02:01 - INFO --> ======================================================
2015-12-01 16:02:01 - INFO --> ================== Starting process ==================
2015-12-01 16:02:01 - INFO --> ======================================================
2015-12-01 16:02:01 - DEBUG --> Connecting to BigCouch...
2015-12-01 16:02:01 - DEBUG -->  - GET - retrieve account doc d66e0c7d141ff341bca411f52aa8c55e for mac doc 000e08249e14
2015-12-01 16:02:01 - DEBUG --> Request coming from 162.216.4.136
2015-12-01 16:02:01 - DEBUG --> No doc for this mac address - EXIT
2015-12-01 16:02:01 - INFO --> ======================================================
2015-12-01 16:02:01 - INFO --> ================== Starting process ==================
2015-12-01 16:02:01 - INFO --> ======================================================
2015-12-01 16:02:01 - DEBUG --> Connecting to BigCouch...
2015-12-01 16:02:01 - DEBUG -->  - PUT - Adding account first...
2015-12-01 16:02:01 - DEBUG --> Request coming from 162.216.4.136
2015-12-01 16:02:01 - DEBUG --> Adding the device with mac_address 000e08249e14...
2015-12-01 16:02:01 - DEBUG --> The mac_lookup...
2015-12-01 16:02:01 - DEBUG --> SUCCESS! exit...
2015-12-01 16:02:05 - INFO --> ======================================================
2015-12-01 16:02:05 - INFO --> ================== Starting process ==================
2015-12-01 16:02:05 - INFO --> ======================================================
2015-12-01 16:02:05 - DEBUG --> Connecting to BigCouch...
2015-12-01 16:02:05 - DEBUG -->  - GET - retrieve account doc d66e0c7d141ff341bca411f52aa8c55e
2015-12-01 16:02:05 - DEBUG --> Request coming from 162.216.4.136
2015-12-01 16:02:06 - INFO --> ======================================================
2015-12-01 16:02:06 - INFO --> ================== Starting process ==================
2015-12-01 16:02:06 - INFO --> ======================================================
2015-12-01 16:02:06 - DEBUG --> Connecting to BigCouch...
2015-12-01 16:02:06 - DEBUG -->  - POST - edit account doc d66e0c7d141ff341bca411f52aa8c55e
2015-12-01 16:02:06 - DEBUG --> Request coming from 162.216.4.136
2015-12-01 16:02:06 - INFO --> ======================================================
2015-12-01 16:02:06 - INFO --> ================== Starting process ==================
2015-12-01 16:02:06 - INFO --> ======================================================
2015-12-01 16:02:06 - DEBUG --> Connecting to BigCouch...
2015-12-01 16:02:06 - DEBUG -->  - GET - retrieve account doc d66e0c7d141ff341bca411f52aa8c55e for mac doc 000e08249e14
2015-12-01 16:02:06 - DEBUG --> Request coming from 162.216.4.136
2015-12-01 16:02:06 - INFO --> ======================================================
2015-12-01 16:02:06 - INFO --> ================== Starting process ==================
2015-12-01 16:02:06 - INFO --> ======================================================
2015-12-01 16:02:06 - DEBUG --> Connecting to BigCouch...
2015-12-01 16:02:06 - DEBUG -->  - POST - edit in doc d66e0c7d141ff341bca411f52aa8c55e mac address 000e08249e14
2015-12-01 16:02:06 - DEBUG --> Request coming from 162.216.4.136
2015-12-01 16:02:06 - DEBUG --> Will now edit the mac_lookup...
2015-12-01 16:02:06 - DEBUG --> done... Edit for account d66e0c7d141ff341bca411f52aa8c55e and mac_address 000e08249e14 SUCCESS
2015-12-01 16:20:55 - INFO --> ======================================================
2015-12-01 16:20:55 - INFO --> ================== Starting process ==================
2015-12-01 16:20:55 - INFO --> ======================================================
2015-12-01 16:20:55 - DEBUG --> Connecting to BigCouch...
2015-12-01 16:20:55 - DEBUG -->  - GET - retrieve account doc d66e0c7d141ff341bca411f52aa8c55e
2015-12-01 16:20:55 - DEBUG --> Request coming from 162.216.4.136
2015-12-01 16:20:55 - INFO --> ======================================================
2015-12-01 16:20:55 - INFO --> ================== Starting process ==================
2015-12-01 16:20:55 - INFO --> ======================================================
2015-12-01 16:20:55 - DEBUG --> Connecting to BigCouch...
2015-12-01 16:20:55 - DEBUG -->  - POST - edit account doc d66e0c7d141ff341bca411f52aa8c55e
2015-12-01 16:20:55 - DEBUG --> Request coming from 162.216.4.136
2015-12-01 16:20:56 - INFO --> ======================================================
2015-12-01 16:20:56 - INFO --> ================== Starting process ==================
2015-12-01 16:20:56 - INFO --> ======================================================
2015-12-01 16:20:56 - DEBUG --> Connecting to BigCouch...
2015-12-01 16:20:56 - DEBUG -->  - GET - retrieve account doc d66e0c7d141ff341bca411f52aa8c55e for mac doc 000e08249e14
2015-12-01 16:20:56 - DEBUG --> Request coming from 162.216.4.136
2015-12-01 16:20:56 - INFO --> ======================================================
2015-12-01 16:20:56 - INFO --> ================== Starting process ==================
2015-12-01 16:20:56 - INFO --> ======================================================
2015-12-01 16:20:56 - DEBUG --> Connecting to BigCouch...
2015-12-01 16:20:56 - DEBUG -->  - POST - edit in doc d66e0c7d141ff341bca411f52aa8c55e mac address 000e08249e14
2015-12-01 16:20:56 - DEBUG --> Request coming from 162.216.4.136
2015-12-01 16:20:56 - DEBUG --> Will now edit the mac_lookup...
2015-12-01 16:20:56 - DEBUG --> done... Edit for account d66e0c7d141ff341bca411f52aa8c55e and mac_address 000e08249e14 SUCCESS
2015-12-01 16:22:20 - INFO --> ======================================================
2015-12-01 16:22:20 - INFO --> ================== Starting process ==================
2015-12-01 16:22:20 - INFO --> ======================================================
2015-12-01 16:22:20 - DEBUG --> Connecting to BigCouch...
2015-12-01 16:22:20 - DEBUG -->  - GET - retrieve account doc d66e0c7d141ff341bca411f52aa8c55e
2015-12-01 16:22:20 - DEBUG --> Request coming from 162.216.4.136
2015-12-01 16:22:20 - INFO --> ======================================================
2015-12-01 16:22:20 - INFO --> ================== Starting process ==================
2015-12-01 16:22:20 - INFO --> ======================================================
2015-12-01 16:22:20 - DEBUG --> Connecting to BigCouch...
2015-12-01 16:22:20 - DEBUG -->  - POST - edit account doc d66e0c7d141ff341bca411f52aa8c55e
2015-12-01 16:22:20 - DEBUG --> Request coming from 162.216.4.136
2015-12-01 16:22:20 - INFO --> ======================================================
2015-12-01 16:22:20 - INFO --> ================== Starting process ==================
2015-12-01 16:22:20 - INFO --> ======================================================
2015-12-01 16:22:20 - DEBUG --> Connecting to BigCouch...
2015-12-01 16:22:20 - DEBUG -->  - GET - retrieve account doc d66e0c7d141ff341bca411f52aa8c55e for mac doc 000e08249e14
2015-12-01 16:22:20 - DEBUG --> Request coming from 162.216.4.136
2015-12-01 16:22:20 - INFO --> ======================================================
2015-12-01 16:22:20 - INFO --> ================== Starting process ==================
2015-12-01 16:22:20 - INFO --> ======================================================
2015-12-01 16:22:20 - DEBUG --> Connecting to BigCouch...
2015-12-01 16:22:20 - DEBUG -->  - POST - edit in doc d66e0c7d141ff341bca411f52aa8c55e mac address 000e08249e14
2015-12-01 16:22:20 - DEBUG --> Request coming from 162.216.4.136
2015-12-01 16:22:21 - DEBUG --> Will now edit the mac_lookup...
2015-12-01 16:22:21 - DEBUG --> done... Edit for account d66e0c7d141ff341bca411f52aa8c55e and mac_address 000e08249e14 SUCCESS
2015-12-01 16:23:38 - INFO --> ======================================================
2015-12-01 16:23:38 - INFO --> ================== Starting process ==================
2015-12-01 16:23:38 - INFO --> ======================================================
2015-12-01 16:23:38 - DEBUG --> Connecting to BigCouch...
2015-12-01 16:23:38 - DEBUG -->  - GET - retrieve account doc d66e0c7d141ff341bca411f52aa8c55e
2015-12-01 16:23:38 - DEBUG --> Request coming from 162.216.4.136
2015-12-01 16:23:38 - INFO --> ======================================================
2015-12-01 16:23:38 - INFO --> ================== Starting process ==================
2015-12-01 16:23:38 - INFO --> ======================================================
2015-12-01 16:23:38 - DEBUG --> Connecting to BigCouch...
2015-12-01 16:23:38 - DEBUG -->  - POST - edit account doc d66e0c7d141ff341bca411f52aa8c55e
2015-12-01 16:23:38 - DEBUG --> Request coming from 162.216.4.136
2015-12-01 16:25:16 - INFO --> ======================================================
2015-12-01 16:25:16 - INFO --> ================== Starting process ==================
2015-12-01 16:25:16 - INFO --> ======================================================
2015-12-01 16:25:16 - DEBUG --> Connecting to BigCouch...
2015-12-01 16:25:16 - DEBUG -->  - GET - retrieve account doc d66e0c7d141ff341bca411f52aa8c55e
2015-12-01 16:25:16 - DEBUG --> Request coming from 162.216.4.136
2015-12-01 16:25:16 - INFO --> ======================================================
2015-12-01 16:25:16 - INFO --> ================== Starting process ==================
2015-12-01 16:25:16 - INFO --> ======================================================
2015-12-01 16:25:16 - DEBUG --> Connecting to BigCouch...
2015-12-01 16:25:16 - DEBUG -->  - POST - edit account doc d66e0c7d141ff341bca411f52aa8c55e
2015-12-01 16:25:16 - DEBUG --> Request coming from 162.216.4.136
2015-12-01 16:25:17 - INFO --> ======================================================
2015-12-01 16:25:17 - INFO --> ================== Starting process ==================
2015-12-01 16:25:17 - INFO --> ======================================================
2015-12-01 16:25:17 - DEBUG --> Connecting to BigCouch...
2015-12-01 16:25:17 - DEBUG -->  - GET - retrieve account doc d66e0c7d141ff341bca411f52aa8c55e for mac doc 000e08249e14
2015-12-01 16:25:17 - DEBUG --> Request coming from 162.216.4.136
2015-12-01 16:25:17 - INFO --> ======================================================
2015-12-01 16:25:17 - INFO --> ================== Starting process ==================
2015-12-01 16:25:17 - INFO --> ======================================================
2015-12-01 16:25:17 - DEBUG --> Connecting to BigCouch...
2015-12-01 16:25:17 - DEBUG -->  - POST - edit in doc d66e0c7d141ff341bca411f52aa8c55e mac address 000e08249e14
2015-12-01 16:25:17 - DEBUG --> Request coming from 162.216.4.136
2015-12-01 16:25:17 - DEBUG --> Will now edit the mac_lookup...
2015-12-01 16:25:17 - DEBUG --> done... Edit for account d66e0c7d141ff341bca411f52aa8c55e and mac_address 000e08249e14 SUCCESS
2015-12-01 16:28:28 - INFO --> ======================================================
2015-12-01 16:28:28 - INFO --> ================== Starting process ==================
2015-12-01 16:28:28 - INFO --> ======================================================
2015-12-01 16:28:28 - DEBUG --> Connecting to BigCouch...
2015-12-01 16:28:28 - DEBUG -->  - GET - retrieve account doc d66e0c7d141ff341bca411f52aa8c55e
2015-12-01 16:28:28 - DEBUG --> Request coming from 162.216.4.136
2015-12-01 16:28:28 - INFO --> ======================================================
2015-12-01 16:28:28 - INFO --> ================== Starting process ==================
2015-12-01 16:28:28 - INFO --> ======================================================
2015-12-01 16:28:28 - DEBUG --> Connecting to BigCouch...
2015-12-01 16:28:28 - DEBUG -->  - POST - edit account doc d66e0c7d141ff341bca411f52aa8c55e
2015-12-01 16:28:28 - DEBUG --> Request coming from 162.216.4.136
2015-12-01 16:29:21 - INFO --> ======================================================
2015-12-01 16:29:21 - INFO --> ================== Starting process ==================
2015-12-01 16:29:21 - INFO --> ======================================================
2015-12-01 16:29:21 - DEBUG --> Connecting to BigCouch...
2015-12-01 16:29:21 - DEBUG -->  - GET - retrieve account doc d66e0c7d141ff341bca411f52aa8c55e
2015-12-01 16:29:21 - DEBUG --> Request coming from 162.216.4.136
2015-12-01 16:29:22 - INFO --> ======================================================
2015-12-01 16:29:22 - INFO --> ================== Starting process ==================
2015-12-01 16:29:22 - INFO --> ======================================================
2015-12-01 16:29:22 - DEBUG --> Connecting to BigCouch...
2015-12-01 16:29:22 - DEBUG -->  - POST - edit account doc d66e0c7d141ff341bca411f52aa8c55e
2015-12-01 16:29:22 - DEBUG --> Request coming from 162.216.4.136
2015-12-01 19:59:01 - INFO --> ======================================================
2015-12-01 19:59:01 - INFO --> ================== Starting process ==================
2015-12-01 19:59:01 - INFO --> ======================================================
2015-12-01 19:59:01 - DEBUG --> Connecting to BigCouch...
2015-12-01 19:59:01 - DEBUG -->  - GET - retrieve account doc 452433d6b20cc84ecfe331d3241c8c72
2015-12-01 19:59:01 - DEBUG --> Request coming from 162.216.4.136
2015-12-01 19:59:01 - INFO --> ======================================================
2015-12-01 19:59:01 - INFO --> ================== Starting process ==================
2015-12-01 19:59:01 - INFO --> ======================================================
2015-12-01 19:59:01 - DEBUG --> Connecting to BigCouch...
2015-12-01 19:59:01 - DEBUG -->  - POST - edit account doc 452433d6b20cc84ecfe331d3241c8c72
2015-12-01 19:59:01 - DEBUG --> Request coming from 162.216.4.136
2015-12-01 20:00:32 - INFO --> ======================================================
2015-12-01 20:00:32 - INFO --> ================== Starting process ==================
2015-12-01 20:00:32 - INFO --> ======================================================
2015-12-01 20:00:32 - DEBUG --> Connecting to BigCouch...
2015-12-01 20:00:32 - DEBUG -->  - GET - retrieve account doc 452433d6b20cc84ecfe331d3241c8c72
2015-12-01 20:00:32 - DEBUG --> Request coming from 162.216.4.136
2015-12-01 20:00:33 - INFO --> ======================================================
2015-12-01 20:00:33 - INFO --> ================== Starting process ==================
2015-12-01 20:00:33 - INFO --> ======================================================
2015-12-01 20:00:33 - DEBUG --> Connecting to BigCouch...
2015-12-01 20:00:33 - DEBUG -->  - POST - edit account doc 452433d6b20cc84ecfe331d3241c8c72
2015-12-01 20:00:33 - DEBUG --> Request coming from 162.216.4.136
