2015-09-01 8:58:33 - INFO --> ======================================================
2015-09-01 8:58:33 - INFO --> ================== Starting process ==================
2015-09-01 8:58:33 - INFO --> ======================================================
2015-09-01 8:58:33 - DEBUG --> Connecting to BigCouch...
2015-09-01 8:58:33 - DEBUG -->  - GET - retrieve account doc 109f4147904d005817f845167e0d58c4
2015-09-01 8:58:33 - DEBUG --> Request coming from 162.216.4.136
2015-09-01 8:58:33 - INFO --> ======================================================
2015-09-01 8:58:33 - INFO --> ================== Starting process ==================
2015-09-01 8:58:33 - INFO --> ======================================================
2015-09-01 8:58:33 - DEBUG --> Connecting to BigCouch...
2015-09-01 8:58:33 - DEBUG -->  - POST - edit account doc 109f4147904d005817f845167e0d58c4
2015-09-01 8:58:33 - DEBUG --> Request coming from 162.216.4.136
2015-09-01 9:41:38 - INFO --> ======================================================
2015-09-01 9:41:38 - INFO --> ================== Starting process ==================
2015-09-01 9:41:38 - INFO --> ======================================================
2015-09-01 9:41:38 - DEBUG --> Connecting to BigCouch...
2015-09-01 9:41:38 - DEBUG -->  - GET - retrieve account doc 4cf722571befda2a679e9ef66fb0bb3b
2015-09-01 9:41:38 - DEBUG --> Request coming from 162.216.4.136
2015-09-01 9:41:38 - INFO --> ======================================================
2015-09-01 9:41:38 - INFO --> ================== Starting process ==================
2015-09-01 9:41:38 - INFO --> ======================================================
2015-09-01 9:41:38 - DEBUG --> Connecting to BigCouch...
2015-09-01 9:41:38 - DEBUG -->  - POST - edit account doc 4cf722571befda2a679e9ef66fb0bb3b
2015-09-01 9:41:38 - DEBUG --> Request coming from 162.216.4.136
2015-09-01 9:41:57 - INFO --> ======================================================
2015-09-01 9:41:57 - INFO --> ================== Starting process ==================
2015-09-01 9:41:57 - INFO --> ======================================================
2015-09-01 9:41:57 - DEBUG --> Connecting to BigCouch...
2015-09-01 9:41:57 - DEBUG -->  - GET - retrieve account doc 4cf722571befda2a679e9ef66fb0bb3b
2015-09-01 9:41:57 - DEBUG --> Request coming from 162.216.4.136
2015-09-01 9:41:57 - INFO --> ======================================================
2015-09-01 9:41:57 - INFO --> ================== Starting process ==================
2015-09-01 9:41:57 - INFO --> ======================================================
2015-09-01 9:41:57 - DEBUG --> Connecting to BigCouch...
2015-09-01 9:41:57 - DEBUG -->  - POST - edit account doc 4cf722571befda2a679e9ef66fb0bb3b
2015-09-01 9:41:57 - DEBUG --> Request coming from 162.216.4.136
2015-09-01 9:44:44 - INFO --> ======================================================
2015-09-01 9:44:44 - INFO --> ================== Starting process ==================
2015-09-01 9:44:44 - INFO --> ======================================================
2015-09-01 9:44:44 - DEBUG --> Connecting to BigCouch...
2015-09-01 9:44:44 - DEBUG -->  - GET - retrieve account doc 4cf722571befda2a679e9ef66fb0bb3b
2015-09-01 9:44:44 - DEBUG --> Request coming from 162.216.4.136
2015-09-01 9:44:44 - INFO --> ======================================================
2015-09-01 9:44:44 - INFO --> ================== Starting process ==================
2015-09-01 9:44:44 - INFO --> ======================================================
2015-09-01 9:44:44 - DEBUG --> Connecting to BigCouch...
2015-09-01 9:44:44 - DEBUG -->  - POST - edit account doc 4cf722571befda2a679e9ef66fb0bb3b
2015-09-01 9:44:44 - DEBUG --> Request coming from 162.216.4.136
2015-09-01 9:44:51 - INFO --> ======================================================
2015-09-01 9:44:51 - INFO --> ================== Starting process ==================
2015-09-01 9:44:51 - INFO --> ======================================================
2015-09-01 9:44:51 - DEBUG --> Connecting to BigCouch...
2015-09-01 9:44:51 - DEBUG -->  - GET - retrieve account doc 4cf722571befda2a679e9ef66fb0bb3b
2015-09-01 9:44:51 - DEBUG --> Request coming from 162.216.4.136
2015-09-01 9:44:51 - INFO --> ======================================================
2015-09-01 9:44:51 - INFO --> ================== Starting process ==================
2015-09-01 9:44:51 - INFO --> ======================================================
2015-09-01 9:44:51 - DEBUG --> Connecting to BigCouch...
2015-09-01 9:44:51 - DEBUG -->  - POST - edit account doc 4cf722571befda2a679e9ef66fb0bb3b
2015-09-01 9:44:51 - DEBUG --> Request coming from 162.216.4.136
2015-09-01 9:47:45 - INFO --> ======================================================
2015-09-01 9:47:45 - INFO --> ================== Starting process ==================
2015-09-01 9:47:45 - INFO --> ======================================================
2015-09-01 9:47:45 - DEBUG --> Connecting to BigCouch...
2015-09-01 9:47:45 - DEBUG -->  - GET - retrieve account doc 109f4147904d005817f845167e0d58c4
2015-09-01 9:47:45 - DEBUG --> Request coming from 162.216.4.136
2015-09-01 9:47:46 - INFO --> ======================================================
2015-09-01 9:47:46 - INFO --> ================== Starting process ==================
2015-09-01 9:47:46 - INFO --> ======================================================
2015-09-01 9:47:46 - DEBUG --> Connecting to BigCouch...
2015-09-01 9:47:46 - DEBUG -->  - POST - edit account doc 109f4147904d005817f845167e0d58c4
2015-09-01 9:47:46 - DEBUG --> Request coming from 162.216.4.136
2015-09-01 11:04:49 - INFO --> ======================================================
2015-09-01 11:04:49 - INFO --> ================== Starting process ==================
2015-09-01 11:04:49 - INFO --> ======================================================
2015-09-01 11:04:49 - DEBUG --> Connecting to BigCouch...
2015-09-01 11:04:49 - DEBUG -->  - GET - retrieve account doc 739914ceba215fd55ba4ee049154b821
2015-09-01 11:04:49 - DEBUG --> Request coming from 162.216.4.136
2015-09-01 11:04:50 - INFO --> ======================================================
2015-09-01 11:04:50 - INFO --> ================== Starting process ==================
2015-09-01 11:04:50 - INFO --> ======================================================
2015-09-01 11:04:50 - DEBUG --> Connecting to BigCouch...
2015-09-01 11:04:50 - DEBUG -->  - POST - edit account doc 739914ceba215fd55ba4ee049154b821
2015-09-01 11:04:50 - DEBUG --> Request coming from 162.216.4.136
2015-09-01 12:10:50 - INFO --> ======================================================
2015-09-01 12:10:50 - INFO --> ================== Starting process ==================
2015-09-01 12:10:50 - INFO --> ======================================================
2015-09-01 12:10:50 - DEBUG --> Connecting to BigCouch...
2015-09-01 12:10:50 - DEBUG -->  - GET - retrieve account doc cf1ddb454fe66c903cb79cc19dc9e5c6
2015-09-01 12:10:50 - DEBUG --> Request coming from 162.216.4.136
2015-09-01 12:10:50 - INFO --> ======================================================
2015-09-01 12:10:50 - INFO --> ================== Starting process ==================
2015-09-01 12:10:50 - INFO --> ======================================================
2015-09-01 12:10:50 - DEBUG --> Connecting to BigCouch...
2015-09-01 12:10:50 - DEBUG -->  - POST - edit account doc cf1ddb454fe66c903cb79cc19dc9e5c6
2015-09-01 12:10:50 - DEBUG --> Request coming from 162.216.4.136
