2015-05-23 3:06:02 - INFO --> ======================================================
2015-05-23 3:06:02 - INFO --> ================== Starting process ==================
2015-05-23 3:06:02 - INFO --> ======================================================
2015-05-23 3:06:02 - DEBUG --> Connecting to BigCouch...
2015-05-23 3:06:02 - DEBUG -->  - GET - retrieve account doc a41ed59039034477bec23a68494889c3
2015-05-23 3:06:02 - DEBUG --> Request coming from 162.216.4.136
2015-05-23 3:06:03 - INFO --> ======================================================
2015-05-23 3:06:03 - INFO --> ================== Starting process ==================
2015-05-23 3:06:03 - INFO --> ======================================================
2015-05-23 3:06:03 - DEBUG --> Connecting to BigCouch...
2015-05-23 3:06:03 - DEBUG -->  - POST - edit account doc a41ed59039034477bec23a68494889c3
2015-05-23 3:06:03 - DEBUG --> Request coming from 162.216.4.136
2015-05-23 3:08:01 - INFO --> ======================================================
2015-05-23 3:08:01 - INFO --> ================== Starting process ==================
2015-05-23 3:08:01 - INFO --> ======================================================
2015-05-23 3:08:01 - DEBUG --> Connecting to BigCouch...
2015-05-23 3:08:01 - DEBUG -->  - GET - retrieve account doc a41ed59039034477bec23a68494889c3
2015-05-23 3:08:01 - DEBUG --> Request coming from 162.216.4.136
2015-05-23 3:08:01 - INFO --> ======================================================
2015-05-23 3:08:01 - INFO --> ================== Starting process ==================
2015-05-23 3:08:01 - INFO --> ======================================================
2015-05-23 3:08:01 - DEBUG --> Connecting to BigCouch...
2015-05-23 3:08:01 - DEBUG -->  - POST - edit account doc a41ed59039034477bec23a68494889c3
2015-05-23 3:08:01 - DEBUG --> Request coming from 162.216.4.136
2015-05-23 3:09:32 - INFO --> ======================================================
2015-05-23 3:09:32 - INFO --> ================== Starting process ==================
2015-05-23 3:09:32 - INFO --> ======================================================
2015-05-23 3:09:32 - DEBUG --> Connecting to BigCouch...
2015-05-23 3:09:32 - DEBUG -->  - GET - retrieve account doc a41ed59039034477bec23a68494889c3
2015-05-23 3:09:32 - DEBUG --> Request coming from 162.216.4.136
2015-05-23 3:09:33 - INFO --> ======================================================
2015-05-23 3:09:33 - INFO --> ================== Starting process ==================
2015-05-23 3:09:33 - INFO --> ======================================================
2015-05-23 3:09:33 - DEBUG --> Connecting to BigCouch...
2015-05-23 3:09:33 - DEBUG -->  - POST - edit account doc a41ed59039034477bec23a68494889c3
2015-05-23 3:09:33 - DEBUG --> Request coming from 162.216.4.136
2015-05-23 3:09:34 - INFO --> ======================================================
2015-05-23 3:09:34 - INFO --> ================== Starting process ==================
2015-05-23 3:09:34 - INFO --> ======================================================
2015-05-23 3:09:34 - DEBUG --> Connecting to BigCouch...
2015-05-23 3:09:34 - DEBUG -->  - GET - retrieve account doc a41ed59039034477bec23a68494889c3
2015-05-23 3:09:34 - DEBUG --> Request coming from 162.216.4.136
2015-05-23 3:09:34 - INFO --> ======================================================
2015-05-23 3:09:34 - INFO --> ================== Starting process ==================
2015-05-23 3:09:34 - INFO --> ======================================================
2015-05-23 3:09:34 - DEBUG --> Connecting to BigCouch...
2015-05-23 3:09:34 - DEBUG -->  - POST - edit account doc a41ed59039034477bec23a68494889c3
2015-05-23 3:09:34 - DEBUG --> Request coming from 162.216.4.136
2015-05-23 3:19:02 - INFO --> ======================================================
2015-05-23 3:19:02 - INFO --> ================== Starting process ==================
2015-05-23 3:19:02 - INFO --> ======================================================
2015-05-23 3:19:02 - DEBUG --> Connecting to BigCouch...
2015-05-23 3:19:02 - DEBUG -->  - GET - retrieve account doc a41ed59039034477bec23a68494889c3
2015-05-23 3:19:02 - DEBUG --> Request coming from 162.216.4.136
2015-05-23 3:19:02 - INFO --> ======================================================
2015-05-23 3:19:02 - INFO --> ================== Starting process ==================
2015-05-23 3:19:02 - INFO --> ======================================================
2015-05-23 3:19:02 - DEBUG --> Connecting to BigCouch...
2015-05-23 3:19:02 - DEBUG -->  - POST - edit account doc a41ed59039034477bec23a68494889c3
2015-05-23 3:19:02 - DEBUG --> Request coming from 162.216.4.136
2015-05-23 3:19:11 - INFO --> ======================================================
2015-05-23 3:19:11 - INFO --> ================== Starting process ==================
2015-05-23 3:19:11 - INFO --> ======================================================
2015-05-23 3:19:11 - DEBUG --> Connecting to BigCouch...
2015-05-23 3:19:11 - DEBUG -->  - GET - retrieve account doc a41ed59039034477bec23a68494889c3
2015-05-23 3:19:11 - DEBUG --> Request coming from 162.216.4.136
2015-05-23 3:19:11 - INFO --> ======================================================
2015-05-23 3:19:11 - INFO --> ================== Starting process ==================
2015-05-23 3:19:11 - INFO --> ======================================================
2015-05-23 3:19:11 - DEBUG --> Connecting to BigCouch...
2015-05-23 3:19:11 - DEBUG -->  - POST - edit account doc a41ed59039034477bec23a68494889c3
2015-05-23 3:19:11 - DEBUG --> Request coming from 162.216.4.136
2015-05-23 3:19:11 - INFO --> ======================================================
2015-05-23 3:19:11 - INFO --> ================== Starting process ==================
2015-05-23 3:19:11 - INFO --> ======================================================
2015-05-23 3:19:11 - DEBUG --> Connecting to BigCouch...
2015-05-23 3:19:11 - DEBUG -->  - GET - retrieve account doc a41ed59039034477bec23a68494889c3
2015-05-23 3:19:11 - DEBUG --> Request coming from 162.216.4.136
2015-05-23 3:19:12 - INFO --> ======================================================
2015-05-23 3:19:12 - INFO --> ================== Starting process ==================
2015-05-23 3:19:12 - INFO --> ======================================================
2015-05-23 3:19:12 - DEBUG --> Connecting to BigCouch...
2015-05-23 3:19:12 - DEBUG -->  - POST - edit account doc a41ed59039034477bec23a68494889c3
2015-05-23 3:19:12 - DEBUG --> Request coming from 162.216.4.136
2015-05-23 3:20:33 - INFO --> ======================================================
2015-05-23 3:20:33 - INFO --> ================== Starting process ==================
2015-05-23 3:20:33 - INFO --> ======================================================
2015-05-23 3:20:33 - DEBUG --> Connecting to BigCouch...
2015-05-23 3:20:33 - DEBUG -->  - GET - retrieve account doc a41ed59039034477bec23a68494889c3
2015-05-23 3:20:33 - DEBUG --> Request coming from 162.216.4.136
2015-05-23 3:20:33 - INFO --> ======================================================
2015-05-23 3:20:33 - INFO --> ================== Starting process ==================
2015-05-23 3:20:33 - INFO --> ======================================================
2015-05-23 3:20:33 - DEBUG --> Connecting to BigCouch...
2015-05-23 3:20:33 - DEBUG -->  - POST - edit account doc a41ed59039034477bec23a68494889c3
2015-05-23 3:20:33 - DEBUG --> Request coming from 162.216.4.136
2015-05-23 3:22:02 - INFO --> ======================================================
2015-05-23 3:22:02 - INFO --> ================== Starting process ==================
2015-05-23 3:22:02 - INFO --> ======================================================
2015-05-23 3:22:02 - DEBUG --> Connecting to BigCouch...
2015-05-23 3:22:02 - DEBUG -->  - GET - retrieve account doc a41ed59039034477bec23a68494889c3
2015-05-23 3:22:02 - DEBUG --> Request coming from 162.216.4.136
2015-05-23 3:22:02 - INFO --> ======================================================
2015-05-23 3:22:02 - INFO --> ================== Starting process ==================
2015-05-23 3:22:02 - INFO --> ======================================================
2015-05-23 3:22:02 - DEBUG --> Connecting to BigCouch...
2015-05-23 3:22:02 - DEBUG -->  - POST - edit account doc a41ed59039034477bec23a68494889c3
2015-05-23 3:22:02 - DEBUG --> Request coming from 162.216.4.136
2015-05-23 3:22:03 - INFO --> ======================================================
2015-05-23 3:22:03 - INFO --> ================== Starting process ==================
2015-05-23 3:22:03 - INFO --> ======================================================
2015-05-23 3:22:03 - DEBUG --> Connecting to BigCouch...
2015-05-23 3:22:03 - DEBUG -->  - GET - retrieve account doc a41ed59039034477bec23a68494889c3
2015-05-23 3:22:03 - DEBUG --> Request coming from 162.216.4.136
2015-05-23 3:22:03 - INFO --> ======================================================
2015-05-23 3:22:03 - INFO --> ================== Starting process ==================
2015-05-23 3:22:03 - INFO --> ======================================================
2015-05-23 3:22:03 - DEBUG --> Connecting to BigCouch...
2015-05-23 3:22:03 - DEBUG -->  - POST - edit account doc a41ed59039034477bec23a68494889c3
2015-05-23 3:22:03 - DEBUG --> Request coming from 162.216.4.136
2015-05-23 3:22:03 - INFO --> ======================================================
2015-05-23 3:22:03 - INFO --> ================== Starting process ==================
2015-05-23 3:22:03 - INFO --> ======================================================
2015-05-23 3:22:03 - DEBUG --> Connecting to BigCouch...
2015-05-23 3:22:03 - DEBUG -->  - GET - retrieve account doc a41ed59039034477bec23a68494889c3
2015-05-23 3:22:03 - DEBUG --> Request coming from 162.216.4.136
2015-05-23 3:22:04 - INFO --> ======================================================
2015-05-23 3:22:04 - INFO --> ================== Starting process ==================
2015-05-23 3:22:04 - INFO --> ======================================================
2015-05-23 3:22:04 - DEBUG --> Connecting to BigCouch...
2015-05-23 3:22:04 - DEBUG -->  - POST - edit account doc a41ed59039034477bec23a68494889c3
2015-05-23 3:22:04 - DEBUG --> Request coming from 162.216.4.136
2015-05-23 3:23:01 - INFO --> ======================================================
2015-05-23 3:23:01 - INFO --> ================== Starting process ==================
2015-05-23 3:23:01 - INFO --> ======================================================
2015-05-23 3:23:01 - DEBUG --> Connecting to BigCouch...
2015-05-23 3:23:01 - DEBUG -->  - GET - retrieve account doc a41ed59039034477bec23a68494889c3
2015-05-23 3:23:01 - DEBUG --> Request coming from 162.216.4.136
2015-05-23 3:23:02 - INFO --> ======================================================
2015-05-23 3:23:02 - INFO --> ================== Starting process ==================
2015-05-23 3:23:02 - INFO --> ======================================================
2015-05-23 3:23:02 - DEBUG --> Connecting to BigCouch...
2015-05-23 3:23:02 - DEBUG -->  - POST - edit account doc a41ed59039034477bec23a68494889c3
2015-05-23 3:23:02 - DEBUG --> Request coming from 162.216.4.136
2015-05-23 3:23:02 - INFO --> ======================================================
2015-05-23 3:23:02 - INFO --> ================== Starting process ==================
2015-05-23 3:23:02 - INFO --> ======================================================
2015-05-23 3:23:02 - DEBUG --> Connecting to BigCouch...
2015-05-23 3:23:02 - DEBUG -->  - GET - retrieve account doc a41ed59039034477bec23a68494889c3
2015-05-23 3:23:02 - DEBUG --> Request coming from 162.216.4.136
2015-05-23 3:23:02 - INFO --> ======================================================
2015-05-23 3:23:02 - INFO --> ================== Starting process ==================
2015-05-23 3:23:02 - INFO --> ======================================================
2015-05-23 3:23:02 - DEBUG --> Connecting to BigCouch...
2015-05-23 3:23:02 - DEBUG -->  - POST - edit account doc a41ed59039034477bec23a68494889c3
2015-05-23 3:23:02 - DEBUG --> Request coming from 162.216.4.136
2015-05-23 3:23:08 - INFO --> ======================================================
2015-05-23 3:23:08 - INFO --> ================== Starting process ==================
2015-05-23 3:23:08 - INFO --> ======================================================
2015-05-23 3:23:08 - DEBUG --> Connecting to BigCouch...
2015-05-23 3:23:08 - DEBUG -->  - GET - retrieve account doc a41ed59039034477bec23a68494889c3
2015-05-23 3:23:08 - DEBUG --> Request coming from 162.216.4.136
2015-05-23 3:23:08 - INFO --> ======================================================
2015-05-23 3:23:08 - INFO --> ================== Starting process ==================
2015-05-23 3:23:08 - INFO --> ======================================================
2015-05-23 3:23:08 - DEBUG --> Connecting to BigCouch...
2015-05-23 3:23:08 - DEBUG -->  - POST - edit account doc a41ed59039034477bec23a68494889c3
2015-05-23 3:23:08 - DEBUG --> Request coming from 162.216.4.136
2015-05-23 3:23:39 - INFO --> ======================================================
2015-05-23 3:23:39 - INFO --> ================== Starting process ==================
2015-05-23 3:23:39 - INFO --> ======================================================
2015-05-23 3:23:39 - DEBUG --> Connecting to BigCouch...
2015-05-23 3:23:39 - DEBUG -->  - GET - retrieve account doc a41ed59039034477bec23a68494889c3
2015-05-23 3:23:39 - DEBUG --> Request coming from 162.216.4.136
2015-05-23 3:23:39 - INFO --> ======================================================
2015-05-23 3:23:39 - INFO --> ================== Starting process ==================
2015-05-23 3:23:39 - INFO --> ======================================================
2015-05-23 3:23:39 - DEBUG --> Connecting to BigCouch...
2015-05-23 3:23:39 - DEBUG -->  - POST - edit account doc a41ed59039034477bec23a68494889c3
2015-05-23 3:23:39 - DEBUG --> Request coming from 162.216.4.136
2015-05-23 3:23:40 - INFO --> ======================================================
2015-05-23 3:23:40 - INFO --> ================== Starting process ==================
2015-05-23 3:23:40 - INFO --> ======================================================
2015-05-23 3:23:40 - DEBUG --> Connecting to BigCouch...
2015-05-23 3:23:40 - DEBUG -->  - GET - retrieve account doc a41ed59039034477bec23a68494889c3
2015-05-23 3:23:40 - DEBUG --> Request coming from 162.216.4.136
2015-05-23 3:23:40 - INFO --> ======================================================
2015-05-23 3:23:40 - INFO --> ================== Starting process ==================
2015-05-23 3:23:40 - INFO --> ======================================================
2015-05-23 3:23:40 - DEBUG --> Connecting to BigCouch...
2015-05-23 3:23:40 - DEBUG -->  - POST - edit account doc a41ed59039034477bec23a68494889c3
2015-05-23 3:23:40 - DEBUG --> Request coming from 162.216.4.136
2015-05-23 3:24:10 - INFO --> ======================================================
2015-05-23 3:24:10 - INFO --> ================== Starting process ==================
2015-05-23 3:24:10 - INFO --> ======================================================
2015-05-23 3:24:10 - DEBUG --> Connecting to BigCouch...
2015-05-23 3:24:10 - DEBUG -->  - GET - retrieve account doc a41ed59039034477bec23a68494889c3
2015-05-23 3:24:10 - DEBUG --> Request coming from 162.216.4.136
2015-05-23 3:24:10 - INFO --> ======================================================
2015-05-23 3:24:10 - INFO --> ================== Starting process ==================
2015-05-23 3:24:10 - INFO --> ======================================================
2015-05-23 3:24:10 - DEBUG --> Connecting to BigCouch...
2015-05-23 3:24:10 - DEBUG -->  - POST - edit account doc a41ed59039034477bec23a68494889c3
2015-05-23 3:24:10 - DEBUG --> Request coming from 162.216.4.136
2015-05-23 3:24:10 - INFO --> ======================================================
2015-05-23 3:24:10 - INFO --> ================== Starting process ==================
2015-05-23 3:24:10 - INFO --> ======================================================
2015-05-23 3:24:10 - DEBUG --> Connecting to BigCouch...
2015-05-23 3:24:10 - DEBUG -->  - GET - retrieve account doc a41ed59039034477bec23a68494889c3
2015-05-23 3:24:10 - DEBUG --> Request coming from 162.216.4.136
2015-05-23 3:24:11 - INFO --> ======================================================
2015-05-23 3:24:11 - INFO --> ================== Starting process ==================
2015-05-23 3:24:11 - INFO --> ======================================================
2015-05-23 3:24:11 - DEBUG --> Connecting to BigCouch...
2015-05-23 3:24:11 - DEBUG -->  - POST - edit account doc a41ed59039034477bec23a68494889c3
2015-05-23 3:24:11 - DEBUG --> Request coming from 162.216.4.136
2015-05-23 3:36:24 - INFO --> ======================================================
2015-05-23 3:36:24 - INFO --> ================== Starting process ==================
2015-05-23 3:36:24 - INFO --> ======================================================
2015-05-23 3:36:24 - DEBUG --> Connecting to BigCouch...
2015-05-23 3:36:24 - DEBUG -->  - GET - retrieve account doc a41ed59039034477bec23a68494889c3
2015-05-23 3:36:24 - DEBUG --> Request coming from 162.216.4.136
2015-05-23 3:36:24 - INFO --> ======================================================
2015-05-23 3:36:24 - INFO --> ================== Starting process ==================
2015-05-23 3:36:24 - INFO --> ======================================================
2015-05-23 3:36:24 - DEBUG --> Connecting to BigCouch...
2015-05-23 3:36:24 - DEBUG -->  - POST - edit account doc a41ed59039034477bec23a68494889c3
2015-05-23 3:36:24 - DEBUG --> Request coming from 162.216.4.136
2015-05-23 3:37:45 - INFO --> ======================================================
2015-05-23 3:37:45 - INFO --> ================== Starting process ==================
2015-05-23 3:37:45 - INFO --> ======================================================
2015-05-23 3:37:45 - DEBUG --> Connecting to BigCouch...
2015-05-23 3:37:45 - DEBUG -->  - GET - retrieve account doc a41ed59039034477bec23a68494889c3
2015-05-23 3:37:45 - DEBUG --> Request coming from 162.216.4.136
2015-05-23 3:37:45 - INFO --> ======================================================
2015-05-23 3:37:45 - INFO --> ================== Starting process ==================
2015-05-23 3:37:45 - INFO --> ======================================================
2015-05-23 3:37:45 - DEBUG --> Connecting to BigCouch...
2015-05-23 3:37:45 - DEBUG -->  - POST - edit account doc a41ed59039034477bec23a68494889c3
2015-05-23 3:37:45 - DEBUG --> Request coming from 162.216.4.136
2015-05-23 3:38:24 - INFO --> ======================================================
2015-05-23 3:38:24 - INFO --> ================== Starting process ==================
2015-05-23 3:38:24 - INFO --> ======================================================
2015-05-23 3:38:24 - DEBUG --> Connecting to BigCouch...
2015-05-23 3:38:24 - DEBUG -->  - GET - retrieve account doc a41ed59039034477bec23a68494889c3
2015-05-23 3:38:24 - DEBUG --> Request coming from 162.216.4.136
2015-05-23 3:38:24 - INFO --> ======================================================
2015-05-23 3:38:24 - INFO --> ================== Starting process ==================
2015-05-23 3:38:24 - INFO --> ======================================================
2015-05-23 3:38:24 - DEBUG --> Connecting to BigCouch...
2015-05-23 3:38:24 - DEBUG -->  - POST - edit account doc a41ed59039034477bec23a68494889c3
2015-05-23 3:38:24 - DEBUG --> Request coming from 162.216.4.136
2015-05-23 3:38:32 - INFO --> ======================================================
2015-05-23 3:38:32 - INFO --> ================== Starting process ==================
2015-05-23 3:38:32 - INFO --> ======================================================
2015-05-23 3:38:32 - DEBUG --> Connecting to BigCouch...
2015-05-23 3:38:32 - DEBUG -->  - GET - retrieve account doc a41ed59039034477bec23a68494889c3
2015-05-23 3:38:32 - DEBUG --> Request coming from 162.216.4.136
2015-05-23 3:38:32 - INFO --> ======================================================
2015-05-23 3:38:32 - INFO --> ================== Starting process ==================
2015-05-23 3:38:32 - INFO --> ======================================================
2015-05-23 3:38:32 - DEBUG --> Connecting to BigCouch...
2015-05-23 3:38:32 - DEBUG -->  - POST - edit account doc a41ed59039034477bec23a68494889c3
2015-05-23 3:38:32 - DEBUG --> Request coming from 162.216.4.136
2015-05-23 3:38:33 - INFO --> ======================================================
2015-05-23 3:38:33 - INFO --> ================== Starting process ==================
2015-05-23 3:38:33 - INFO --> ======================================================
2015-05-23 3:38:33 - DEBUG --> Connecting to BigCouch...
2015-05-23 3:38:33 - DEBUG -->  - GET - retrieve account doc a41ed59039034477bec23a68494889c3
2015-05-23 3:38:33 - DEBUG --> Request coming from 162.216.4.136
2015-05-23 3:38:33 - INFO --> ======================================================
2015-05-23 3:38:33 - INFO --> ================== Starting process ==================
2015-05-23 3:38:33 - INFO --> ======================================================
2015-05-23 3:38:33 - DEBUG --> Connecting to BigCouch...
2015-05-23 3:38:33 - DEBUG -->  - POST - edit account doc a41ed59039034477bec23a68494889c3
2015-05-23 3:38:33 - DEBUG --> Request coming from 162.216.4.136
2015-05-23 3:38:34 - INFO --> ======================================================
2015-05-23 3:38:34 - INFO --> ================== Starting process ==================
2015-05-23 3:38:34 - INFO --> ======================================================
2015-05-23 3:38:34 - DEBUG --> Connecting to BigCouch...
2015-05-23 3:38:34 - DEBUG -->  - GET - retrieve account doc a41ed59039034477bec23a68494889c3
2015-05-23 3:38:34 - DEBUG --> Request coming from 162.216.4.136
2015-05-23 3:38:34 - INFO --> ======================================================
2015-05-23 3:38:34 - INFO --> ================== Starting process ==================
2015-05-23 3:38:34 - INFO --> ======================================================
2015-05-23 3:38:34 - DEBUG --> Connecting to BigCouch...
2015-05-23 3:38:34 - DEBUG -->  - POST - edit account doc a41ed59039034477bec23a68494889c3
2015-05-23 3:38:34 - DEBUG --> Request coming from 162.216.4.136
2015-05-23 3:39:34 - INFO --> ======================================================
2015-05-23 3:39:34 - INFO --> ================== Starting process ==================
2015-05-23 3:39:34 - INFO --> ======================================================
2015-05-23 3:39:34 - DEBUG --> Connecting to BigCouch...
2015-05-23 3:39:34 - DEBUG -->  - GET - retrieve account doc a41ed59039034477bec23a68494889c3
2015-05-23 3:39:34 - DEBUG --> Request coming from 162.216.4.136
2015-05-23 3:39:34 - INFO --> ======================================================
2015-05-23 3:39:34 - INFO --> ================== Starting process ==================
2015-05-23 3:39:34 - INFO --> ======================================================
2015-05-23 3:39:34 - DEBUG --> Connecting to BigCouch...
2015-05-23 3:39:34 - DEBUG -->  - POST - edit account doc a41ed59039034477bec23a68494889c3
2015-05-23 3:39:34 - DEBUG --> Request coming from 162.216.4.136
2015-05-23 3:39:34 - INFO --> ======================================================
2015-05-23 3:39:34 - INFO --> ================== Starting process ==================
2015-05-23 3:39:34 - INFO --> ======================================================
2015-05-23 3:39:34 - DEBUG --> Connecting to BigCouch...
2015-05-23 3:39:34 - DEBUG -->  - GET - retrieve account doc a41ed59039034477bec23a68494889c3
2015-05-23 3:39:34 - DEBUG --> Request coming from 162.216.4.136
2015-05-23 3:39:35 - INFO --> ======================================================
2015-05-23 3:39:35 - INFO --> ================== Starting process ==================
2015-05-23 3:39:35 - INFO --> ======================================================
2015-05-23 3:39:35 - DEBUG --> Connecting to BigCouch...
2015-05-23 3:39:35 - DEBUG -->  - POST - edit account doc a41ed59039034477bec23a68494889c3
2015-05-23 3:39:35 - DEBUG --> Request coming from 162.216.4.136
2015-05-23 3:39:38 - INFO --> ======================================================
2015-05-23 3:39:38 - INFO --> ================== Starting process ==================
2015-05-23 3:39:38 - INFO --> ======================================================
2015-05-23 3:39:38 - DEBUG --> Connecting to BigCouch...
2015-05-23 3:39:38 - DEBUG -->  - GET - retrieve account doc a41ed59039034477bec23a68494889c3
2015-05-23 3:39:38 - DEBUG --> Request coming from 162.216.4.136
2015-05-23 3:39:38 - INFO --> ======================================================
2015-05-23 3:39:38 - INFO --> ================== Starting process ==================
2015-05-23 3:39:38 - INFO --> ======================================================
2015-05-23 3:39:38 - DEBUG --> Connecting to BigCouch...
2015-05-23 3:39:38 - DEBUG -->  - POST - edit account doc a41ed59039034477bec23a68494889c3
2015-05-23 3:39:38 - DEBUG --> Request coming from 162.216.4.136
2015-05-23 3:39:45 - INFO --> ======================================================
2015-05-23 3:39:45 - INFO --> ================== Starting process ==================
2015-05-23 3:39:45 - INFO --> ======================================================
2015-05-23 3:39:45 - DEBUG --> Connecting to BigCouch...
2015-05-23 3:39:45 - DEBUG -->  - GET - retrieve account doc a41ed59039034477bec23a68494889c3
2015-05-23 3:39:45 - DEBUG --> Request coming from 162.216.4.136
2015-05-23 3:39:45 - INFO --> ======================================================
2015-05-23 3:39:45 - INFO --> ================== Starting process ==================
2015-05-23 3:39:45 - INFO --> ======================================================
2015-05-23 3:39:45 - DEBUG --> Connecting to BigCouch...
2015-05-23 3:39:45 - DEBUG -->  - POST - edit account doc a41ed59039034477bec23a68494889c3
2015-05-23 3:39:45 - DEBUG --> Request coming from 162.216.4.136
2015-05-23 3:40:16 - INFO --> ======================================================
2015-05-23 3:40:16 - INFO --> ================== Starting process ==================
2015-05-23 3:40:16 - INFO --> ======================================================
2015-05-23 3:40:16 - DEBUG --> Connecting to BigCouch...
2015-05-23 3:40:16 - DEBUG -->  - GET - retrieve account doc a41ed59039034477bec23a68494889c3
2015-05-23 3:40:16 - DEBUG --> Request coming from 162.216.4.136
2015-05-23 3:40:17 - INFO --> ======================================================
2015-05-23 3:40:17 - INFO --> ================== Starting process ==================
2015-05-23 3:40:17 - INFO --> ======================================================
2015-05-23 3:40:17 - DEBUG --> Connecting to BigCouch...
2015-05-23 3:40:17 - DEBUG -->  - POST - edit account doc a41ed59039034477bec23a68494889c3
2015-05-23 3:40:17 - DEBUG --> Request coming from 162.216.4.136
2015-05-23 3:40:17 - INFO --> ======================================================
2015-05-23 3:40:17 - INFO --> ================== Starting process ==================
2015-05-23 3:40:17 - INFO --> ======================================================
2015-05-23 3:40:17 - DEBUG --> Connecting to BigCouch...
2015-05-23 3:40:17 - DEBUG -->  - GET - retrieve account doc a41ed59039034477bec23a68494889c3
2015-05-23 3:40:17 - DEBUG --> Request coming from 162.216.4.136
2015-05-23 3:40:17 - INFO --> ======================================================
2015-05-23 3:40:17 - INFO --> ================== Starting process ==================
2015-05-23 3:40:17 - INFO --> ======================================================
2015-05-23 3:40:17 - DEBUG --> Connecting to BigCouch...
2015-05-23 3:40:17 - DEBUG -->  - POST - edit account doc a41ed59039034477bec23a68494889c3
2015-05-23 3:40:17 - DEBUG --> Request coming from 162.216.4.136
2015-05-23 3:41:03 - INFO --> ======================================================
2015-05-23 3:41:03 - INFO --> ================== Starting process ==================
2015-05-23 3:41:03 - INFO --> ======================================================
2015-05-23 3:41:03 - DEBUG --> Connecting to BigCouch...
2015-05-23 3:41:03 - DEBUG -->  - GET - retrieve account doc a41ed59039034477bec23a68494889c3
2015-05-23 3:41:03 - DEBUG --> Request coming from 162.216.4.136
2015-05-23 3:41:03 - INFO --> ======================================================
2015-05-23 3:41:03 - INFO --> ================== Starting process ==================
2015-05-23 3:41:03 - INFO --> ======================================================
2015-05-23 3:41:03 - DEBUG --> Connecting to BigCouch...
2015-05-23 3:41:03 - DEBUG -->  - POST - edit account doc a41ed59039034477bec23a68494889c3
2015-05-23 3:41:03 - DEBUG --> Request coming from 162.216.4.136
2015-05-23 3:41:04 - INFO --> ======================================================
2015-05-23 3:41:04 - INFO --> ================== Starting process ==================
2015-05-23 3:41:04 - INFO --> ======================================================
2015-05-23 3:41:04 - DEBUG --> Connecting to BigCouch...
2015-05-23 3:41:04 - DEBUG -->  - GET - retrieve account doc a41ed59039034477bec23a68494889c3
2015-05-23 3:41:04 - DEBUG --> Request coming from 162.216.4.136
2015-05-23 3:41:04 - INFO --> ======================================================
2015-05-23 3:41:04 - INFO --> ================== Starting process ==================
2015-05-23 3:41:04 - INFO --> ======================================================
2015-05-23 3:41:04 - DEBUG --> Connecting to BigCouch...
2015-05-23 3:41:04 - DEBUG -->  - POST - edit account doc a41ed59039034477bec23a68494889c3
2015-05-23 3:41:04 - DEBUG --> Request coming from 162.216.4.136
2015-05-23 6:26:22 - INFO --> ======================================================
2015-05-23 6:26:22 - INFO --> ================== Starting process ==================
2015-05-23 6:26:22 - INFO --> ======================================================
2015-05-23 6:26:22 - DEBUG --> Connecting to BigCouch...
2015-05-23 6:26:22 - DEBUG -->  - GET - retrieve account doc f5ad8a5f3a2ce61e2b658988f1ff24ee
2015-05-23 6:26:22 - DEBUG --> Request coming from 162.216.4.136
2015-05-23 6:26:22 - DEBUG --> No account with this id - EXIT
2015-05-23 6:26:22 - INFO --> ======================================================
2015-05-23 6:26:22 - INFO --> ================== Starting process ==================
2015-05-23 6:26:22 - INFO --> ======================================================
2015-05-23 6:26:22 - DEBUG --> Connecting to BigCouch...
2015-05-23 6:26:22 - DEBUG -->  - PUT - Adding account first...
2015-05-23 6:26:22 - DEBUG --> Request coming from 162.216.4.136
2015-05-23 6:26:22 - DEBUG --> Successfully Add account
2015-05-23 6:26:32 - INFO --> ======================================================
2015-05-23 6:26:32 - INFO --> ================== Starting process ==================
2015-05-23 6:26:32 - INFO --> ======================================================
2015-05-23 6:26:32 - DEBUG --> Connecting to BigCouch...
2015-05-23 6:26:32 - DEBUG -->  - GET - retrieve account doc f5ad8a5f3a2ce61e2b658988f1ff24ee
2015-05-23 6:26:32 - DEBUG --> Request coming from 162.216.4.136
2015-05-23 6:26:32 - INFO --> ======================================================
2015-05-23 6:26:32 - INFO --> ================== Starting process ==================
2015-05-23 6:26:32 - INFO --> ======================================================
2015-05-23 6:26:32 - DEBUG --> Connecting to BigCouch...
2015-05-23 6:26:32 - DEBUG -->  - POST - edit account doc f5ad8a5f3a2ce61e2b658988f1ff24ee
2015-05-23 6:26:32 - DEBUG --> Request coming from 162.216.4.136
2015-05-23 12:16:20 - INFO --> ======================================================
2015-05-23 12:16:20 - INFO --> ================== Starting process ==================
2015-05-23 12:16:20 - INFO --> ======================================================
2015-05-23 12:16:20 - DEBUG --> Connecting to BigCouch...
2015-05-23 12:16:20 - DEBUG -->  - GET - retrieve account doc 3dc06329fef6a24f2ddfa4233c7af342
2015-05-23 12:16:20 - DEBUG --> Request coming from 162.216.4.136
2015-05-23 12:16:20 - INFO --> ======================================================
2015-05-23 12:16:20 - INFO --> ================== Starting process ==================
2015-05-23 12:16:20 - INFO --> ======================================================
2015-05-23 12:16:20 - DEBUG --> Connecting to BigCouch...
2015-05-23 12:16:20 - DEBUG -->  - POST - edit account doc 3dc06329fef6a24f2ddfa4233c7af342
2015-05-23 12:16:20 - DEBUG --> Request coming from 162.216.4.136
2015-05-23 12:16:21 - INFO --> ======================================================
2015-05-23 12:16:21 - INFO --> ================== Starting process ==================
2015-05-23 12:16:21 - INFO --> ======================================================
2015-05-23 12:16:21 - DEBUG --> Connecting to BigCouch...
2015-05-23 12:16:21 - DEBUG -->  - GET - retrieve account doc 3dc06329fef6a24f2ddfa4233c7af342 for mac doc ccd539f3b2ec
2015-05-23 12:16:21 - DEBUG --> Request coming from 162.216.4.136
2015-05-23 12:16:21 - INFO --> ======================================================
2015-05-23 12:16:21 - INFO --> ================== Starting process ==================
2015-05-23 12:16:21 - INFO --> ======================================================
2015-05-23 12:16:21 - DEBUG --> Connecting to BigCouch...
2015-05-23 12:16:21 - DEBUG -->  - POST - edit in doc 3dc06329fef6a24f2ddfa4233c7af342 mac address ccd539f3b2ec
2015-05-23 12:16:21 - DEBUG --> Request coming from 162.216.4.136
2015-05-23 12:16:21 - DEBUG --> Will now edit the mac_lookup...
2015-05-23 12:16:21 - DEBUG --> done... Edit for account 3dc06329fef6a24f2ddfa4233c7af342 and mac_address ccd539f3b2ec SUCCESS
2015-05-23 12:16:41 - INFO --> ======================================================
2015-05-23 12:16:41 - INFO --> ================== Starting process ==================
2015-05-23 12:16:41 - INFO --> ======================================================
2015-05-23 12:16:41 - DEBUG --> Connecting to BigCouch...
2015-05-23 12:16:41 - DEBUG -->  - GET - retrieve account doc 3dc06329fef6a24f2ddfa4233c7af342
2015-05-23 12:16:41 - DEBUG --> Request coming from 162.216.4.136
2015-05-23 12:16:41 - INFO --> ======================================================
2015-05-23 12:16:41 - INFO --> ================== Starting process ==================
2015-05-23 12:16:41 - INFO --> ======================================================
2015-05-23 12:16:41 - DEBUG --> Connecting to BigCouch...
2015-05-23 12:16:41 - DEBUG -->  - POST - edit account doc 3dc06329fef6a24f2ddfa4233c7af342
2015-05-23 12:16:41 - DEBUG --> Request coming from 162.216.4.136
2015-05-23 12:16:41 - INFO --> ======================================================
2015-05-23 12:16:41 - INFO --> ================== Starting process ==================
2015-05-23 12:16:41 - INFO --> ======================================================
2015-05-23 12:16:41 - DEBUG --> Connecting to BigCouch...
2015-05-23 12:16:41 - DEBUG -->  - GET - retrieve account doc 3dc06329fef6a24f2ddfa4233c7af342 for mac doc ccd539f3b2ec
2015-05-23 12:16:41 - DEBUG --> Request coming from 162.216.4.136
2015-05-23 12:16:41 - INFO --> ======================================================
2015-05-23 12:16:41 - INFO --> ================== Starting process ==================
2015-05-23 12:16:41 - INFO --> ======================================================
2015-05-23 12:16:41 - DEBUG --> Connecting to BigCouch...
2015-05-23 12:16:41 - DEBUG -->  - POST - edit in doc 3dc06329fef6a24f2ddfa4233c7af342 mac address ccd539f3b2ec
2015-05-23 12:16:41 - DEBUG --> Request coming from 162.216.4.136
2015-05-23 12:16:41 - DEBUG --> Will now edit the mac_lookup...
2015-05-23 12:16:41 - DEBUG --> done... Edit for account 3dc06329fef6a24f2ddfa4233c7af342 and mac_address ccd539f3b2ec SUCCESS
2015-05-23 12:59:43 - INFO --> ======================================================
2015-05-23 12:59:43 - INFO --> ================== Starting process ==================
2015-05-23 12:59:43 - INFO --> ======================================================
2015-05-23 12:59:43 - DEBUG --> Connecting to BigCouch...
2015-05-23 12:59:43 - DEBUG --> The account (04791222967cea696c512f266729500c) do not exist
