2015-12-31 12:09:38 - INFO --> ======================================================
2015-12-31 12:09:38 - INFO --> ================== Starting process ==================
2015-12-31 12:09:38 - INFO --> ======================================================
2015-12-31 12:09:38 - DEBUG --> Connecting to BigCouch...
2015-12-31 12:09:38 - DEBUG -->  - GET - retrieve account doc a41ed59039034477bec23a68494889c3
2015-12-31 12:09:38 - DEBUG --> Request coming from 162.216.4.136
2015-12-31 12:09:39 - INFO --> ======================================================
2015-12-31 12:09:39 - INFO --> ================== Starting process ==================
2015-12-31 12:09:39 - INFO --> ======================================================
2015-12-31 12:09:39 - DEBUG --> Connecting to BigCouch...
2015-12-31 12:09:39 - DEBUG -->  - POST - edit account doc a41ed59039034477bec23a68494889c3
2015-12-31 12:09:39 - DEBUG --> Request coming from 162.216.4.136
2015-12-31 12:38:43 - INFO --> ======================================================
2015-12-31 12:38:43 - INFO --> ================== Starting process ==================
2015-12-31 12:38:43 - INFO --> ======================================================
2015-12-31 12:38:43 - DEBUG --> Connecting to BigCouch...
2015-12-31 12:38:43 - DEBUG -->  - GET - retrieve account doc 2a92b31aaf2996fb6c06cfc2fd20ad95
2015-12-31 12:38:43 - DEBUG --> Request coming from 162.216.4.136
2015-12-31 12:38:43 - INFO --> ======================================================
2015-12-31 12:38:43 - INFO --> ================== Starting process ==================
2015-12-31 12:38:43 - INFO --> ======================================================
2015-12-31 12:38:43 - DEBUG --> Connecting to BigCouch...
2015-12-31 12:38:43 - DEBUG -->  - POST - edit account doc 2a92b31aaf2996fb6c06cfc2fd20ad95
2015-12-31 12:38:43 - DEBUG --> Request coming from 162.216.4.136
2015-12-31 12:53:00 - INFO --> ======================================================
2015-12-31 12:53:00 - INFO --> ================== Starting process ==================
2015-12-31 12:53:00 - INFO --> ======================================================
2015-12-31 12:53:00 - DEBUG --> Connecting to BigCouch...
2015-12-31 12:53:00 - DEBUG -->  - GET - retrieve account doc fc5ecac6c531e4ae38f17617c51bfddb
2015-12-31 12:53:00 - DEBUG --> Request coming from 162.216.4.136
2015-12-31 12:53:00 - INFO --> ======================================================
2015-12-31 12:53:00 - INFO --> ================== Starting process ==================
2015-12-31 12:53:00 - INFO --> ======================================================
2015-12-31 12:53:00 - DEBUG --> Connecting to BigCouch...
2015-12-31 12:53:00 - DEBUG -->  - POST - edit account doc fc5ecac6c531e4ae38f17617c51bfddb
2015-12-31 12:53:00 - DEBUG --> Request coming from 162.216.4.136
2015-12-31 12:54:35 - INFO --> ======================================================
2015-12-31 12:54:35 - INFO --> ================== Starting process ==================
2015-12-31 12:54:35 - INFO --> ======================================================
2015-12-31 12:54:35 - DEBUG --> Connecting to BigCouch...
2015-12-31 12:54:35 - DEBUG -->  - GET - retrieve account doc fc5ecac6c531e4ae38f17617c51bfddb
2015-12-31 12:54:35 - DEBUG --> Request coming from 162.216.4.136
2015-12-31 12:54:36 - INFO --> ======================================================
2015-12-31 12:54:36 - INFO --> ================== Starting process ==================
2015-12-31 12:54:36 - INFO --> ======================================================
2015-12-31 12:54:36 - DEBUG --> Connecting to BigCouch...
2015-12-31 12:54:36 - DEBUG -->  - POST - edit account doc fc5ecac6c531e4ae38f17617c51bfddb
2015-12-31 12:54:36 - DEBUG --> Request coming from 162.216.4.136
2015-12-31 12:54:55 - INFO --> ======================================================
2015-12-31 12:54:55 - INFO --> ================== Starting process ==================
2015-12-31 12:54:55 - INFO --> ======================================================
2015-12-31 12:54:55 - DEBUG --> Connecting to BigCouch...
2015-12-31 12:54:55 - DEBUG -->  - GET - retrieve account doc fc5ecac6c531e4ae38f17617c51bfddb
2015-12-31 12:54:55 - DEBUG --> Request coming from 162.216.4.136
2015-12-31 12:54:56 - INFO --> ======================================================
2015-12-31 12:54:56 - INFO --> ================== Starting process ==================
2015-12-31 12:54:56 - INFO --> ======================================================
2015-12-31 12:54:56 - DEBUG --> Connecting to BigCouch...
2015-12-31 12:54:56 - DEBUG -->  - POST - edit account doc fc5ecac6c531e4ae38f17617c51bfddb
2015-12-31 12:54:56 - DEBUG --> Request coming from 162.216.4.136
2015-12-31 12:55:27 - INFO --> ======================================================
2015-12-31 12:55:27 - INFO --> ================== Starting process ==================
2015-12-31 12:55:27 - INFO --> ======================================================
2015-12-31 12:55:27 - DEBUG --> Connecting to BigCouch...
2015-12-31 12:55:27 - DEBUG -->  - GET - retrieve account doc fc5ecac6c531e4ae38f17617c51bfddb
2015-12-31 12:55:27 - DEBUG --> Request coming from 162.216.4.136
2015-12-31 12:55:27 - INFO --> ======================================================
2015-12-31 12:55:27 - INFO --> ================== Starting process ==================
2015-12-31 12:55:27 - INFO --> ======================================================
2015-12-31 12:55:27 - DEBUG --> Connecting to BigCouch...
2015-12-31 12:55:27 - DEBUG -->  - POST - edit account doc fc5ecac6c531e4ae38f17617c51bfddb
2015-12-31 12:55:27 - DEBUG --> Request coming from 162.216.4.136
2015-12-31 12:58:44 - INFO --> ======================================================
2015-12-31 12:58:44 - INFO --> ================== Starting process ==================
2015-12-31 12:58:44 - INFO --> ======================================================
2015-12-31 12:58:44 - DEBUG --> Connecting to BigCouch...
2015-12-31 12:58:44 - DEBUG -->  - DELETE - Deleting a device (0004f2050ce3) for account fc5ecac6c531e4ae38f17617c51bfddb...
2015-12-31 12:58:44 - DEBUG --> Request coming from 162.216.4.136
2015-12-31 12:58:44 - DEBUG --> The device does exist... let's delete it
2015-12-31 12:58:44 - DEBUG --> Now deleting the mac lookup entry...
2015-12-31 12:58:44 - DEBUG --> Successfully deleted device (0004f2050ce3)
2015-12-31 12:58:49 - INFO --> ======================================================
2015-12-31 12:58:49 - INFO --> ================== Starting process ==================
2015-12-31 12:58:49 - INFO --> ======================================================
2015-12-31 12:58:49 - DEBUG --> Connecting to BigCouch...
2015-12-31 12:58:49 - DEBUG -->  - DELETE - Deleting a device (0004f210aff4) for account fc5ecac6c531e4ae38f17617c51bfddb...
2015-12-31 12:58:49 - DEBUG --> Request coming from 162.216.4.136
2015-12-31 12:58:49 - DEBUG --> The device does exist... let's delete it
2015-12-31 12:58:49 - DEBUG --> Now deleting the mac lookup entry...
2015-12-31 12:58:49 - DEBUG --> Successfully deleted device (0004f210aff4)
2015-12-31 12:58:59 - INFO --> ======================================================
2015-12-31 12:58:59 - INFO --> ================== Starting process ==================
2015-12-31 12:58:59 - INFO --> ======================================================
2015-12-31 12:58:59 - DEBUG --> Connecting to BigCouch...
2015-12-31 12:58:59 - DEBUG -->  - GET - retrieve account doc fc5ecac6c531e4ae38f17617c51bfddb
2015-12-31 12:58:59 - DEBUG --> Request coming from 162.216.4.136
2015-12-31 12:58:59 - INFO --> ======================================================
2015-12-31 12:58:59 - INFO --> ================== Starting process ==================
2015-12-31 12:58:59 - INFO --> ======================================================
2015-12-31 12:58:59 - DEBUG --> Connecting to BigCouch...
2015-12-31 12:58:59 - DEBUG -->  - POST - edit account doc fc5ecac6c531e4ae38f17617c51bfddb
2015-12-31 12:58:59 - DEBUG --> Request coming from 162.216.4.136
2015-12-31 13:22:36 - INFO --> ======================================================
2015-12-31 13:22:36 - INFO --> ================== Starting process ==================
2015-12-31 13:22:36 - INFO --> ======================================================
2015-12-31 13:22:36 - DEBUG --> Connecting to BigCouch...
2015-12-31 13:22:36 - DEBUG -->  - DELETE - Deleting an account (eb99147ef220b6372b9a911cc0a8062a)...
2015-12-31 13:22:36 - DEBUG --> Request coming from 162.216.4.136
2015-12-31 13:22:36 - DEBUG --> Retrieved the device list now deleting them...
2015-12-31 13:22:36 - DEBUG --> All devices for account eb99147ef220b6372b9a911cc0a8062a deleted, will now delete the account db...
2015-12-31 13:22:36 - DEBUG --> Failed to delete the account (eb99147ef220b6372b9a911cc0a8062a) - EXIT
2015-12-31 13:22:53 - INFO --> ======================================================
2015-12-31 13:22:53 - INFO --> ================== Starting process ==================
2015-12-31 13:22:53 - INFO --> ======================================================
2015-12-31 13:22:53 - DEBUG --> Connecting to BigCouch...
2015-12-31 13:22:53 - DEBUG -->  - DELETE - Deleting an account (b9d076bd9c2b1eb4f083be501569e745)...
2015-12-31 13:22:53 - DEBUG --> Request coming from 162.216.4.136
2015-12-31 13:22:53 - DEBUG --> Retrieved the device list now deleting them...
2015-12-31 13:22:53 - DEBUG --> All devices for account b9d076bd9c2b1eb4f083be501569e745 deleted, will now delete the account db...
2015-12-31 13:22:53 - DEBUG --> Failed to delete the account (b9d076bd9c2b1eb4f083be501569e745) - EXIT
2015-12-31 13:23:12 - INFO --> ======================================================
2015-12-31 13:23:12 - INFO --> ================== Starting process ==================
2015-12-31 13:23:12 - INFO --> ======================================================
2015-12-31 13:23:12 - DEBUG --> Connecting to BigCouch...
2015-12-31 13:23:12 - DEBUG -->  - DELETE - Deleting an account (5220741736db782257295f2b67a6e2a8)...
2015-12-31 13:23:12 - DEBUG --> Request coming from 162.216.4.136
2015-12-31 13:23:12 - DEBUG --> Retrieved the device list now deleting them...
2015-12-31 13:23:12 - DEBUG --> All devices for account 5220741736db782257295f2b67a6e2a8 deleted, will now delete the account db...
2015-12-31 13:23:12 - DEBUG --> Failed to delete the account (5220741736db782257295f2b67a6e2a8) - EXIT
2015-12-31 13:24:06 - INFO --> ======================================================
2015-12-31 13:24:06 - INFO --> ================== Starting process ==================
2015-12-31 13:24:06 - INFO --> ======================================================
2015-12-31 13:24:06 - DEBUG --> Connecting to BigCouch...
2015-12-31 13:24:06 - DEBUG -->  - GET - retrieve account doc 477ca56f538cc89620ccf911e4bc234a
2015-12-31 13:24:06 - DEBUG --> Request coming from 162.216.4.136
2015-12-31 13:24:06 - DEBUG --> No account with this id - EXIT
2015-12-31 13:24:06 - INFO --> ======================================================
2015-12-31 13:24:06 - INFO --> ================== Starting process ==================
2015-12-31 13:24:06 - INFO --> ======================================================
2015-12-31 13:24:06 - DEBUG --> Connecting to BigCouch...
2015-12-31 13:24:06 - DEBUG -->  - PUT - Adding account first...
2015-12-31 13:24:06 - DEBUG --> Request coming from 162.216.4.136
2015-12-31 13:24:06 - DEBUG --> Successfully Add account
2015-12-31 13:43:50 - INFO --> ======================================================
2015-12-31 13:43:50 - INFO --> ================== Starting process ==================
2015-12-31 13:43:50 - INFO --> ======================================================
2015-12-31 13:43:50 - DEBUG --> Connecting to BigCouch...
2015-12-31 13:43:50 - DEBUG -->  - GET - retrieve account doc 6ea150a170f33740b7811c877fb73bdf
2015-12-31 13:43:50 - DEBUG --> Request coming from 162.216.4.136
2015-12-31 13:43:50 - DEBUG --> No account with this id - EXIT
2015-12-31 13:43:50 - INFO --> ======================================================
2015-12-31 13:43:50 - INFO --> ================== Starting process ==================
2015-12-31 13:43:50 - INFO --> ======================================================
2015-12-31 13:43:50 - DEBUG --> Connecting to BigCouch...
2015-12-31 13:43:50 - DEBUG -->  - PUT - Adding account first...
2015-12-31 13:43:50 - DEBUG --> Request coming from 162.216.4.136
2015-12-31 13:43:50 - DEBUG --> Successfully Add account
2015-12-31 13:50:27 - INFO --> ======================================================
2015-12-31 13:50:27 - INFO --> ================== Starting process ==================
2015-12-31 13:50:27 - INFO --> ======================================================
2015-12-31 13:50:27 - DEBUG --> Connecting to BigCouch...
2015-12-31 13:50:27 - DEBUG -->  - GET - retrieve account doc 6ea150a170f33740b7811c877fb73bdf
2015-12-31 13:50:27 - DEBUG --> Request coming from 162.216.4.136
2015-12-31 13:50:27 - INFO --> ======================================================
2015-12-31 13:50:27 - INFO --> ================== Starting process ==================
2015-12-31 13:50:27 - INFO --> ======================================================
2015-12-31 13:50:27 - DEBUG --> Connecting to BigCouch...
2015-12-31 13:50:27 - DEBUG -->  - GET - retrieve account doc 6ea150a170f33740b7811c877fb73bdf
2015-12-31 13:50:27 - DEBUG --> Request coming from 162.216.4.136
2015-12-31 13:50:27 - INFO --> ======================================================
2015-12-31 13:50:27 - INFO --> ================== Starting process ==================
2015-12-31 13:50:27 - INFO --> ======================================================
2015-12-31 13:50:27 - DEBUG --> Connecting to BigCouch...
2015-12-31 13:50:27 - DEBUG -->  - GET - retrieve account doc 6ea150a170f33740b7811c877fb73bdf
2015-12-31 13:50:27 - DEBUG --> Request coming from 162.216.4.136
2015-12-31 13:50:27 - INFO --> ======================================================
2015-12-31 13:50:27 - INFO --> ================== Starting process ==================
2015-12-31 13:50:27 - INFO --> ======================================================
2015-12-31 13:50:27 - DEBUG --> Connecting to BigCouch...
2015-12-31 13:50:27 - DEBUG -->  - GET - retrieve account doc 6ea150a170f33740b7811c877fb73bdf
2015-12-31 13:50:27 - DEBUG --> Request coming from 162.216.4.136
2015-12-31 13:50:27 - INFO --> ======================================================
2015-12-31 13:50:27 - INFO --> ================== Starting process ==================
2015-12-31 13:50:27 - INFO --> ======================================================
2015-12-31 13:50:27 - DEBUG --> Connecting to BigCouch...
2015-12-31 13:50:27 - DEBUG -->  - GET - retrieve account doc 6ea150a170f33740b7811c877fb73bdf
2015-12-31 13:50:27 - DEBUG --> Request coming from 162.216.4.136
2015-12-31 13:50:27 - INFO --> ======================================================
2015-12-31 13:50:27 - INFO --> ================== Starting process ==================
2015-12-31 13:50:27 - INFO --> ======================================================
2015-12-31 13:50:27 - INFO --> ======================================================
2015-12-31 13:50:27 - INFO --> ================== Starting process ==================
2015-12-31 13:50:27 - INFO --> ======================================================
2015-12-31 13:50:27 - DEBUG --> Connecting to BigCouch...
2015-12-31 13:50:27 - DEBUG -->  - GET - retrieve account doc 6ea150a170f33740b7811c877fb73bdf
2015-12-31 13:50:27 - DEBUG --> Request coming from 162.216.4.136
2015-12-31 13:50:27 - DEBUG --> Connecting to BigCouch...
2015-12-31 13:50:27 - DEBUG -->  - GET - retrieve account doc 6ea150a170f33740b7811c877fb73bdf
2015-12-31 13:50:27 - DEBUG --> Request coming from 162.216.4.136
2015-12-31 13:50:27 - INFO --> ======================================================
2015-12-31 13:50:27 - INFO --> ================== Starting process ==================
2015-12-31 13:50:27 - INFO --> ======================================================
2015-12-31 13:50:27 - DEBUG --> Connecting to BigCouch...
2015-12-31 13:50:27 - INFO --> ======================================================
2015-12-31 13:50:27 - INFO --> ================== Starting process ==================
2015-12-31 13:50:27 - INFO --> ======================================================
2015-12-31 13:50:27 - DEBUG --> Connecting to BigCouch...
2015-12-31 13:50:27 - DEBUG -->  - GET - retrieve account doc 6ea150a170f33740b7811c877fb73bdf
2015-12-31 13:50:27 - DEBUG --> Request coming from 162.216.4.136
2015-12-31 13:50:27 - DEBUG -->  - GET - retrieve account doc 6ea150a170f33740b7811c877fb73bdf
2015-12-31 13:50:27 - DEBUG --> Request coming from 162.216.4.136
2015-12-31 13:50:27 - INFO --> ======================================================
2015-12-31 13:50:27 - INFO --> ================== Starting process ==================
2015-12-31 13:50:27 - INFO --> ======================================================
2015-12-31 13:50:27 - DEBUG --> Connecting to BigCouch...
2015-12-31 13:50:27 - DEBUG -->  - GET - retrieve account doc 6ea150a170f33740b7811c877fb73bdf
2015-12-31 13:50:27 - DEBUG --> Request coming from 162.216.4.136
2015-12-31 13:50:27 - INFO --> ======================================================
2015-12-31 13:50:27 - INFO --> ================== Starting process ==================
2015-12-31 13:50:27 - INFO --> ======================================================
2015-12-31 13:50:27 - DEBUG --> Connecting to BigCouch...
2015-12-31 13:50:27 - DEBUG -->  - GET - retrieve account doc 6ea150a170f33740b7811c877fb73bdf
2015-12-31 13:50:27 - DEBUG --> Request coming from 162.216.4.136
2015-12-31 13:50:27 - INFO --> ======================================================
2015-12-31 13:50:27 - INFO --> ================== Starting process ==================
2015-12-31 13:50:27 - INFO --> ======================================================
2015-12-31 13:50:27 - DEBUG --> Connecting to BigCouch...
2015-12-31 13:50:27 - DEBUG -->  - GET - retrieve account doc 6ea150a170f33740b7811c877fb73bdf
2015-12-31 13:50:27 - DEBUG --> Request coming from 162.216.4.136
2015-12-31 13:50:27 - INFO --> ======================================================
2015-12-31 13:50:27 - INFO --> ================== Starting process ==================
2015-12-31 13:50:27 - INFO --> ======================================================
2015-12-31 13:50:27 - DEBUG --> Connecting to BigCouch...
2015-12-31 13:50:27 - DEBUG -->  - GET - retrieve account doc 6ea150a170f33740b7811c877fb73bdf
2015-12-31 13:50:27 - DEBUG --> Request coming from 162.216.4.136
2015-12-31 13:50:27 - INFO --> ======================================================
2015-12-31 13:50:27 - INFO --> ================== Starting process ==================
2015-12-31 13:50:27 - INFO --> ======================================================
2015-12-31 13:50:27 - DEBUG --> Connecting to BigCouch...
2015-12-31 13:50:27 - DEBUG -->  - POST - edit account doc 6ea150a170f33740b7811c877fb73bdf
2015-12-31 13:50:27 - DEBUG --> Request coming from 162.216.4.136
2015-12-31 13:50:27 - INFO --> ======================================================
2015-12-31 13:50:27 - INFO --> ================== Starting process ==================
2015-12-31 13:50:27 - INFO --> ======================================================
2015-12-31 13:50:27 - DEBUG --> Connecting to BigCouch...
2015-12-31 13:50:27 - DEBUG -->  - GET - retrieve account doc 6ea150a170f33740b7811c877fb73bdf
2015-12-31 13:50:27 - DEBUG --> Request coming from 162.216.4.136
2015-12-31 13:50:27 - INFO --> ======================================================
2015-12-31 13:50:27 - INFO --> ================== Starting process ==================
2015-12-31 13:50:27 - INFO --> ======================================================
2015-12-31 13:50:27 - DEBUG --> Connecting to BigCouch...
2015-12-31 13:50:27 - DEBUG -->  - POST - edit account doc 6ea150a170f33740b7811c877fb73bdf
2015-12-31 13:50:27 - DEBUG --> Request coming from 162.216.4.136
2015-12-31 13:50:27 - INFO --> ======================================================
2015-12-31 13:50:27 - INFO --> ================== Starting process ==================
2015-12-31 13:50:27 - INFO --> ======================================================
2015-12-31 13:50:27 - DEBUG --> Connecting to BigCouch...
2015-12-31 13:50:27 - DEBUG -->  - POST - edit account doc 6ea150a170f33740b7811c877fb73bdf
2015-12-31 13:50:27 - DEBUG --> Request coming from 162.216.4.136
2015-12-31 13:50:27 - DEBUG --> Could not save key:provider_id - EXIT
2015-12-31 13:50:27 - INFO --> ======================================================
2015-12-31 13:50:27 - INFO --> ================== Starting process ==================
2015-12-31 13:50:27 - INFO --> ======================================================
2015-12-31 13:50:27 - DEBUG --> Connecting to BigCouch...
2015-12-31 13:50:27 - DEBUG -->  - POST - edit account doc 6ea150a170f33740b7811c877fb73bdf
2015-12-31 13:50:27 - DEBUG --> Request coming from 162.216.4.136
2015-12-31 13:50:27 - INFO --> ======================================================
2015-12-31 13:50:27 - INFO --> ================== Starting process ==================
2015-12-31 13:50:27 - INFO --> ======================================================
2015-12-31 13:50:27 - DEBUG --> Connecting to BigCouch...
2015-12-31 13:50:27 - DEBUG -->  - GET - retrieve account doc 6ea150a170f33740b7811c877fb73bdf
2015-12-31 13:50:27 - DEBUG --> Request coming from 162.216.4.136
2015-12-31 13:50:27 - INFO --> ======================================================
2015-12-31 13:50:27 - INFO --> ================== Starting process ==================
2015-12-31 13:50:27 - INFO --> ======================================================
2015-12-31 13:50:28 - DEBUG --> Connecting to BigCouch...
2015-12-31 13:50:28 - DEBUG -->  - POST - edit account doc 6ea150a170f33740b7811c877fb73bdf
2015-12-31 13:50:28 - DEBUG --> Request coming from 162.216.4.136
2015-12-31 13:50:28 - DEBUG --> Could not save key:provider_id - EXIT
2015-12-31 13:50:28 - INFO --> ======================================================
2015-12-31 13:50:28 - INFO --> ================== Starting process ==================
2015-12-31 13:50:28 - INFO --> ======================================================
2015-12-31 13:50:28 - DEBUG --> Connecting to BigCouch...
2015-12-31 13:50:28 - DEBUG -->  - POST - edit account doc 6ea150a170f33740b7811c877fb73bdf
2015-12-31 13:50:28 - DEBUG --> Request coming from 162.216.4.136
2015-12-31 13:50:28 - INFO --> ======================================================
2015-12-31 13:50:28 - INFO --> ================== Starting process ==================
2015-12-31 13:50:28 - INFO --> ======================================================
2015-12-31 13:50:28 - DEBUG --> Connecting to BigCouch...
2015-12-31 13:50:28 - DEBUG -->  - POST - edit account doc 6ea150a170f33740b7811c877fb73bdf
2015-12-31 13:50:28 - DEBUG --> Request coming from 162.216.4.136
2015-12-31 13:50:28 - INFO --> ======================================================
2015-12-31 13:50:28 - INFO --> ================== Starting process ==================
2015-12-31 13:50:28 - INFO --> ======================================================
2015-12-31 13:50:28 - DEBUG --> Connecting to BigCouch...
2015-12-31 13:50:28 - DEBUG -->  - POST - edit account doc 6ea150a170f33740b7811c877fb73bdf
2015-12-31 13:50:28 - DEBUG --> Request coming from 162.216.4.136
2015-12-31 13:50:28 - INFO --> ======================================================
2015-12-31 13:50:28 - INFO --> ================== Starting process ==================
2015-12-31 13:50:28 - INFO --> ======================================================
2015-12-31 13:50:28 - DEBUG --> Connecting to BigCouch...
2015-12-31 13:50:28 - DEBUG -->  - POST - edit account doc 6ea150a170f33740b7811c877fb73bdf
2015-12-31 13:50:28 - DEBUG --> Request coming from 162.216.4.136
2015-12-31 13:50:28 - DEBUG --> Could not save key:provider_id - EXIT
2015-12-31 13:50:28 - DEBUG --> Could not save key:provider_id - EXIT
2015-12-31 13:50:28 - DEBUG --> Could not save key:provider_id - EXIT
2015-12-31 13:50:28 - DEBUG --> Could not save key:provider_id - EXIT
2015-12-31 13:50:28 - INFO --> ======================================================
2015-12-31 13:50:28 - INFO --> ================== Starting process ==================
2015-12-31 13:50:28 - INFO --> ======================================================
2015-12-31 13:50:28 - DEBUG --> Connecting to BigCouch...
2015-12-31 13:50:28 - DEBUG -->  - POST - edit account doc 6ea150a170f33740b7811c877fb73bdf
2015-12-31 13:50:28 - DEBUG --> Request coming from 162.216.4.136
2015-12-31 13:50:28 - DEBUG --> Could not save key:name - EXIT
2015-12-31 13:50:28 - INFO --> ======================================================
2015-12-31 13:50:28 - INFO --> ================== Starting process ==================
2015-12-31 13:50:28 - INFO --> ======================================================
2015-12-31 13:50:28 - DEBUG --> Connecting to BigCouch...
2015-12-31 13:50:28 - DEBUG -->  - POST - edit account doc 6ea150a170f33740b7811c877fb73bdf
2015-12-31 13:50:28 - DEBUG --> Request coming from 162.216.4.136
2015-12-31 13:50:28 - INFO --> ======================================================
2015-12-31 13:50:28 - INFO --> ================== Starting process ==================
2015-12-31 13:50:28 - INFO --> ======================================================
2015-12-31 13:50:28 - DEBUG --> Connecting to BigCouch...
2015-12-31 13:50:28 - DEBUG -->  - POST - edit account doc 6ea150a170f33740b7811c877fb73bdf
2015-12-31 13:50:28 - DEBUG --> Request coming from 162.216.4.136
2015-12-31 13:50:28 - DEBUG --> Could not save key:provider_id - EXIT
2015-12-31 13:50:28 - DEBUG --> Could not save key:name - EXIT
2015-12-31 13:51:24 - INFO --> ======================================================
2015-12-31 13:51:24 - INFO --> ================== Starting process ==================
2015-12-31 13:51:24 - INFO --> ======================================================
2015-12-31 13:51:24 - DEBUG --> Connecting to BigCouch...
2015-12-31 13:51:24 - DEBUG -->  - GET - retrieve account doc 6ea150a170f33740b7811c877fb73bdf
2015-12-31 13:51:24 - DEBUG --> Request coming from 162.216.4.136
2015-12-31 13:51:24 - INFO --> ======================================================
2015-12-31 13:51:24 - INFO --> ================== Starting process ==================
2015-12-31 13:51:24 - INFO --> ======================================================
2015-12-31 13:51:24 - DEBUG --> Connecting to BigCouch...
2015-12-31 13:51:24 - DEBUG -->  - POST - edit account doc 6ea150a170f33740b7811c877fb73bdf
2015-12-31 13:51:24 - DEBUG --> Request coming from 162.216.4.136
2015-12-31 13:51:33 - INFO --> ======================================================
2015-12-31 13:51:33 - INFO --> ================== Starting process ==================
2015-12-31 13:51:33 - INFO --> ======================================================
2015-12-31 13:51:33 - DEBUG --> Connecting to BigCouch...
2015-12-31 13:51:33 - DEBUG -->  - GET - retrieve account doc 6ea150a170f33740b7811c877fb73bdf
2015-12-31 13:51:33 - DEBUG --> Request coming from 162.216.4.136
2015-12-31 13:51:33 - INFO --> ======================================================
2015-12-31 13:51:33 - INFO --> ================== Starting process ==================
2015-12-31 13:51:33 - INFO --> ======================================================
2015-12-31 13:51:33 - DEBUG --> Connecting to BigCouch...
2015-12-31 13:51:33 - DEBUG -->  - POST - edit account doc 6ea150a170f33740b7811c877fb73bdf
2015-12-31 13:51:33 - DEBUG --> Request coming from 162.216.4.136
2015-12-31 13:54:52 - INFO --> ======================================================
2015-12-31 13:54:52 - INFO --> ================== Starting process ==================
2015-12-31 13:54:52 - INFO --> ======================================================
2015-12-31 13:54:52 - DEBUG --> Connecting to BigCouch...
2015-12-31 13:54:52 - DEBUG -->  - GET - retrieve account doc e555650387113f5eecb92cfd7cfc00e2
2015-12-31 13:54:52 - DEBUG --> Request coming from 162.216.4.136
2015-12-31 13:54:53 - DEBUG --> No account with this id - EXIT
2015-12-31 13:54:53 - INFO --> ======================================================
2015-12-31 13:54:53 - INFO --> ================== Starting process ==================
2015-12-31 13:54:53 - INFO --> ======================================================
2015-12-31 13:54:53 - DEBUG --> Connecting to BigCouch...
2015-12-31 13:54:53 - DEBUG -->  - PUT - Adding account first...
2015-12-31 13:54:53 - DEBUG --> Request coming from 162.216.4.136
2015-12-31 13:54:53 - DEBUG --> Successfully Add account
2015-12-31 13:55:33 - INFO --> ======================================================
2015-12-31 13:55:33 - INFO --> ================== Starting process ==================
2015-12-31 13:55:33 - INFO --> ======================================================
2015-12-31 13:55:33 - DEBUG --> Connecting to BigCouch...
2015-12-31 13:55:33 - DEBUG -->  - GET - retrieve account doc e555650387113f5eecb92cfd7cfc00e2
2015-12-31 13:55:33 - DEBUG --> Request coming from 162.216.4.136
2015-12-31 13:55:33 - INFO --> ======================================================
2015-12-31 13:55:33 - INFO --> ================== Starting process ==================
2015-12-31 13:55:33 - INFO --> ======================================================
2015-12-31 13:55:33 - DEBUG --> Connecting to BigCouch...
2015-12-31 13:55:33 - DEBUG -->  - GET - retrieve account doc e555650387113f5eecb92cfd7cfc00e2
2015-12-31 13:55:33 - DEBUG --> Request coming from 162.216.4.136
2015-12-31 13:55:33 - INFO --> ======================================================
2015-12-31 13:55:33 - INFO --> ================== Starting process ==================
2015-12-31 13:55:33 - INFO --> ======================================================
2015-12-31 13:55:33 - DEBUG --> Connecting to BigCouch...
2015-12-31 13:55:33 - DEBUG -->  - GET - retrieve account doc e555650387113f5eecb92cfd7cfc00e2
2015-12-31 13:55:33 - DEBUG --> Request coming from 162.216.4.136
2015-12-31 13:55:34 - INFO --> ======================================================
2015-12-31 13:55:34 - INFO --> ================== Starting process ==================
2015-12-31 13:55:34 - INFO --> ======================================================
2015-12-31 13:55:34 - DEBUG --> Connecting to BigCouch...
2015-12-31 13:55:34 - DEBUG -->  - GET - retrieve account doc e555650387113f5eecb92cfd7cfc00e2
2015-12-31 13:55:34 - DEBUG --> Request coming from 162.216.4.136
2015-12-31 13:55:34 - INFO --> ======================================================
2015-12-31 13:55:34 - INFO --> ================== Starting process ==================
2015-12-31 13:55:34 - INFO --> ======================================================
2015-12-31 13:55:34 - DEBUG --> Connecting to BigCouch...
2015-12-31 13:55:34 - DEBUG -->  - GET - retrieve account doc e555650387113f5eecb92cfd7cfc00e2
2015-12-31 13:55:34 - DEBUG --> Request coming from 162.216.4.136
2015-12-31 13:55:34 - INFO --> ======================================================
2015-12-31 13:55:34 - INFO --> ================== Starting process ==================
2015-12-31 13:55:34 - INFO --> ======================================================
2015-12-31 13:55:34 - DEBUG --> Connecting to BigCouch...
2015-12-31 13:55:34 - DEBUG -->  - GET - retrieve account doc e555650387113f5eecb92cfd7cfc00e2
2015-12-31 13:55:34 - DEBUG --> Request coming from 162.216.4.136
2015-12-31 13:55:34 - INFO --> ======================================================
2015-12-31 13:55:34 - INFO --> ================== Starting process ==================
2015-12-31 13:55:34 - INFO --> ======================================================
2015-12-31 13:55:34 - DEBUG --> Connecting to BigCouch...
2015-12-31 13:55:34 - DEBUG -->  - GET - retrieve account doc e555650387113f5eecb92cfd7cfc00e2
2015-12-31 13:55:34 - DEBUG --> Request coming from 162.216.4.136
2015-12-31 13:55:34 - INFO --> ======================================================
2015-12-31 13:55:34 - INFO --> ================== Starting process ==================
2015-12-31 13:55:34 - INFO --> ======================================================
2015-12-31 13:55:34 - DEBUG --> Connecting to BigCouch...
2015-12-31 13:55:34 - DEBUG -->  - GET - retrieve account doc e555650387113f5eecb92cfd7cfc00e2
2015-12-31 13:55:34 - DEBUG --> Request coming from 162.216.4.136
2015-12-31 13:55:34 - INFO --> ======================================================
2015-12-31 13:55:34 - INFO --> ================== Starting process ==================
2015-12-31 13:55:34 - INFO --> ======================================================
2015-12-31 13:55:34 - DEBUG --> Connecting to BigCouch...
2015-12-31 13:55:34 - DEBUG -->  - GET - retrieve account doc e555650387113f5eecb92cfd7cfc00e2
2015-12-31 13:55:34 - DEBUG --> Request coming from 162.216.4.136
2015-12-31 13:55:34 - INFO --> ======================================================
2015-12-31 13:55:34 - INFO --> ================== Starting process ==================
2015-12-31 13:55:34 - INFO --> ======================================================
2015-12-31 13:55:34 - DEBUG --> Connecting to BigCouch...
2015-12-31 13:55:34 - DEBUG -->  - GET - retrieve account doc e555650387113f5eecb92cfd7cfc00e2
2015-12-31 13:55:34 - DEBUG --> Request coming from 162.216.4.136
2015-12-31 13:55:34 - INFO --> ======================================================
2015-12-31 13:55:34 - INFO --> ================== Starting process ==================
2015-12-31 13:55:34 - INFO --> ======================================================
2015-12-31 13:55:34 - DEBUG --> Connecting to BigCouch...
2015-12-31 13:55:34 - DEBUG -->  - GET - retrieve account doc e555650387113f5eecb92cfd7cfc00e2
2015-12-31 13:55:34 - DEBUG --> Request coming from 162.216.4.136
2015-12-31 13:55:34 - INFO --> ======================================================
2015-12-31 13:55:34 - INFO --> ================== Starting process ==================
2015-12-31 13:55:34 - INFO --> ======================================================
2015-12-31 13:55:34 - DEBUG --> Connecting to BigCouch...
2015-12-31 13:55:34 - DEBUG -->  - POST - edit account doc e555650387113f5eecb92cfd7cfc00e2
2015-12-31 13:55:34 - DEBUG --> Request coming from 162.216.4.136
2015-12-31 13:55:34 - INFO --> ======================================================
2015-12-31 13:55:34 - INFO --> ================== Starting process ==================
2015-12-31 13:55:34 - INFO --> ======================================================
2015-12-31 13:55:34 - DEBUG --> Connecting to BigCouch...
2015-12-31 13:55:34 - DEBUG -->  - POST - edit account doc e555650387113f5eecb92cfd7cfc00e2
2015-12-31 13:55:34 - DEBUG --> Request coming from 162.216.4.136
2015-12-31 13:55:34 - DEBUG --> Could not save key:provider_id - EXIT
2015-12-31 13:55:34 - INFO --> ======================================================
2015-12-31 13:55:34 - INFO --> ================== Starting process ==================
2015-12-31 13:55:34 - INFO --> ======================================================
2015-12-31 13:55:34 - DEBUG --> Connecting to BigCouch...
2015-12-31 13:55:34 - DEBUG -->  - GET - retrieve account doc e555650387113f5eecb92cfd7cfc00e2
2015-12-31 13:55:34 - DEBUG --> Request coming from 162.216.4.136
2015-12-31 13:55:34 - INFO --> ======================================================
2015-12-31 13:55:34 - INFO --> ================== Starting process ==================
2015-12-31 13:55:34 - INFO --> ======================================================
2015-12-31 13:55:34 - DEBUG --> Connecting to BigCouch...
2015-12-31 13:55:34 - DEBUG -->  - POST - edit account doc e555650387113f5eecb92cfd7cfc00e2
2015-12-31 13:55:34 - DEBUG --> Request coming from 162.216.4.136
2015-12-31 13:55:34 - INFO --> ======================================================
2015-12-31 13:55:34 - INFO --> ================== Starting process ==================
2015-12-31 13:55:34 - INFO --> ======================================================
2015-12-31 13:55:34 - DEBUG --> Connecting to BigCouch...
2015-12-31 13:55:34 - DEBUG -->  - POST - edit account doc e555650387113f5eecb92cfd7cfc00e2
2015-12-31 13:55:34 - DEBUG --> Request coming from 162.216.4.136
2015-12-31 13:55:34 - INFO --> ======================================================
2015-12-31 13:55:34 - INFO --> ================== Starting process ==================
2015-12-31 13:55:34 - INFO --> ======================================================
2015-12-31 13:55:34 - DEBUG --> Connecting to BigCouch...
2015-12-31 13:55:34 - DEBUG -->  - POST - edit account doc e555650387113f5eecb92cfd7cfc00e2
2015-12-31 13:55:34 - DEBUG --> Request coming from 162.216.4.136
2015-12-31 13:55:34 - INFO --> ======================================================
2015-12-31 13:55:34 - INFO --> ================== Starting process ==================
2015-12-31 13:55:34 - INFO --> ======================================================
2015-12-31 13:55:34 - DEBUG --> Connecting to BigCouch...
2015-12-31 13:55:34 - DEBUG -->  - POST - edit account doc e555650387113f5eecb92cfd7cfc00e2
2015-12-31 13:55:34 - DEBUG --> Request coming from 162.216.4.136
2015-12-31 13:55:34 - INFO --> ======================================================
2015-12-31 13:55:34 - INFO --> ================== Starting process ==================
2015-12-31 13:55:34 - INFO --> ======================================================
2015-12-31 13:55:34 - DEBUG --> Connecting to BigCouch...
2015-12-31 13:55:34 - DEBUG -->  - GET - retrieve account doc e555650387113f5eecb92cfd7cfc00e2
2015-12-31 13:55:34 - DEBUG --> Request coming from 162.216.4.136
2015-12-31 13:55:34 - INFO --> ======================================================
2015-12-31 13:55:34 - INFO --> ================== Starting process ==================
2015-12-31 13:55:34 - INFO --> ======================================================
2015-12-31 13:55:34 - DEBUG --> Connecting to BigCouch...
2015-12-31 13:55:34 - DEBUG -->  - GET - retrieve account doc e555650387113f5eecb92cfd7cfc00e2
2015-12-31 13:55:34 - DEBUG --> Request coming from 162.216.4.136
2015-12-31 13:55:34 - DEBUG --> Could not save key:provider_id - EXIT
2015-12-31 13:55:34 - DEBUG --> Could not save key:provider_id - EXIT
2015-12-31 13:55:34 - INFO --> ======================================================
2015-12-31 13:55:34 - DEBUG --> Could not save key:provider_id - EXIT
2015-12-31 13:55:34 - INFO --> ================== Starting process ==================
2015-12-31 13:55:34 - INFO --> ======================================================
2015-12-31 13:55:34 - DEBUG --> Connecting to BigCouch...
2015-12-31 13:55:34 - DEBUG -->  - POST - edit account doc e555650387113f5eecb92cfd7cfc00e2
2015-12-31 13:55:34 - DEBUG --> Request coming from 162.216.4.136
2015-12-31 13:55:34 - DEBUG --> Could not save key:provider_id - EXIT
2015-12-31 13:55:34 - INFO --> ======================================================
2015-12-31 13:55:34 - INFO --> ================== Starting process ==================
2015-12-31 13:55:34 - INFO --> ======================================================
2015-12-31 13:55:34 - DEBUG --> Connecting to BigCouch...
2015-12-31 13:55:34 - DEBUG -->  - POST - edit account doc e555650387113f5eecb92cfd7cfc00e2
2015-12-31 13:55:34 - DEBUG --> Request coming from 162.216.4.136
2015-12-31 13:55:34 - INFO --> ======================================================
2015-12-31 13:55:34 - INFO --> ================== Starting process ==================
2015-12-31 13:55:34 - INFO --> ======================================================
2015-12-31 13:55:34 - DEBUG --> Connecting to BigCouch...
2015-12-31 13:55:34 - DEBUG -->  - POST - edit account doc e555650387113f5eecb92cfd7cfc00e2
2015-12-31 13:55:34 - DEBUG --> Request coming from 162.216.4.136
2015-12-31 13:55:35 - DEBUG --> Could not save key:settings - EXIT
2015-12-31 13:55:35 - INFO --> ======================================================
2015-12-31 13:55:35 - INFO --> ================== Starting process ==================
2015-12-31 13:55:35 - INFO --> ======================================================
2015-12-31 13:55:35 - DEBUG --> Connecting to BigCouch...
2015-12-31 13:55:35 - DEBUG -->  - POST - edit account doc e555650387113f5eecb92cfd7cfc00e2
2015-12-31 13:55:35 - DEBUG --> Request coming from 162.216.4.136
2015-12-31 13:55:35 - INFO --> ======================================================
2015-12-31 13:55:35 - INFO --> ================== Starting process ==================
2015-12-31 13:55:35 - INFO --> ======================================================
2015-12-31 13:55:35 - DEBUG --> Connecting to BigCouch...
2015-12-31 13:55:35 - DEBUG -->  - POST - edit account doc e555650387113f5eecb92cfd7cfc00e2
2015-12-31 13:55:35 - DEBUG --> Request coming from 162.216.4.136
2015-12-31 13:55:35 - DEBUG --> Could not save key:provider_id - EXIT
2015-12-31 13:55:35 - DEBUG --> Could not save key:provider_id - EXIT
2015-12-31 13:59:23 - INFO --> ======================================================
2015-12-31 13:59:23 - INFO --> ================== Starting process ==================
2015-12-31 13:59:23 - INFO --> ======================================================
2015-12-31 13:59:23 - DEBUG --> Connecting to BigCouch...
2015-12-31 13:59:23 - DEBUG -->  - GET - retrieve account doc 477ca56f538cc89620ccf911e4bc234a
2015-12-31 13:59:23 - DEBUG --> Request coming from 162.216.4.136
2015-12-31 13:59:23 - INFO --> ======================================================
2015-12-31 13:59:23 - INFO --> ================== Starting process ==================
2015-12-31 13:59:23 - INFO --> ======================================================
2015-12-31 13:59:23 - DEBUG --> Connecting to BigCouch...
2015-12-31 13:59:23 - DEBUG -->  - POST - edit account doc 477ca56f538cc89620ccf911e4bc234a
2015-12-31 13:59:23 - DEBUG --> Request coming from 162.216.4.136
2015-12-31 14:03:21 - INFO --> ======================================================
2015-12-31 14:03:21 - INFO --> ================== Starting process ==================
2015-12-31 14:03:21 - INFO --> ======================================================
2015-12-31 14:03:21 - DEBUG --> Connecting to BigCouch...
2015-12-31 14:03:21 - DEBUG -->  - GET - retrieve account doc e555650387113f5eecb92cfd7cfc00e2
2015-12-31 14:03:21 - DEBUG --> Request coming from 162.216.4.136
2015-12-31 14:03:22 - INFO --> ======================================================
2015-12-31 14:03:22 - INFO --> ================== Starting process ==================
2015-12-31 14:03:22 - INFO --> ======================================================
2015-12-31 14:03:22 - DEBUG --> Connecting to BigCouch...
2015-12-31 14:03:22 - DEBUG -->  - POST - edit account doc e555650387113f5eecb92cfd7cfc00e2
2015-12-31 14:03:22 - DEBUG --> Request coming from 162.216.4.136
2015-12-31 14:03:30 - INFO --> ======================================================
2015-12-31 14:03:30 - INFO --> ================== Starting process ==================
2015-12-31 14:03:30 - INFO --> ======================================================
2015-12-31 14:03:30 - DEBUG --> Connecting to BigCouch...
2015-12-31 14:03:30 - DEBUG -->  - GET - retrieve account doc e555650387113f5eecb92cfd7cfc00e2
2015-12-31 14:03:30 - DEBUG --> Request coming from 162.216.4.136
2015-12-31 14:03:30 - INFO --> ======================================================
2015-12-31 14:03:30 - INFO --> ================== Starting process ==================
2015-12-31 14:03:30 - INFO --> ======================================================
2015-12-31 14:03:30 - DEBUG --> Connecting to BigCouch...
2015-12-31 14:03:30 - DEBUG -->  - POST - edit account doc e555650387113f5eecb92cfd7cfc00e2
2015-12-31 14:03:30 - DEBUG --> Request coming from 162.216.4.136
2015-12-31 14:05:25 - INFO --> ======================================================
2015-12-31 14:05:25 - INFO --> ================== Starting process ==================
2015-12-31 14:05:25 - INFO --> ======================================================
2015-12-31 14:05:25 - DEBUG --> Connecting to BigCouch...
2015-12-31 14:05:25 - DEBUG -->  - GET - retrieve account doc e555650387113f5eecb92cfd7cfc00e2
2015-12-31 14:05:25 - DEBUG --> Request coming from 162.216.4.136
2015-12-31 14:05:25 - INFO --> ======================================================
2015-12-31 14:05:25 - INFO --> ================== Starting process ==================
2015-12-31 14:05:25 - INFO --> ======================================================
2015-12-31 14:05:25 - DEBUG --> Connecting to BigCouch...
2015-12-31 14:05:25 - DEBUG -->  - POST - edit account doc e555650387113f5eecb92cfd7cfc00e2
2015-12-31 14:05:25 - DEBUG --> Request coming from 162.216.4.136
2015-12-31 14:14:50 - INFO --> ======================================================
2015-12-31 14:14:50 - INFO --> ================== Starting process ==================
2015-12-31 14:14:50 - INFO --> ======================================================
2015-12-31 14:14:50 - DEBUG --> Connecting to BigCouch...
2015-12-31 14:14:50 - DEBUG -->  - DELETE - Deleting an account (e555650387113f5eecb92cfd7cfc00e2)...
2015-12-31 14:14:50 - DEBUG --> Request coming from 162.216.4.136
2015-12-31 14:14:50 - DEBUG --> Retrieved the device list now deleting them...
2015-12-31 14:14:50 - DEBUG --> All devices for account e555650387113f5eecb92cfd7cfc00e2 deleted, will now delete the account db...
2015-12-31 14:14:50 - DEBUG --> Failed to delete the account (e555650387113f5eecb92cfd7cfc00e2) - EXIT
2015-12-31 14:14:58 - INFO --> ======================================================
2015-12-31 14:14:58 - INFO --> ================== Starting process ==================
2015-12-31 14:14:58 - INFO --> ======================================================
2015-12-31 14:14:58 - DEBUG --> Connecting to BigCouch...
2015-12-31 14:14:58 - DEBUG -->  - DELETE - Deleting an account (6ea150a170f33740b7811c877fb73bdf)...
2015-12-31 14:14:58 - DEBUG --> Request coming from 162.216.4.136
2015-12-31 14:14:58 - DEBUG --> Retrieved the device list now deleting them...
2015-12-31 14:14:58 - DEBUG --> All devices for account 6ea150a170f33740b7811c877fb73bdf deleted, will now delete the account db...
2015-12-31 14:14:58 - DEBUG --> Failed to delete the account (6ea150a170f33740b7811c877fb73bdf) - EXIT
2015-12-31 14:16:13 - INFO --> ======================================================
2015-12-31 14:16:13 - INFO --> ================== Starting process ==================
2015-12-31 14:16:13 - INFO --> ======================================================
2015-12-31 14:16:13 - DEBUG --> Connecting to BigCouch...
2015-12-31 14:16:13 - DEBUG -->  - DELETE - Deleting an account (477ca56f538cc89620ccf911e4bc234a)...
2015-12-31 14:16:13 - DEBUG --> Request coming from 162.216.4.136
2015-12-31 14:16:13 - DEBUG --> Retrieved the device list now deleting them...
2015-12-31 14:16:13 - DEBUG --> All devices for account 477ca56f538cc89620ccf911e4bc234a deleted, will now delete the account db...
2015-12-31 14:16:13 - DEBUG --> Failed to delete the account (477ca56f538cc89620ccf911e4bc234a) - EXIT
2015-12-31 14:16:55 - INFO --> ======================================================
2015-12-31 14:16:55 - INFO --> ================== Starting process ==================
2015-12-31 14:16:55 - INFO --> ======================================================
2015-12-31 14:16:55 - DEBUG --> Connecting to BigCouch...
2015-12-31 14:16:55 - DEBUG -->  - GET - retrieve account doc 49b6c59ba39a006fad2000d08c91d427
2015-12-31 14:16:55 - DEBUG --> Request coming from 162.216.4.136
2015-12-31 14:16:55 - DEBUG --> No account with this id - EXIT
2015-12-31 14:16:55 - INFO --> ======================================================
2015-12-31 14:16:55 - INFO --> ================== Starting process ==================
2015-12-31 14:16:55 - INFO --> ======================================================
2015-12-31 14:16:55 - DEBUG --> Connecting to BigCouch...
2015-12-31 14:16:55 - DEBUG -->  - PUT - Adding account first...
2015-12-31 14:16:55 - DEBUG --> Request coming from 162.216.4.136
2015-12-31 14:16:55 - DEBUG --> Successfully Add account
2015-12-31 14:18:02 - INFO --> ======================================================
2015-12-31 14:18:02 - INFO --> ================== Starting process ==================
2015-12-31 14:18:02 - INFO --> ======================================================
2015-12-31 14:18:02 - DEBUG --> Connecting to BigCouch...
2015-12-31 14:18:02 - DEBUG -->  - GET - retrieve account doc be6ed12c2728360c67eea5ccd3a186f3
2015-12-31 14:18:02 - DEBUG --> Request coming from 162.216.4.136
2015-12-31 14:18:02 - DEBUG --> No account with this id - EXIT
2015-12-31 14:18:02 - INFO --> ======================================================
2015-12-31 14:18:02 - INFO --> ================== Starting process ==================
2015-12-31 14:18:02 - INFO --> ======================================================
2015-12-31 14:18:02 - DEBUG --> Connecting to BigCouch...
2015-12-31 14:18:02 - DEBUG -->  - PUT - Adding account first...
2015-12-31 14:18:02 - DEBUG --> Request coming from 162.216.4.136
2015-12-31 14:18:02 - DEBUG --> Successfully Add account
2015-12-31 14:18:22 - INFO --> ======================================================
2015-12-31 14:18:22 - INFO --> ================== Starting process ==================
2015-12-31 14:18:22 - INFO --> ======================================================
2015-12-31 14:18:22 - DEBUG --> Connecting to BigCouch...
2015-12-31 14:18:22 - DEBUG -->  - GET - retrieve account doc be6ed12c2728360c67eea5ccd3a186f3
2015-12-31 14:18:22 - DEBUG --> Request coming from 162.216.4.136
2015-12-31 14:18:22 - INFO --> ======================================================
2015-12-31 14:18:22 - INFO --> ================== Starting process ==================
2015-12-31 14:18:22 - INFO --> ======================================================
2015-12-31 14:18:22 - DEBUG --> Connecting to BigCouch...
2015-12-31 14:18:22 - DEBUG -->  - GET - retrieve account doc be6ed12c2728360c67eea5ccd3a186f3
2015-12-31 14:18:22 - DEBUG --> Request coming from 162.216.4.136
2015-12-31 14:18:22 - INFO --> ======================================================
2015-12-31 14:18:22 - INFO --> ================== Starting process ==================
2015-12-31 14:18:22 - INFO --> ======================================================
2015-12-31 14:18:22 - INFO --> ======================================================
2015-12-31 14:18:22 - INFO --> ================== Starting process ==================
2015-12-31 14:18:22 - DEBUG --> Connecting to BigCouch...
2015-12-31 14:18:22 - INFO --> ======================================================
2015-12-31 14:18:22 - DEBUG --> Connecting to BigCouch...
2015-12-31 14:18:22 - DEBUG -->  - GET - retrieve account doc be6ed12c2728360c67eea5ccd3a186f3
2015-12-31 14:18:22 - DEBUG -->  - GET - retrieve account doc be6ed12c2728360c67eea5ccd3a186f3
2015-12-31 14:18:22 - DEBUG --> Request coming from 162.216.4.136
2015-12-31 14:18:22 - DEBUG --> Request coming from 162.216.4.136
2015-12-31 14:18:22 - INFO --> ======================================================
2015-12-31 14:18:22 - INFO --> ================== Starting process ==================
2015-12-31 14:18:22 - INFO --> ======================================================
2015-12-31 14:18:22 - DEBUG --> Connecting to BigCouch...
2015-12-31 14:18:22 - DEBUG -->  - GET - retrieve account doc be6ed12c2728360c67eea5ccd3a186f3
2015-12-31 14:18:22 - DEBUG --> Request coming from 162.216.4.136
2015-12-31 14:18:22 - INFO --> ======================================================
2015-12-31 14:18:22 - INFO --> ================== Starting process ==================
2015-12-31 14:18:22 - INFO --> ======================================================
2015-12-31 14:18:22 - DEBUG --> Connecting to BigCouch...
2015-12-31 14:18:22 - DEBUG -->  - GET - retrieve account doc be6ed12c2728360c67eea5ccd3a186f3
2015-12-31 14:18:22 - DEBUG --> Request coming from 162.216.4.136
2015-12-31 14:18:22 - INFO --> ======================================================
2015-12-31 14:18:22 - INFO --> ================== Starting process ==================
2015-12-31 14:18:22 - INFO --> ======================================================
2015-12-31 14:18:22 - DEBUG --> Connecting to BigCouch...
2015-12-31 14:18:22 - DEBUG -->  - GET - retrieve account doc be6ed12c2728360c67eea5ccd3a186f3
2015-12-31 14:18:22 - DEBUG --> Request coming from 162.216.4.136
2015-12-31 14:18:22 - INFO --> ======================================================
2015-12-31 14:18:22 - INFO --> ================== Starting process ==================
2015-12-31 14:18:22 - INFO --> ======================================================
2015-12-31 14:18:22 - DEBUG --> Connecting to BigCouch...
2015-12-31 14:18:22 - DEBUG -->  - GET - retrieve account doc be6ed12c2728360c67eea5ccd3a186f3
2015-12-31 14:18:22 - DEBUG --> Request coming from 162.216.4.136
2015-12-31 14:18:22 - INFO --> ======================================================
2015-12-31 14:18:22 - INFO --> ================== Starting process ==================
2015-12-31 14:18:22 - INFO --> ======================================================
2015-12-31 14:18:22 - DEBUG --> Connecting to BigCouch...
2015-12-31 14:18:22 - DEBUG -->  - GET - retrieve account doc be6ed12c2728360c67eea5ccd3a186f3
2015-12-31 14:18:22 - DEBUG --> Request coming from 162.216.4.136
2015-12-31 14:18:22 - INFO --> ======================================================
2015-12-31 14:18:22 - INFO --> ================== Starting process ==================
2015-12-31 14:18:22 - INFO --> ======================================================
2015-12-31 14:18:22 - DEBUG --> Connecting to BigCouch...
2015-12-31 14:18:22 - DEBUG -->  - POST - edit account doc be6ed12c2728360c67eea5ccd3a186f3
2015-12-31 14:18:22 - DEBUG --> Request coming from 162.216.4.136
2015-12-31 14:18:22 - INFO --> ======================================================
2015-12-31 14:18:22 - INFO --> ================== Starting process ==================
2015-12-31 14:18:22 - INFO --> ======================================================
2015-12-31 14:18:22 - DEBUG --> Connecting to BigCouch...
2015-12-31 14:18:22 - DEBUG -->  - POST - edit account doc be6ed12c2728360c67eea5ccd3a186f3
2015-12-31 14:18:22 - DEBUG --> Request coming from 162.216.4.136
2015-12-31 14:18:22 - INFO --> ======================================================
2015-12-31 14:18:22 - INFO --> ================== Starting process ==================
2015-12-31 14:18:22 - INFO --> ======================================================
2015-12-31 14:18:22 - DEBUG --> Connecting to BigCouch...
2015-12-31 14:18:22 - DEBUG -->  - GET - retrieve account doc be6ed12c2728360c67eea5ccd3a186f3
2015-12-31 14:18:22 - DEBUG --> Request coming from 162.216.4.136
2015-12-31 14:18:22 - INFO --> ======================================================
2015-12-31 14:18:22 - INFO --> ================== Starting process ==================
2015-12-31 14:18:22 - INFO --> ======================================================
2015-12-31 14:18:22 - INFO --> ======================================================
2015-12-31 14:18:22 - INFO --> ================== Starting process ==================
2015-12-31 14:18:22 - DEBUG --> Connecting to BigCouch...
2015-12-31 14:18:22 - INFO --> ======================================================
2015-12-31 14:18:22 - DEBUG --> Connecting to BigCouch...
2015-12-31 14:18:22 - DEBUG -->  - POST - edit account doc be6ed12c2728360c67eea5ccd3a186f3
2015-12-31 14:18:22 - DEBUG --> Request coming from 162.216.4.136
2015-12-31 14:18:22 - DEBUG -->  - POST - edit account doc be6ed12c2728360c67eea5ccd3a186f3
2015-12-31 14:18:22 - DEBUG --> Request coming from 162.216.4.136
2015-12-31 14:18:22 - INFO --> ======================================================
2015-12-31 14:18:22 - INFO --> ================== Starting process ==================
2015-12-31 14:18:22 - INFO --> ======================================================
2015-12-31 14:18:22 - DEBUG --> Connecting to BigCouch...
2015-12-31 14:18:22 - DEBUG -->  - POST - edit account doc be6ed12c2728360c67eea5ccd3a186f3
2015-12-31 14:18:22 - DEBUG --> Request coming from 162.216.4.136
2015-12-31 14:18:22 - INFO --> ======================================================
2015-12-31 14:18:22 - INFO --> ================== Starting process ==================
2015-12-31 14:18:22 - INFO --> ======================================================
2015-12-31 14:18:22 - DEBUG --> Connecting to BigCouch...
2015-12-31 14:18:22 - DEBUG -->  - GET - retrieve account doc be6ed12c2728360c67eea5ccd3a186f3
2015-12-31 14:18:22 - DEBUG --> Request coming from 162.216.4.136
2015-12-31 14:18:22 - DEBUG --> Could not save key:name - EXIT
2015-12-31 14:18:22 - INFO --> ======================================================
2015-12-31 14:18:22 - INFO --> ================== Starting process ==================
2015-12-31 14:18:22 - INFO --> ======================================================
2015-12-31 14:18:22 - DEBUG --> Connecting to BigCouch...
2015-12-31 14:18:22 - DEBUG -->  - GET - retrieve account doc be6ed12c2728360c67eea5ccd3a186f3
2015-12-31 14:18:22 - DEBUG --> Request coming from 162.216.4.136
2015-12-31 14:18:22 - INFO --> ======================================================
2015-12-31 14:18:22 - INFO --> ================== Starting process ==================
2015-12-31 14:18:22 - INFO --> ======================================================
2015-12-31 14:18:22 - DEBUG --> Connecting to BigCouch...
2015-12-31 14:18:22 - DEBUG -->  - GET - retrieve account doc be6ed12c2728360c67eea5ccd3a186f3
2015-12-31 14:18:22 - DEBUG --> Request coming from 162.216.4.136
2015-12-31 14:18:22 - DEBUG --> Could not save key:provider_id - EXIT
2015-12-31 14:18:22 - DEBUG --> Could not save key:provider_id - EXIT
2015-12-31 14:18:22 - DEBUG --> Could not save key:name - EXIT
2015-12-31 14:18:22 - INFO --> ======================================================
2015-12-31 14:18:22 - INFO --> ================== Starting process ==================
2015-12-31 14:18:22 - INFO --> ======================================================
2015-12-31 14:18:22 - DEBUG --> Connecting to BigCouch...
2015-12-31 14:18:22 - DEBUG -->  - GET - retrieve account doc be6ed12c2728360c67eea5ccd3a186f3
2015-12-31 14:18:22 - DEBUG --> Request coming from 162.216.4.136
2015-12-31 14:18:22 - INFO --> ======================================================
2015-12-31 14:18:22 - INFO --> ================== Starting process ==================
2015-12-31 14:18:22 - INFO --> ======================================================
2015-12-31 14:18:22 - DEBUG --> Connecting to BigCouch...
2015-12-31 14:18:22 - DEBUG -->  - POST - edit account doc be6ed12c2728360c67eea5ccd3a186f3
2015-12-31 14:18:22 - DEBUG --> Request coming from 162.216.4.136
2015-12-31 14:18:22 - INFO --> ======================================================
2015-12-31 14:18:22 - INFO --> ================== Starting process ==================
2015-12-31 14:18:22 - INFO --> ======================================================
2015-12-31 14:18:22 - DEBUG --> Connecting to BigCouch...
2015-12-31 14:18:22 - DEBUG -->  - POST - edit account doc be6ed12c2728360c67eea5ccd3a186f3
2015-12-31 14:18:22 - DEBUG --> Request coming from 162.216.4.136
2015-12-31 14:18:23 - INFO --> ======================================================
2015-12-31 14:18:23 - INFO --> ================== Starting process ==================
2015-12-31 14:18:23 - INFO --> ======================================================
2015-12-31 14:18:23 - DEBUG --> Connecting to BigCouch...
2015-12-31 14:18:23 - DEBUG -->  - GET - retrieve account doc be6ed12c2728360c67eea5ccd3a186f3
2015-12-31 14:18:23 - DEBUG --> Request coming from 162.216.4.136
2015-12-31 14:18:23 - DEBUG --> Could not save key:provider_id - EXIT
2015-12-31 14:18:23 - INFO --> ======================================================
2015-12-31 14:18:23 - INFO --> ================== Starting process ==================
2015-12-31 14:18:23 - INFO --> ======================================================
2015-12-31 14:18:23 - DEBUG --> Connecting to BigCouch...
2015-12-31 14:18:23 - DEBUG -->  - POST - edit account doc be6ed12c2728360c67eea5ccd3a186f3
2015-12-31 14:18:23 - DEBUG --> Request coming from 162.216.4.136
2015-12-31 14:18:23 - INFO --> ======================================================
2015-12-31 14:18:23 - INFO --> ================== Starting process ==================
2015-12-31 14:18:23 - INFO --> ======================================================
2015-12-31 14:18:23 - DEBUG --> Connecting to BigCouch...
2015-12-31 14:18:23 - DEBUG -->  - POST - edit account doc be6ed12c2728360c67eea5ccd3a186f3
2015-12-31 14:18:23 - DEBUG --> Request coming from 162.216.4.136
2015-12-31 14:18:23 - INFO --> ======================================================
2015-12-31 14:18:23 - INFO --> ================== Starting process ==================
2015-12-31 14:18:23 - INFO --> ======================================================
2015-12-31 14:18:23 - DEBUG --> Connecting to BigCouch...
2015-12-31 14:18:23 - DEBUG -->  - POST - edit account doc be6ed12c2728360c67eea5ccd3a186f3
2015-12-31 14:18:23 - DEBUG --> Request coming from 162.216.4.136
2015-12-31 14:18:23 - INFO --> ======================================================
2015-12-31 14:18:23 - INFO --> ================== Starting process ==================
2015-12-31 14:18:23 - INFO --> ======================================================
2015-12-31 14:18:23 - DEBUG --> Connecting to BigCouch...
2015-12-31 14:18:23 - DEBUG -->  - POST - edit account doc be6ed12c2728360c67eea5ccd3a186f3
2015-12-31 14:18:23 - DEBUG --> Request coming from 162.216.4.136
2015-12-31 14:18:23 - INFO --> ======================================================
2015-12-31 14:18:23 - INFO --> ================== Starting process ==================
2015-12-31 14:18:23 - INFO --> ======================================================
2015-12-31 14:18:23 - DEBUG --> Connecting to BigCouch...
2015-12-31 14:18:23 - DEBUG -->  - POST - edit account doc be6ed12c2728360c67eea5ccd3a186f3
2015-12-31 14:18:23 - DEBUG --> Request coming from 162.216.4.136
2015-12-31 14:18:23 - DEBUG --> Could not save key:provider_id - EXIT
2015-12-31 14:18:23 - DEBUG --> Could not save key:provider_id - EXIT
2015-12-31 14:18:23 - DEBUG --> Could not save key:settings - EXIT
2015-12-31 14:18:23 - DEBUG --> Could not save key:name - EXIT
2015-12-31 14:18:23 - DEBUG --> Could not save key:name - EXIT
2015-12-31 14:18:23 - INFO --> ======================================================
2015-12-31 14:18:23 - INFO --> ================== Starting process ==================
2015-12-31 14:18:23 - INFO --> ======================================================
2015-12-31 14:18:23 - DEBUG --> Connecting to BigCouch...
2015-12-31 14:18:23 - DEBUG -->  - POST - edit account doc be6ed12c2728360c67eea5ccd3a186f3
2015-12-31 14:18:23 - DEBUG --> Request coming from 162.216.4.136
2015-12-31 14:18:23 - DEBUG --> Could not save key:name - EXIT
2015-12-31 14:19:22 - INFO --> ======================================================
2015-12-31 14:19:22 - INFO --> ================== Starting process ==================
2015-12-31 14:19:22 - INFO --> ======================================================
2015-12-31 14:19:22 - DEBUG --> Connecting to BigCouch...
2015-12-31 14:19:22 - DEBUG -->  - GET - retrieve account doc be6ed12c2728360c67eea5ccd3a186f3
2015-12-31 14:19:22 - DEBUG --> Request coming from 162.216.4.136
2015-12-31 14:19:22 - INFO --> ======================================================
2015-12-31 14:19:22 - INFO --> ================== Starting process ==================
2015-12-31 14:19:22 - INFO --> ======================================================
2015-12-31 14:19:22 - DEBUG --> Connecting to BigCouch...
2015-12-31 14:19:22 - DEBUG -->  - POST - edit account doc be6ed12c2728360c67eea5ccd3a186f3
2015-12-31 14:19:22 - DEBUG --> Request coming from 162.216.4.136
2015-12-31 14:24:50 - INFO --> ======================================================
2015-12-31 14:24:50 - INFO --> ================== Starting process ==================
2015-12-31 14:24:50 - INFO --> ======================================================
2015-12-31 14:24:50 - DEBUG --> Connecting to BigCouch...
2015-12-31 14:24:50 - DEBUG -->  - GET - retrieve account doc be6ed12c2728360c67eea5ccd3a186f3
2015-12-31 14:24:50 - DEBUG --> Request coming from 162.216.4.136
2015-12-31 14:24:50 - INFO --> ======================================================
2015-12-31 14:24:50 - INFO --> ================== Starting process ==================
2015-12-31 14:24:50 - INFO --> ======================================================
2015-12-31 14:24:50 - DEBUG --> Connecting to BigCouch...
2015-12-31 14:24:50 - DEBUG -->  - POST - edit account doc be6ed12c2728360c67eea5ccd3a186f3
2015-12-31 14:24:50 - DEBUG --> Request coming from 162.216.4.136
2015-12-31 14:24:57 - INFO --> ======================================================
2015-12-31 14:24:57 - INFO --> ================== Starting process ==================
2015-12-31 14:24:57 - INFO --> ======================================================
2015-12-31 14:24:57 - DEBUG --> Connecting to BigCouch...
2015-12-31 14:24:57 - DEBUG -->  - GET - retrieve account doc be6ed12c2728360c67eea5ccd3a186f3
2015-12-31 14:24:57 - DEBUG --> Request coming from 162.216.4.136
2015-12-31 14:24:57 - INFO --> ======================================================
2015-12-31 14:24:57 - INFO --> ================== Starting process ==================
2015-12-31 14:24:57 - INFO --> ======================================================
2015-12-31 14:24:57 - DEBUG --> Connecting to BigCouch...
2015-12-31 14:24:57 - DEBUG -->  - POST - edit account doc be6ed12c2728360c67eea5ccd3a186f3
2015-12-31 14:24:57 - DEBUG --> Request coming from 162.216.4.136
