2015-10-08 13:23:17 - INFO --> ======================================================
2015-10-08 13:23:17 - INFO --> ================== Starting process ==================
2015-10-08 13:23:17 - INFO --> ======================================================
2015-10-08 13:23:17 - DEBUG --> Connecting to BigCouch...
2015-10-08 13:23:17 - DEBUG -->  - GET - retrieve account doc f271b0721436b1f0f2c159922636f122
2015-10-08 13:23:17 - DEBUG --> Request coming from 162.216.4.136
2015-10-08 13:23:17 - INFO --> ======================================================
2015-10-08 13:23:17 - INFO --> ================== Starting process ==================
2015-10-08 13:23:17 - INFO --> ======================================================
2015-10-08 13:23:17 - DEBUG --> Connecting to BigCouch...
2015-10-08 13:23:17 - DEBUG -->  - POST - edit account doc f271b0721436b1f0f2c159922636f122
2015-10-08 13:23:17 - DEBUG --> Request coming from 162.216.4.136
2015-10-08 13:23:17 - INFO --> ======================================================
2015-10-08 13:23:17 - INFO --> ================== Starting process ==================
2015-10-08 13:23:17 - INFO --> ======================================================
2015-10-08 13:23:17 - DEBUG --> Connecting to BigCouch...
2015-10-08 13:23:17 - DEBUG -->  - GET - retrieve account doc f271b0721436b1f0f2c159922636f122 for mac doc acf2c5385d2c
2015-10-08 13:23:17 - DEBUG --> Request coming from 162.216.4.136
2015-10-08 13:23:18 - INFO --> ======================================================
2015-10-08 13:23:18 - INFO --> ================== Starting process ==================
2015-10-08 13:23:18 - INFO --> ======================================================
2015-10-08 13:23:18 - DEBUG --> Connecting to BigCouch...
2015-10-08 13:23:18 - DEBUG -->  - POST - edit in doc f271b0721436b1f0f2c159922636f122 mac address acf2c5385d2c
2015-10-08 13:23:18 - DEBUG --> Request coming from 162.216.4.136
2015-10-08 13:23:18 - DEBUG --> Will now edit the mac_lookup...
2015-10-08 13:23:18 - DEBUG --> done... Edit for account f271b0721436b1f0f2c159922636f122 and mac_address acf2c5385d2c SUCCESS
2015-10-08 21:36:42 - INFO --> ======================================================
2015-10-08 21:36:42 - INFO --> ================== Starting process ==================
2015-10-08 21:36:42 - INFO --> ======================================================
2015-10-08 21:36:42 - DEBUG --> Connecting to BigCouch...
2015-10-08 21:36:42 - DEBUG -->  - GET - retrieve account doc 1ce9756b6dbb50a862633cce5e361162
2015-10-08 21:36:42 - DEBUG --> Request coming from 162.216.4.136
2015-10-08 21:36:42 - INFO --> ======================================================
2015-10-08 21:36:42 - INFO --> ================== Starting process ==================
2015-10-08 21:36:42 - INFO --> ======================================================
2015-10-08 21:36:42 - DEBUG --> Connecting to BigCouch...
2015-10-08 21:36:42 - DEBUG -->  - POST - edit account doc 1ce9756b6dbb50a862633cce5e361162
2015-10-08 21:36:42 - DEBUG --> Request coming from 162.216.4.136
2015-10-08 21:36:42 - INFO --> ======================================================
2015-10-08 21:36:42 - INFO --> ================== Starting process ==================
2015-10-08 21:36:42 - INFO --> ======================================================
2015-10-08 21:36:42 - DEBUG --> Connecting to BigCouch...
2015-10-08 21:36:42 - DEBUG -->  - GET - retrieve account doc 1ce9756b6dbb50a862633cce5e361162 for mac doc acf2c5364d36
2015-10-08 21:36:42 - DEBUG --> Request coming from 162.216.4.136
2015-10-08 21:36:42 - INFO --> ======================================================
2015-10-08 21:36:42 - INFO --> ================== Starting process ==================
2015-10-08 21:36:42 - INFO --> ======================================================
2015-10-08 21:36:42 - DEBUG --> Connecting to BigCouch...
2015-10-08 21:36:42 - DEBUG -->  - POST - edit in doc 1ce9756b6dbb50a862633cce5e361162 mac address acf2c5364d36
2015-10-08 21:36:42 - DEBUG --> Request coming from 162.216.4.136
2015-10-08 21:36:43 - DEBUG --> Will now edit the mac_lookup...
2015-10-08 21:36:43 - DEBUG --> done... Edit for account 1ce9756b6dbb50a862633cce5e361162 and mac_address acf2c5364d36 SUCCESS
2015-10-08 21:54:07 - INFO --> ======================================================
2015-10-08 21:54:07 - INFO --> ================== Starting process ==================
2015-10-08 21:54:07 - INFO --> ======================================================
2015-10-08 21:54:07 - DEBUG --> Connecting to BigCouch...
2015-10-08 21:54:07 - DEBUG -->  - GET - retrieve account doc 4b7fc33a8aabf411da8cd933c6ebdadf
2015-10-08 21:54:07 - DEBUG --> Request coming from 162.216.4.136
2015-10-08 21:54:07 - INFO --> ======================================================
2015-10-08 21:54:07 - INFO --> ================== Starting process ==================
2015-10-08 21:54:07 - INFO --> ======================================================
2015-10-08 21:54:07 - DEBUG --> Connecting to BigCouch...
2015-10-08 21:54:07 - DEBUG -->  - POST - edit account doc 4b7fc33a8aabf411da8cd933c6ebdadf
2015-10-08 21:54:07 - DEBUG --> Request coming from 162.216.4.136
2015-10-08 21:54:27 - INFO --> ======================================================
2015-10-08 21:54:27 - INFO --> ================== Starting process ==================
2015-10-08 21:54:27 - INFO --> ======================================================
2015-10-08 21:54:27 - DEBUG --> Connecting to BigCouch...
2015-10-08 21:54:27 - DEBUG -->  - GET - retrieve account doc 4b7fc33a8aabf411da8cd933c6ebdadf
2015-10-08 21:54:27 - DEBUG --> Request coming from 162.216.4.136
2015-10-08 21:54:27 - INFO --> ======================================================
2015-10-08 21:54:27 - INFO --> ================== Starting process ==================
2015-10-08 21:54:27 - INFO --> ======================================================
2015-10-08 21:54:27 - DEBUG --> Connecting to BigCouch...
2015-10-08 21:54:27 - DEBUG -->  - POST - edit account doc 4b7fc33a8aabf411da8cd933c6ebdadf
2015-10-08 21:54:27 - DEBUG --> Request coming from 162.216.4.136
