2015-07-12 16:35:53 - INFO --> ======================================================
2015-07-12 16:35:53 - INFO --> ================== Starting process ==================
2015-07-12 16:35:53 - INFO --> ======================================================
2015-07-12 16:35:53 - DEBUG --> Connecting to BigCouch...
2015-07-12 16:35:53 - DEBUG -->  - GET - retrieve account doc 97c51b8b664dd2527585db0beb7d2f5f
2015-07-12 16:35:53 - DEBUG --> Request coming from 162.216.4.136
2015-07-12 16:35:53 - INFO --> ======================================================
2015-07-12 16:35:53 - INFO --> ================== Starting process ==================
2015-07-12 16:35:53 - INFO --> ======================================================
2015-07-12 16:35:53 - DEBUG --> Connecting to BigCouch...
2015-07-12 16:35:53 - DEBUG -->  - POST - edit account doc 97c51b8b664dd2527585db0beb7d2f5f
2015-07-12 16:35:53 - DEBUG --> Request coming from 162.216.4.136
2015-07-12 16:35:54 - INFO --> ======================================================
2015-07-12 16:35:54 - INFO --> ================== Starting process ==================
2015-07-12 16:35:54 - INFO --> ======================================================
2015-07-12 16:35:54 - DEBUG --> Connecting to BigCouch...
2015-07-12 16:35:54 - DEBUG -->  - GET - retrieve account doc 97c51b8b664dd2527585db0beb7d2f5f for mac doc acf2c5385a60
2015-07-12 16:35:54 - DEBUG --> Request coming from 162.216.4.136
2015-07-12 16:35:54 - INFO --> ======================================================
2015-07-12 16:35:54 - INFO --> ================== Starting process ==================
2015-07-12 16:35:54 - INFO --> ======================================================
2015-07-12 16:35:54 - DEBUG --> Connecting to BigCouch...
2015-07-12 16:35:54 - DEBUG -->  - POST - edit in doc 97c51b8b664dd2527585db0beb7d2f5f mac address acf2c5385a60
2015-07-12 16:35:54 - DEBUG --> Request coming from 162.216.4.136
2015-07-12 16:35:54 - DEBUG --> Will now edit the mac_lookup...
2015-07-12 16:35:54 - DEBUG --> done... Edit for account 97c51b8b664dd2527585db0beb7d2f5f and mac_address acf2c5385a60 SUCCESS
