2016-01-04 7:02:00 - INFO --> ======================================================
2016-01-04 7:02:00 - INFO --> ================== Starting process ==================
2016-01-04 7:02:00 - INFO --> ======================================================
2016-01-04 7:02:00 - DEBUG --> Connecting to BigCouch...
2016-01-04 7:02:00 - DEBUG -->  - GET - retrieve account doc 2a92b31aaf2996fb6c06cfc2fd20ad95
2016-01-04 7:02:00 - DEBUG --> Request coming from 162.216.4.136
2016-01-04 7:02:00 - INFO --> ======================================================
2016-01-04 7:02:00 - INFO --> ================== Starting process ==================
2016-01-04 7:02:00 - INFO --> ======================================================
2016-01-04 7:02:00 - DEBUG --> Connecting to BigCouch...
2016-01-04 7:02:00 - DEBUG -->  - POST - edit account doc 2a92b31aaf2996fb6c06cfc2fd20ad95
2016-01-04 7:02:00 - DEBUG --> Request coming from 162.216.4.136
2016-01-04 9:07:32 - INFO --> ======================================================
2016-01-04 9:07:32 - INFO --> ================== Starting process ==================
2016-01-04 9:07:32 - INFO --> ======================================================
2016-01-04 9:07:32 - DEBUG --> Connecting to BigCouch...
2016-01-04 9:07:32 - DEBUG -->  - DELETE - Deleting a device (0015658ccb8d) for account 973be02c9e1dfdc41fb7f33b4c71c129...
2016-01-04 9:07:32 - DEBUG --> Request coming from 162.216.4.136
2016-01-04 9:07:32 - DEBUG --> The device does exist... let's delete it
2016-01-04 9:07:32 - DEBUG --> Now deleting the mac lookup entry...
2016-01-04 9:07:32 - DEBUG --> Failed to delete the mac_lookup entry (0015658ccb8d) - EXIT
2016-01-04 9:21:01 - INFO --> ======================================================
2016-01-04 9:21:01 - INFO --> ================== Starting process ==================
2016-01-04 9:21:01 - INFO --> ======================================================
2016-01-04 9:21:01 - DEBUG --> Connecting to BigCouch...
2016-01-04 9:21:01 - DEBUG -->  - GET - retrieve account doc 973be02c9e1dfdc41fb7f33b4c71c129
2016-01-04 9:21:01 - DEBUG --> Request coming from 162.216.4.136
2016-01-04 9:21:01 - INFO --> ======================================================
2016-01-04 9:21:01 - INFO --> ================== Starting process ==================
2016-01-04 9:21:01 - INFO --> ======================================================
2016-01-04 9:21:01 - DEBUG --> Connecting to BigCouch...
2016-01-04 9:21:01 - DEBUG -->  - POST - edit account doc 973be02c9e1dfdc41fb7f33b4c71c129
2016-01-04 9:21:01 - DEBUG --> Request coming from 162.216.4.136
2016-01-04 9:21:02 - INFO --> ======================================================
2016-01-04 9:21:02 - INFO --> ================== Starting process ==================
2016-01-04 9:21:02 - INFO --> ======================================================
2016-01-04 9:21:02 - DEBUG --> Connecting to BigCouch...
2016-01-04 9:21:02 - DEBUG -->  - GET - retrieve account doc 973be02c9e1dfdc41fb7f33b4c71c129 for mac doc 0015658ccd36
2016-01-04 9:21:02 - DEBUG --> Request coming from 162.216.4.136
2016-01-04 9:21:02 - INFO --> ======================================================
2016-01-04 9:21:02 - INFO --> ================== Starting process ==================
2016-01-04 9:21:02 - INFO --> ======================================================
2016-01-04 9:21:02 - DEBUG --> Connecting to BigCouch...
2016-01-04 9:21:02 - DEBUG -->  - POST - edit in doc 973be02c9e1dfdc41fb7f33b4c71c129 mac address 0015658ccd36
2016-01-04 9:21:02 - DEBUG --> Request coming from 162.216.4.136
2016-01-04 9:21:02 - DEBUG --> Will now edit the mac_lookup...
2016-01-04 9:42:33 - INFO --> ======================================================
2016-01-04 9:42:33 - INFO --> ================== Starting process ==================
2016-01-04 9:42:33 - INFO --> ======================================================
2016-01-04 9:42:33 - DEBUG --> Connecting to BigCouch...
2016-01-04 9:42:33 - DEBUG -->  - GET - retrieve account doc 973be02c9e1dfdc41fb7f33b4c71c129
2016-01-04 9:42:33 - DEBUG --> Request coming from 162.216.4.136
2016-01-04 9:42:33 - INFO --> ======================================================
2016-01-04 9:42:33 - INFO --> ================== Starting process ==================
2016-01-04 9:42:33 - INFO --> ======================================================
2016-01-04 9:42:33 - DEBUG --> Connecting to BigCouch...
2016-01-04 9:42:33 - DEBUG -->  - POST - edit account doc 973be02c9e1dfdc41fb7f33b4c71c129
2016-01-04 9:42:33 - DEBUG --> Request coming from 162.216.4.136
2016-01-04 9:42:33 - INFO --> ======================================================
2016-01-04 9:42:33 - INFO --> ================== Starting process ==================
2016-01-04 9:42:33 - INFO --> ======================================================
2016-01-04 9:42:33 - DEBUG --> Connecting to BigCouch...
2016-01-04 9:42:33 - DEBUG -->  - GET - retrieve account doc 973be02c9e1dfdc41fb7f33b4c71c129 for mac doc 0015658ccd36
2016-01-04 9:42:33 - DEBUG --> Request coming from 162.216.4.136
2016-01-04 9:42:34 - INFO --> ======================================================
2016-01-04 9:42:34 - INFO --> ================== Starting process ==================
2016-01-04 9:42:34 - INFO --> ======================================================
2016-01-04 9:42:34 - DEBUG --> Connecting to BigCouch...
2016-01-04 9:42:34 - DEBUG -->  - POST - edit in doc 973be02c9e1dfdc41fb7f33b4c71c129 mac address 0015658ccd36
2016-01-04 9:42:34 - DEBUG --> Request coming from 162.216.4.136
2016-01-04 9:42:34 - DEBUG --> Will now edit the mac_lookup...
2016-01-04 9:42:34 - DEBUG --> done... Edit for account 973be02c9e1dfdc41fb7f33b4c71c129 and mac_address 0015658ccd36 SUCCESS
2016-01-04 9:43:24 - INFO --> ======================================================
2016-01-04 9:43:24 - INFO --> ================== Starting process ==================
2016-01-04 9:43:24 - INFO --> ======================================================
2016-01-04 9:43:24 - DEBUG --> Connecting to BigCouch...
2016-01-04 9:43:24 - DEBUG -->  - GET - retrieve account doc 973be02c9e1dfdc41fb7f33b4c71c129
2016-01-04 9:43:24 - DEBUG --> Request coming from 162.216.4.136
2016-01-04 9:43:24 - INFO --> ======================================================
2016-01-04 9:43:24 - INFO --> ================== Starting process ==================
2016-01-04 9:43:24 - INFO --> ======================================================
2016-01-04 9:43:24 - DEBUG --> Connecting to BigCouch...
2016-01-04 9:43:24 - DEBUG -->  - POST - edit account doc 973be02c9e1dfdc41fb7f33b4c71c129
2016-01-04 9:43:24 - DEBUG --> Request coming from 162.216.4.136
2016-01-04 9:43:25 - INFO --> ======================================================
2016-01-04 9:43:25 - INFO --> ================== Starting process ==================
2016-01-04 9:43:25 - INFO --> ======================================================
2016-01-04 9:43:25 - DEBUG --> Connecting to BigCouch...
2016-01-04 9:43:25 - DEBUG -->  - DELETE - Deleting a device (0015658ccd36) for account 973be02c9e1dfdc41fb7f33b4c71c129...
2016-01-04 9:43:25 - DEBUG --> Request coming from 162.216.4.136
2016-01-04 9:43:25 - DEBUG --> The device does exist... let's delete it
2016-01-04 9:43:25 - DEBUG --> Now deleting the mac lookup entry...
2016-01-04 9:43:25 - DEBUG --> Successfully deleted device (0015658ccd36)
2016-01-04 9:43:25 - INFO --> ======================================================
2016-01-04 9:43:25 - INFO --> ================== Starting process ==================
2016-01-04 9:43:25 - INFO --> ======================================================
2016-01-04 9:43:25 - DEBUG --> Connecting to BigCouch...
2016-01-04 9:43:25 - DEBUG -->  - GET - retrieve account doc 973be02c9e1dfdc41fb7f33b4c71c129 for mac doc 0015658ccb8d
2016-01-04 9:43:25 - DEBUG --> Request coming from 162.216.4.136
2016-01-04 9:43:25 - DEBUG --> No doc for this mac address - EXIT
2016-01-04 9:43:25 - INFO --> ======================================================
2016-01-04 9:43:25 - INFO --> ================== Starting process ==================
2016-01-04 9:43:25 - INFO --> ======================================================
2016-01-04 9:43:25 - DEBUG --> Connecting to BigCouch...
2016-01-04 9:43:25 - DEBUG -->  - PUT - Adding account first...
2016-01-04 9:43:25 - DEBUG --> Request coming from 162.216.4.136
2016-01-04 9:43:25 - DEBUG --> Adding the device with mac_address 0015658ccb8d...
2016-01-04 9:43:25 - DEBUG --> The mac_lookup...
2016-01-04 9:43:25 - DEBUG --> SUCCESS! exit...
2016-01-04 9:44:08 - INFO --> ======================================================
2016-01-04 9:44:08 - INFO --> ================== Starting process ==================
2016-01-04 9:44:08 - INFO --> ======================================================
2016-01-04 9:44:08 - DEBUG --> Connecting to BigCouch...
2016-01-04 9:44:08 - DEBUG -->  - GET - retrieve account doc 973be02c9e1dfdc41fb7f33b4c71c129
2016-01-04 9:44:08 - DEBUG --> Request coming from 162.216.4.136
2016-01-04 9:44:08 - INFO --> ======================================================
2016-01-04 9:44:08 - INFO --> ================== Starting process ==================
2016-01-04 9:44:08 - INFO --> ======================================================
2016-01-04 9:44:08 - DEBUG --> Connecting to BigCouch...
2016-01-04 9:44:08 - DEBUG -->  - POST - edit account doc 973be02c9e1dfdc41fb7f33b4c71c129
2016-01-04 9:44:08 - DEBUG --> Request coming from 162.216.4.136
2016-01-04 9:44:09 - INFO --> ======================================================
2016-01-04 9:44:09 - INFO --> ================== Starting process ==================
2016-01-04 9:44:09 - INFO --> ======================================================
2016-01-04 9:44:09 - DEBUG --> Connecting to BigCouch...
2016-01-04 9:44:09 - DEBUG -->  - GET - retrieve account doc 973be02c9e1dfdc41fb7f33b4c71c129 for mac doc 0015658ccb8d
2016-01-04 9:44:09 - DEBUG --> Request coming from 162.216.4.136
2016-01-04 9:44:09 - INFO --> ======================================================
2016-01-04 9:44:09 - INFO --> ================== Starting process ==================
2016-01-04 9:44:09 - INFO --> ======================================================
2016-01-04 9:44:09 - DEBUG --> Connecting to BigCouch...
2016-01-04 9:44:09 - DEBUG -->  - POST - edit in doc 973be02c9e1dfdc41fb7f33b4c71c129 mac address 0015658ccb8d
2016-01-04 9:44:09 - DEBUG --> Request coming from 162.216.4.136
2016-01-04 9:44:09 - DEBUG --> Will now edit the mac_lookup...
2016-01-04 9:44:09 - DEBUG --> done... Edit for account 973be02c9e1dfdc41fb7f33b4c71c129 and mac_address 0015658ccb8d SUCCESS
2016-01-04 9:45:41 - INFO --> ======================================================
2016-01-04 9:45:41 - INFO --> ================== Starting process ==================
2016-01-04 9:45:41 - INFO --> ======================================================
2016-01-04 9:45:41 - DEBUG --> Connecting to BigCouch...
2016-01-04 9:45:41 - DEBUG -->  - GET - retrieve account doc 973be02c9e1dfdc41fb7f33b4c71c129
2016-01-04 9:45:41 - DEBUG --> Request coming from 162.216.4.136
2016-01-04 9:45:42 - INFO --> ======================================================
2016-01-04 9:45:42 - INFO --> ================== Starting process ==================
2016-01-04 9:45:42 - INFO --> ======================================================
2016-01-04 9:45:42 - DEBUG --> Connecting to BigCouch...
2016-01-04 9:45:42 - DEBUG -->  - POST - edit account doc 973be02c9e1dfdc41fb7f33b4c71c129
2016-01-04 9:45:42 - DEBUG --> Request coming from 162.216.4.136
2016-01-04 9:45:42 - INFO --> ======================================================
2016-01-04 9:45:42 - INFO --> ================== Starting process ==================
2016-01-04 9:45:42 - INFO --> ======================================================
2016-01-04 9:45:42 - DEBUG --> Connecting to BigCouch...
2016-01-04 9:45:42 - DEBUG -->  - GET - retrieve account doc 973be02c9e1dfdc41fb7f33b4c71c129 for mac doc 0015658ccd36
2016-01-04 9:45:42 - DEBUG --> Request coming from 162.216.4.136
2016-01-04 9:45:42 - DEBUG --> No doc for this mac address - EXIT
2016-01-04 9:45:42 - INFO --> ======================================================
2016-01-04 9:45:42 - INFO --> ================== Starting process ==================
2016-01-04 9:45:42 - INFO --> ======================================================
2016-01-04 9:45:42 - DEBUG --> Connecting to BigCouch...
2016-01-04 9:45:42 - DEBUG -->  - PUT - Adding account first...
2016-01-04 9:45:42 - DEBUG --> Request coming from 162.216.4.136
2016-01-04 9:45:43 - DEBUG --> Adding the device with mac_address 0015658ccd36...
2016-01-04 9:45:43 - DEBUG --> The mac_lookup...
2016-01-04 9:45:43 - DEBUG --> SUCCESS! exit...
2016-01-04 10:15:51 - INFO --> ======================================================
2016-01-04 10:15:51 - INFO --> ================== Starting process ==================
2016-01-04 10:15:51 - INFO --> ======================================================
2016-01-04 10:15:51 - DEBUG --> Connecting to BigCouch...
2016-01-04 10:15:51 - DEBUG -->  - GET - retrieve account doc 973be02c9e1dfdc41fb7f33b4c71c129
2016-01-04 10:15:51 - DEBUG --> Request coming from 162.216.4.136
2016-01-04 10:15:51 - INFO --> ======================================================
2016-01-04 10:15:51 - INFO --> ================== Starting process ==================
2016-01-04 10:15:51 - INFO --> ======================================================
2016-01-04 10:15:51 - DEBUG --> Connecting to BigCouch...
2016-01-04 10:15:51 - DEBUG -->  - POST - edit account doc 973be02c9e1dfdc41fb7f33b4c71c129
2016-01-04 10:15:51 - DEBUG --> Request coming from 162.216.4.136
2016-01-04 10:15:51 - INFO --> ======================================================
2016-01-04 10:15:51 - INFO --> ================== Starting process ==================
2016-01-04 10:15:51 - INFO --> ======================================================
2016-01-04 10:15:51 - DEBUG --> Connecting to BigCouch...
2016-01-04 10:15:51 - DEBUG -->  - DELETE - Deleting a device (0015658ccb8d) for account 973be02c9e1dfdc41fb7f33b4c71c129...
2016-01-04 10:15:51 - DEBUG --> Request coming from 162.216.4.136
2016-01-04 10:15:51 - DEBUG --> The device does exist... let's delete it
2016-01-04 10:15:51 - DEBUG --> Now deleting the mac lookup entry...
2016-01-04 10:15:51 - DEBUG --> Successfully deleted device (0015658ccb8d)
2016-01-04 10:15:52 - INFO --> ======================================================
2016-01-04 10:15:52 - INFO --> ================== Starting process ==================
2016-01-04 10:15:52 - INFO --> ======================================================
2016-01-04 10:15:52 - DEBUG --> Connecting to BigCouch...
2016-01-04 10:15:52 - DEBUG -->  - GET - retrieve account doc 973be02c9e1dfdc41fb7f33b4c71c129 for mac doc 0015658ccb36
2016-01-04 10:15:52 - DEBUG --> Request coming from 162.216.4.136
2016-01-04 10:15:52 - DEBUG --> No doc for this mac address - EXIT
2016-01-04 10:15:52 - INFO --> ======================================================
2016-01-04 10:15:52 - INFO --> ================== Starting process ==================
2016-01-04 10:15:52 - INFO --> ======================================================
2016-01-04 10:15:52 - DEBUG --> Connecting to BigCouch...
2016-01-04 10:15:52 - DEBUG -->  - PUT - Adding account first...
2016-01-04 10:15:52 - DEBUG --> Request coming from 162.216.4.136
2016-01-04 10:15:52 - DEBUG --> Adding the device with mac_address 0015658ccb36...
2016-01-04 10:15:52 - DEBUG --> The mac_lookup...
2016-01-04 10:15:52 - DEBUG --> SUCCESS! exit...
2016-01-04 10:16:19 - INFO --> ======================================================
2016-01-04 10:16:19 - INFO --> ================== Starting process ==================
2016-01-04 10:16:19 - INFO --> ======================================================
2016-01-04 10:16:19 - DEBUG --> Connecting to BigCouch...
2016-01-04 10:16:19 - DEBUG -->  - GET - retrieve account doc 973be02c9e1dfdc41fb7f33b4c71c129
2016-01-04 10:16:19 - DEBUG --> Request coming from 162.216.4.136
2016-01-04 10:16:19 - INFO --> ======================================================
2016-01-04 10:16:19 - INFO --> ================== Starting process ==================
2016-01-04 10:16:19 - INFO --> ======================================================
2016-01-04 10:16:19 - DEBUG --> Connecting to BigCouch...
2016-01-04 10:16:19 - DEBUG -->  - POST - edit account doc 973be02c9e1dfdc41fb7f33b4c71c129
2016-01-04 10:16:19 - DEBUG --> Request coming from 162.216.4.136
2016-01-04 10:16:20 - INFO --> ======================================================
2016-01-04 10:16:20 - INFO --> ================== Starting process ==================
2016-01-04 10:16:20 - INFO --> ======================================================
2016-01-04 10:16:20 - DEBUG --> Connecting to BigCouch...
2016-01-04 10:16:20 - DEBUG -->  - DELETE - Deleting a device (0015658ccd36) for account 973be02c9e1dfdc41fb7f33b4c71c129...
2016-01-04 10:16:20 - DEBUG --> Request coming from 162.216.4.136
2016-01-04 10:16:20 - DEBUG --> The device does exist... let's delete it
2016-01-04 10:16:20 - DEBUG --> Now deleting the mac lookup entry...
2016-01-04 10:16:20 - DEBUG --> Successfully deleted device (0015658ccd36)
2016-01-04 10:16:20 - INFO --> ======================================================
2016-01-04 10:16:20 - INFO --> ================== Starting process ==================
2016-01-04 10:16:20 - INFO --> ======================================================
2016-01-04 10:16:20 - DEBUG --> Connecting to BigCouch...
2016-01-04 10:16:20 - DEBUG -->  - GET - retrieve account doc 973be02c9e1dfdc41fb7f33b4c71c129 for mac doc 0015658ccd8d
2016-01-04 10:16:20 - DEBUG --> Request coming from 162.216.4.136
2016-01-04 10:16:20 - DEBUG --> No doc for this mac address - EXIT
2016-01-04 10:16:20 - INFO --> ======================================================
2016-01-04 10:16:20 - INFO --> ================== Starting process ==================
2016-01-04 10:16:20 - INFO --> ======================================================
2016-01-04 10:16:20 - DEBUG --> Connecting to BigCouch...
2016-01-04 10:16:20 - DEBUG -->  - PUT - Adding account first...
2016-01-04 10:16:20 - DEBUG --> Request coming from 162.216.4.136
2016-01-04 10:16:20 - DEBUG --> Adding the device with mac_address 0015658ccd8d...
2016-01-04 10:16:20 - DEBUG --> The mac_lookup...
2016-01-04 10:16:20 - DEBUG --> SUCCESS! exit...
2016-01-04 10:25:14 - INFO --> ======================================================
2016-01-04 10:25:14 - INFO --> ================== Starting process ==================
2016-01-04 10:25:14 - INFO --> ======================================================
2016-01-04 10:25:14 - DEBUG --> Connecting to BigCouch...
2016-01-04 10:25:14 - DEBUG -->  - GET - retrieve account doc 973be02c9e1dfdc41fb7f33b4c71c129
2016-01-04 10:25:14 - DEBUG --> Request coming from 162.216.4.136
2016-01-04 10:25:14 - INFO --> ======================================================
2016-01-04 10:25:14 - INFO --> ================== Starting process ==================
2016-01-04 10:25:14 - INFO --> ======================================================
2016-01-04 10:25:14 - DEBUG --> Connecting to BigCouch...
2016-01-04 10:25:14 - DEBUG -->  - POST - edit account doc 973be02c9e1dfdc41fb7f33b4c71c129
2016-01-04 10:25:14 - DEBUG --> Request coming from 162.216.4.136
2016-01-04 10:25:15 - INFO --> ======================================================
2016-01-04 10:25:15 - INFO --> ================== Starting process ==================
2016-01-04 10:25:15 - INFO --> ======================================================
2016-01-04 10:25:15 - DEBUG --> Connecting to BigCouch...
2016-01-04 10:25:15 - DEBUG -->  - GET - retrieve account doc 973be02c9e1dfdc41fb7f33b4c71c129 for mac doc 0015658ccb8d
2016-01-04 10:25:15 - DEBUG --> Request coming from 162.216.4.136
2016-01-04 10:25:15 - DEBUG --> No doc for this mac address - EXIT
2016-01-04 10:25:15 - INFO --> ======================================================
2016-01-04 10:25:15 - INFO --> ================== Starting process ==================
2016-01-04 10:25:15 - INFO --> ======================================================
2016-01-04 10:25:15 - DEBUG --> Connecting to BigCouch...
2016-01-04 10:25:15 - DEBUG -->  - PUT - Adding account first...
2016-01-04 10:25:15 - DEBUG --> Request coming from 162.216.4.136
2016-01-04 10:25:15 - DEBUG --> Adding the device with mac_address 0015658ccb8d...
2016-01-04 10:25:15 - DEBUG --> The mac_lookup...
2016-01-04 10:25:15 - DEBUG --> SUCCESS! exit...
2016-01-04 10:27:14 - INFO --> ======================================================
2016-01-04 10:27:14 - INFO --> ================== Starting process ==================
2016-01-04 10:27:14 - INFO --> ======================================================
2016-01-04 10:27:14 - DEBUG --> Connecting to BigCouch...
2016-01-04 10:27:14 - DEBUG -->  - DELETE - Deleting a device (0015658ccb8d) for account 973be02c9e1dfdc41fb7f33b4c71c129...
2016-01-04 10:27:14 - DEBUG --> Request coming from 162.216.4.136
2016-01-04 10:27:14 - DEBUG --> The device does exist... let's delete it
2016-01-04 10:27:14 - DEBUG --> Now deleting the mac lookup entry...
2016-01-04 10:27:14 - DEBUG --> Successfully deleted device (0015658ccb8d)
2016-01-04 10:29:25 - INFO --> ======================================================
2016-01-04 10:29:25 - INFO --> ================== Starting process ==================
2016-01-04 10:29:25 - INFO --> ======================================================
2016-01-04 10:29:25 - DEBUG --> Connecting to BigCouch...
2016-01-04 10:29:25 - DEBUG -->  - GET - retrieve account doc 973be02c9e1dfdc41fb7f33b4c71c129
2016-01-04 10:29:25 - DEBUG --> Request coming from 162.216.4.136
2016-01-04 10:29:25 - INFO --> ======================================================
2016-01-04 10:29:25 - INFO --> ================== Starting process ==================
2016-01-04 10:29:25 - INFO --> ======================================================
2016-01-04 10:29:25 - DEBUG --> Connecting to BigCouch...
2016-01-04 10:29:25 - DEBUG -->  - POST - edit account doc 973be02c9e1dfdc41fb7f33b4c71c129
2016-01-04 10:29:25 - DEBUG --> Request coming from 162.216.4.136
2016-01-04 10:29:26 - INFO --> ======================================================
2016-01-04 10:29:26 - INFO --> ================== Starting process ==================
2016-01-04 10:29:26 - INFO --> ======================================================
2016-01-04 10:29:26 - DEBUG --> Connecting to BigCouch...
2016-01-04 10:29:26 - DEBUG -->  - DELETE - Deleting a device (0015658ccd8d) for account 973be02c9e1dfdc41fb7f33b4c71c129...
2016-01-04 10:29:26 - DEBUG --> Request coming from 162.216.4.136
2016-01-04 10:29:26 - DEBUG --> The device does exist... let's delete it
2016-01-04 10:29:26 - DEBUG --> Now deleting the mac lookup entry...
2016-01-04 10:29:26 - DEBUG --> Successfully deleted device (0015658ccd8d)
2016-01-04 10:29:26 - INFO --> ======================================================
2016-01-04 10:29:26 - INFO --> ================== Starting process ==================
2016-01-04 10:29:26 - INFO --> ======================================================
2016-01-04 10:29:26 - DEBUG --> Connecting to BigCouch...
2016-01-04 10:29:26 - DEBUG -->  - GET - retrieve account doc 973be02c9e1dfdc41fb7f33b4c71c129 for mac doc 0015658ccb8d
2016-01-04 10:29:26 - DEBUG --> Request coming from 162.216.4.136
2016-01-04 10:29:26 - DEBUG --> No doc for this mac address - EXIT
2016-01-04 10:29:26 - INFO --> ======================================================
2016-01-04 10:29:26 - INFO --> ================== Starting process ==================
2016-01-04 10:29:26 - INFO --> ======================================================
2016-01-04 10:29:26 - DEBUG --> Connecting to BigCouch...
2016-01-04 10:29:26 - DEBUG -->  - PUT - Adding account first...
2016-01-04 10:29:26 - DEBUG --> Request coming from 162.216.4.136
2016-01-04 10:29:26 - DEBUG --> Adding the device with mac_address 0015658ccb8d...
2016-01-04 10:29:26 - DEBUG --> The mac_lookup...
2016-01-04 10:29:26 - DEBUG --> SUCCESS! exit...
2016-01-04 10:32:26 - INFO --> ======================================================
2016-01-04 10:32:26 - INFO --> ================== Starting process ==================
2016-01-04 10:32:26 - INFO --> ======================================================
2016-01-04 10:32:26 - DEBUG --> Connecting to BigCouch...
2016-01-04 10:32:26 - DEBUG -->  - GET - retrieve account doc 973be02c9e1dfdc41fb7f33b4c71c129
2016-01-04 10:32:26 - DEBUG --> Request coming from 162.216.4.136
2016-01-04 10:32:27 - INFO --> ======================================================
2016-01-04 10:32:27 - INFO --> ================== Starting process ==================
2016-01-04 10:32:27 - INFO --> ======================================================
2016-01-04 10:32:27 - DEBUG --> Connecting to BigCouch...
2016-01-04 10:32:27 - DEBUG -->  - POST - edit account doc 973be02c9e1dfdc41fb7f33b4c71c129
2016-01-04 10:32:27 - DEBUG --> Request coming from 162.216.4.136
2016-01-04 10:32:27 - INFO --> ======================================================
2016-01-04 10:32:27 - INFO --> ================== Starting process ==================
2016-01-04 10:32:27 - INFO --> ======================================================
2016-01-04 10:32:27 - DEBUG --> Connecting to BigCouch...
2016-01-04 10:32:27 - DEBUG -->  - GET - retrieve account doc 973be02c9e1dfdc41fb7f33b4c71c129 for mac doc 0015658ccb8d
2016-01-04 10:32:27 - DEBUG --> Request coming from 162.216.4.136
2016-01-04 10:32:28 - INFO --> ======================================================
2016-01-04 10:32:28 - INFO --> ================== Starting process ==================
2016-01-04 10:32:28 - INFO --> ======================================================
2016-01-04 10:32:28 - DEBUG --> Connecting to BigCouch...
2016-01-04 10:32:28 - DEBUG -->  - POST - edit in doc 973be02c9e1dfdc41fb7f33b4c71c129 mac address 0015658ccb8d
2016-01-04 10:32:28 - DEBUG --> Request coming from 162.216.4.136
2016-01-04 10:32:28 - DEBUG --> Will now edit the mac_lookup...
2016-01-04 10:32:28 - DEBUG --> done... Edit for account 973be02c9e1dfdc41fb7f33b4c71c129 and mac_address 0015658ccb8d SUCCESS
2016-01-04 10:32:34 - INFO --> ======================================================
2016-01-04 10:32:34 - INFO --> ================== Starting process ==================
2016-01-04 10:32:34 - INFO --> ======================================================
2016-01-04 10:32:34 - DEBUG --> Connecting to BigCouch...
2016-01-04 10:32:34 - DEBUG -->  - GET - retrieve account doc 973be02c9e1dfdc41fb7f33b4c71c129
2016-01-04 10:32:34 - DEBUG --> Request coming from 162.216.4.136
2016-01-04 10:32:34 - INFO --> ======================================================
2016-01-04 10:32:34 - INFO --> ================== Starting process ==================
2016-01-04 10:32:34 - INFO --> ======================================================
2016-01-04 10:32:34 - DEBUG --> Connecting to BigCouch...
2016-01-04 10:32:34 - DEBUG -->  - POST - edit account doc 973be02c9e1dfdc41fb7f33b4c71c129
2016-01-04 10:32:34 - DEBUG --> Request coming from 162.216.4.136
2016-01-04 10:32:35 - INFO --> ======================================================
2016-01-04 10:32:35 - INFO --> ================== Starting process ==================
2016-01-04 10:32:35 - INFO --> ======================================================
2016-01-04 10:32:35 - DEBUG --> Connecting to BigCouch...
2016-01-04 10:32:35 - DEBUG -->  - GET - retrieve account doc 973be02c9e1dfdc41fb7f33b4c71c129 for mac doc 0015658ccb8d
2016-01-04 10:32:35 - DEBUG --> Request coming from 162.216.4.136
2016-01-04 10:32:35 - INFO --> ======================================================
2016-01-04 10:32:35 - INFO --> ================== Starting process ==================
2016-01-04 10:32:35 - INFO --> ======================================================
2016-01-04 10:32:35 - DEBUG --> Connecting to BigCouch...
2016-01-04 10:32:35 - DEBUG -->  - POST - edit in doc 973be02c9e1dfdc41fb7f33b4c71c129 mac address 0015658ccb8d
2016-01-04 10:32:35 - DEBUG --> Request coming from 162.216.4.136
2016-01-04 10:32:35 - DEBUG --> Will now edit the mac_lookup...
2016-01-04 10:32:35 - DEBUG --> done... Edit for account 973be02c9e1dfdc41fb7f33b4c71c129 and mac_address 0015658ccb8d SUCCESS
2016-01-04 10:32:45 - INFO --> ======================================================
2016-01-04 10:32:45 - INFO --> ================== Starting process ==================
2016-01-04 10:32:45 - INFO --> ======================================================
2016-01-04 10:32:45 - DEBUG --> Connecting to BigCouch...
2016-01-04 10:32:45 - DEBUG -->  - GET - retrieve account doc 973be02c9e1dfdc41fb7f33b4c71c129
2016-01-04 10:32:45 - DEBUG --> Request coming from 162.216.4.136
2016-01-04 10:32:45 - INFO --> ======================================================
2016-01-04 10:32:45 - INFO --> ================== Starting process ==================
2016-01-04 10:32:45 - INFO --> ======================================================
2016-01-04 10:32:45 - DEBUG --> Connecting to BigCouch...
2016-01-04 10:32:45 - DEBUG -->  - POST - edit account doc 973be02c9e1dfdc41fb7f33b4c71c129
2016-01-04 10:32:45 - DEBUG --> Request coming from 162.216.4.136
2016-01-04 10:32:46 - INFO --> ======================================================
2016-01-04 10:32:46 - INFO --> ================== Starting process ==================
2016-01-04 10:32:46 - INFO --> ======================================================
2016-01-04 10:32:46 - DEBUG --> Connecting to BigCouch...
2016-01-04 10:32:46 - DEBUG -->  - GET - retrieve account doc 973be02c9e1dfdc41fb7f33b4c71c129 for mac doc 0015658ccb8d
2016-01-04 10:32:46 - DEBUG --> Request coming from 162.216.4.136
2016-01-04 10:32:46 - INFO --> ======================================================
2016-01-04 10:32:46 - INFO --> ================== Starting process ==================
2016-01-04 10:32:46 - INFO --> ======================================================
2016-01-04 10:32:46 - DEBUG --> Connecting to BigCouch...
2016-01-04 10:32:46 - DEBUG -->  - POST - edit in doc 973be02c9e1dfdc41fb7f33b4c71c129 mac address 0015658ccb8d
2016-01-04 10:32:46 - DEBUG --> Request coming from 162.216.4.136
2016-01-04 10:32:47 - DEBUG --> Will now edit the mac_lookup...
2016-01-04 10:32:47 - DEBUG --> done... Edit for account 973be02c9e1dfdc41fb7f33b4c71c129 and mac_address 0015658ccb8d SUCCESS
2016-01-04 10:38:02 - INFO --> ======================================================
2016-01-04 10:38:02 - INFO --> ================== Starting process ==================
2016-01-04 10:38:02 - INFO --> ======================================================
2016-01-04 10:38:02 - DEBUG --> Connecting to BigCouch...
2016-01-04 10:38:02 - DEBUG -->  - GET - retrieve account doc 973be02c9e1dfdc41fb7f33b4c71c129
2016-01-04 10:38:02 - DEBUG --> Request coming from 162.216.4.136
2016-01-04 10:38:02 - INFO --> ======================================================
2016-01-04 10:38:02 - INFO --> ================== Starting process ==================
2016-01-04 10:38:02 - INFO --> ======================================================
2016-01-04 10:38:02 - DEBUG --> Connecting to BigCouch...
2016-01-04 10:38:02 - DEBUG -->  - POST - edit account doc 973be02c9e1dfdc41fb7f33b4c71c129
2016-01-04 10:38:02 - DEBUG --> Request coming from 162.216.4.136
2016-01-04 10:40:32 - INFO --> ======================================================
2016-01-04 10:40:32 - INFO --> ================== Starting process ==================
2016-01-04 10:40:32 - INFO --> ======================================================
2016-01-04 10:40:32 - DEBUG --> Connecting to BigCouch...
2016-01-04 10:40:32 - DEBUG -->  - DELETE - Deleting a device (0015658ccb8d) for account 973be02c9e1dfdc41fb7f33b4c71c129...
2016-01-04 10:40:32 - DEBUG --> Request coming from 162.216.4.136
2016-01-04 10:40:32 - DEBUG --> The device does exist... let's delete it
2016-01-04 10:40:32 - DEBUG --> Now deleting the mac lookup entry...
2016-01-04 10:40:32 - DEBUG --> Successfully deleted device (0015658ccb8d)
2016-01-04 10:41:33 - INFO --> ======================================================
2016-01-04 10:41:33 - INFO --> ================== Starting process ==================
2016-01-04 10:41:33 - INFO --> ======================================================
2016-01-04 10:41:33 - DEBUG --> Connecting to BigCouch...
2016-01-04 10:41:33 - DEBUG -->  - GET - retrieve account doc 973be02c9e1dfdc41fb7f33b4c71c129
2016-01-04 10:41:33 - DEBUG --> Request coming from 162.216.4.136
2016-01-04 10:41:33 - INFO --> ======================================================
2016-01-04 10:41:33 - INFO --> ================== Starting process ==================
2016-01-04 10:41:33 - INFO --> ======================================================
2016-01-04 10:41:33 - DEBUG --> Connecting to BigCouch...
2016-01-04 10:41:33 - DEBUG -->  - POST - edit account doc 973be02c9e1dfdc41fb7f33b4c71c129
2016-01-04 10:41:33 - DEBUG --> Request coming from 162.216.4.136
2016-01-04 10:41:33 - INFO --> ======================================================
2016-01-04 10:41:33 - INFO --> ================== Starting process ==================
2016-01-04 10:41:33 - INFO --> ======================================================
2016-01-04 10:41:33 - DEBUG --> Connecting to BigCouch...
2016-01-04 10:41:33 - DEBUG -->  - GET - retrieve account doc 973be02c9e1dfdc41fb7f33b4c71c129 for mac doc 0015658ccb8d
2016-01-04 10:41:33 - DEBUG --> Request coming from 162.216.4.136
2016-01-04 10:41:33 - DEBUG --> No doc for this mac address - EXIT
2016-01-04 10:41:34 - INFO --> ======================================================
2016-01-04 10:41:34 - INFO --> ================== Starting process ==================
2016-01-04 10:41:34 - INFO --> ======================================================
2016-01-04 10:41:34 - DEBUG --> Connecting to BigCouch...
2016-01-04 10:41:34 - DEBUG -->  - PUT - Adding account first...
2016-01-04 10:41:34 - DEBUG --> Request coming from 162.216.4.136
2016-01-04 10:41:34 - DEBUG --> Adding the device with mac_address 0015658ccb8d...
2016-01-04 10:41:34 - DEBUG --> The mac_lookup...
2016-01-04 10:41:34 - DEBUG --> SUCCESS! exit...
2016-01-04 10:42:06 - INFO --> ======================================================
2016-01-04 10:42:06 - INFO --> ================== Starting process ==================
2016-01-04 10:42:06 - INFO --> ======================================================
2016-01-04 10:42:06 - DEBUG --> Connecting to BigCouch...
2016-01-04 10:42:06 - DEBUG -->  - GET - retrieve account doc 973be02c9e1dfdc41fb7f33b4c71c129
2016-01-04 10:42:06 - DEBUG --> Request coming from 162.216.4.136
2016-01-04 10:42:07 - INFO --> ======================================================
2016-01-04 10:42:07 - INFO --> ================== Starting process ==================
2016-01-04 10:42:07 - INFO --> ======================================================
2016-01-04 10:42:07 - DEBUG --> Connecting to BigCouch...
2016-01-04 10:42:07 - DEBUG -->  - POST - edit account doc 973be02c9e1dfdc41fb7f33b4c71c129
2016-01-04 10:42:07 - DEBUG --> Request coming from 162.216.4.136
2016-01-04 10:42:07 - INFO --> ======================================================
2016-01-04 10:42:07 - INFO --> ================== Starting process ==================
2016-01-04 10:42:07 - INFO --> ======================================================
2016-01-04 10:42:07 - DEBUG --> Connecting to BigCouch...
2016-01-04 10:42:07 - DEBUG -->  - GET - retrieve account doc 973be02c9e1dfdc41fb7f33b4c71c129 for mac doc 0015658ccb8d
2016-01-04 10:42:07 - DEBUG --> Request coming from 162.216.4.136
2016-01-04 10:42:08 - INFO --> ======================================================
2016-01-04 10:42:08 - INFO --> ================== Starting process ==================
2016-01-04 10:42:08 - INFO --> ======================================================
2016-01-04 10:42:08 - DEBUG --> Connecting to BigCouch...
2016-01-04 10:42:08 - DEBUG -->  - POST - edit in doc 973be02c9e1dfdc41fb7f33b4c71c129 mac address 0015658ccb8d
2016-01-04 10:42:08 - DEBUG --> Request coming from 162.216.4.136
2016-01-04 10:42:08 - INFO --> ======================================================
2016-01-04 10:42:08 - INFO --> ================== Starting process ==================
2016-01-04 10:42:08 - INFO --> ======================================================
2016-01-04 10:42:08 - DEBUG --> Connecting to BigCouch...
2016-01-04 10:42:08 - DEBUG -->  - GET - retrieve account doc 973be02c9e1dfdc41fb7f33b4c71c129
2016-01-04 10:42:08 - DEBUG --> Request coming from 162.216.4.136
2016-01-04 10:42:08 - INFO --> ======================================================
2016-01-04 10:42:08 - INFO --> ================== Starting process ==================
2016-01-04 10:42:08 - INFO --> ======================================================
2016-01-04 10:42:08 - DEBUG --> Connecting to BigCouch...
2016-01-04 10:42:08 - DEBUG -->  - POST - edit account doc 973be02c9e1dfdc41fb7f33b4c71c129
2016-01-04 10:42:08 - DEBUG --> Request coming from 162.216.4.136
2016-01-04 10:42:08 - DEBUG --> Will now edit the mac_lookup...
2016-01-04 10:42:08 - DEBUG --> done... Edit for account 973be02c9e1dfdc41fb7f33b4c71c129 and mac_address 0015658ccb8d SUCCESS
2016-01-04 10:42:09 - INFO --> ======================================================
2016-01-04 10:42:09 - INFO --> ================== Starting process ==================
2016-01-04 10:42:09 - INFO --> ======================================================
2016-01-04 10:42:09 - DEBUG --> Connecting to BigCouch...
2016-01-04 10:42:09 - DEBUG -->  - GET - retrieve account doc 973be02c9e1dfdc41fb7f33b4c71c129 for mac doc 0015658ccb8d
2016-01-04 10:42:09 - DEBUG --> Request coming from 162.216.4.136
2016-01-04 10:42:09 - INFO --> ======================================================
2016-01-04 10:42:09 - INFO --> ================== Starting process ==================
2016-01-04 10:42:09 - INFO --> ======================================================
2016-01-04 10:42:09 - DEBUG --> Connecting to BigCouch...
2016-01-04 10:42:09 - DEBUG -->  - POST - edit in doc 973be02c9e1dfdc41fb7f33b4c71c129 mac address 0015658ccb8d
2016-01-04 10:42:09 - DEBUG --> Request coming from 162.216.4.136
2016-01-04 10:42:09 - DEBUG --> Will now edit the mac_lookup...
2016-01-04 10:42:09 - DEBUG --> done... Edit for account 973be02c9e1dfdc41fb7f33b4c71c129 and mac_address 0015658ccb8d SUCCESS
2016-01-04 10:44:40 - INFO --> ======================================================
2016-01-04 10:44:40 - INFO --> ================== Starting process ==================
2016-01-04 10:44:40 - INFO --> ======================================================
2016-01-04 10:44:40 - DEBUG --> Connecting to BigCouch...
2016-01-04 10:44:40 - DEBUG -->  - GET - retrieve account doc 973be02c9e1dfdc41fb7f33b4c71c129
2016-01-04 10:44:40 - DEBUG --> Request coming from 162.216.4.136
2016-01-04 10:44:41 - INFO --> ======================================================
2016-01-04 10:44:41 - INFO --> ================== Starting process ==================
2016-01-04 10:44:41 - INFO --> ======================================================
2016-01-04 10:44:41 - DEBUG --> Connecting to BigCouch...
2016-01-04 10:44:41 - DEBUG -->  - POST - edit account doc 973be02c9e1dfdc41fb7f33b4c71c129
2016-01-04 10:44:41 - DEBUG --> Request coming from 162.216.4.136
2016-01-04 10:46:05 - INFO --> ======================================================
2016-01-04 10:46:05 - INFO --> ================== Starting process ==================
2016-01-04 10:46:05 - INFO --> ======================================================
2016-01-04 10:46:05 - DEBUG --> Connecting to BigCouch...
2016-01-04 10:46:05 - DEBUG -->  - GET - retrieve account doc 973be02c9e1dfdc41fb7f33b4c71c129
2016-01-04 10:46:05 - DEBUG --> Request coming from 162.216.4.136
2016-01-04 10:46:05 - INFO --> ======================================================
2016-01-04 10:46:05 - INFO --> ================== Starting process ==================
2016-01-04 10:46:05 - INFO --> ======================================================
2016-01-04 10:46:05 - DEBUG --> Connecting to BigCouch...
2016-01-04 10:46:05 - DEBUG -->  - POST - edit account doc 973be02c9e1dfdc41fb7f33b4c71c129
2016-01-04 10:46:05 - DEBUG --> Request coming from 162.216.4.136
2016-01-04 13:41:56 - INFO --> ======================================================
2016-01-04 13:41:56 - INFO --> ================== Starting process ==================
2016-01-04 13:41:56 - INFO --> ======================================================
2016-01-04 13:41:56 - DEBUG --> Connecting to BigCouch...
2016-01-04 13:41:56 - DEBUG -->  - GET - retrieve account doc e64ba6d0ddaac1623b738bdac374021f
2016-01-04 13:41:56 - DEBUG --> Request coming from 162.216.4.136
2016-01-04 13:41:56 - INFO --> ======================================================
2016-01-04 13:41:56 - INFO --> ================== Starting process ==================
2016-01-04 13:41:56 - INFO --> ======================================================
2016-01-04 13:41:56 - DEBUG --> Connecting to BigCouch...
2016-01-04 13:41:56 - DEBUG -->  - GET - retrieve account doc e64ba6d0ddaac1623b738bdac374021f
2016-01-04 13:41:56 - DEBUG --> Request coming from 162.216.4.136
2016-01-04 13:41:56 - INFO --> ======================================================
2016-01-04 13:41:56 - INFO --> ================== Starting process ==================
2016-01-04 13:41:56 - INFO --> ======================================================
2016-01-04 13:41:56 - DEBUG --> Connecting to BigCouch...
2016-01-04 13:41:56 - DEBUG -->  - POST - edit account doc e64ba6d0ddaac1623b738bdac374021f
2016-01-04 13:41:56 - DEBUG --> Request coming from 162.216.4.136
2016-01-04 13:41:56 - INFO --> ======================================================
2016-01-04 13:41:56 - INFO --> ================== Starting process ==================
2016-01-04 13:41:56 - INFO --> ======================================================
2016-01-04 13:41:56 - DEBUG --> Connecting to BigCouch...
2016-01-04 13:41:56 - DEBUG -->  - POST - edit account doc e64ba6d0ddaac1623b738bdac374021f
2016-01-04 13:41:56 - DEBUG --> Request coming from 162.216.4.136
2016-01-04 13:41:56 - DEBUG --> Could not save key:provider_id - EXIT
2016-01-04 13:45:53 - INFO --> ======================================================
2016-01-04 13:45:53 - INFO --> ================== Starting process ==================
2016-01-04 13:45:53 - INFO --> ======================================================
2016-01-04 13:45:53 - DEBUG --> Connecting to BigCouch...
2016-01-04 13:45:53 - DEBUG -->  - GET - retrieve account doc 900a7c26988fd6e706fdac1a4dc07077
2016-01-04 13:45:53 - DEBUG --> Request coming from 162.216.4.136
2016-01-04 13:45:53 - INFO --> ======================================================
2016-01-04 13:45:53 - INFO --> ================== Starting process ==================
2016-01-04 13:45:53 - INFO --> ======================================================
2016-01-04 13:45:53 - DEBUG --> Connecting to BigCouch...
2016-01-04 13:45:53 - DEBUG -->  - POST - edit account doc 900a7c26988fd6e706fdac1a4dc07077
2016-01-04 13:45:53 - DEBUG --> Request coming from 162.216.4.136
2016-01-04 13:45:54 - INFO --> ======================================================
2016-01-04 13:45:54 - INFO --> ================== Starting process ==================
2016-01-04 13:45:54 - INFO --> ======================================================
2016-01-04 13:45:54 - DEBUG --> Connecting to BigCouch...
2016-01-04 13:45:54 - DEBUG -->  - GET - retrieve account doc 900a7c26988fd6e706fdac1a4dc07077 for mac doc 000e084c8788
2016-01-04 13:45:54 - DEBUG --> Request coming from 162.216.4.136
2016-01-04 13:45:54 - DEBUG --> No doc for this mac address - EXIT
2016-01-04 13:45:54 - INFO --> ======================================================
2016-01-04 13:45:54 - INFO --> ================== Starting process ==================
2016-01-04 13:45:54 - INFO --> ======================================================
2016-01-04 13:45:54 - DEBUG --> Connecting to BigCouch...
2016-01-04 13:45:54 - DEBUG -->  - PUT - Adding account first...
2016-01-04 13:45:54 - DEBUG --> Request coming from 162.216.4.136
2016-01-04 13:45:54 - DEBUG --> Adding the device with mac_address 000e084c8788...
2016-01-04 13:45:54 - DEBUG --> The mac_lookup...
2016-01-04 13:45:54 - DEBUG --> SUCCESS! exit...
2016-01-04 14:41:33 - INFO --> ======================================================
2016-01-04 14:41:33 - INFO --> ================== Starting process ==================
2016-01-04 14:41:33 - INFO --> ======================================================
2016-01-04 14:41:33 - DEBUG --> Connecting to BigCouch...
2016-01-04 14:41:33 - DEBUG -->  - GET - retrieve account doc 900a7c26988fd6e706fdac1a4dc07077
2016-01-04 14:41:33 - DEBUG --> Request coming from 162.216.4.136
2016-01-04 14:41:34 - INFO --> ======================================================
2016-01-04 14:41:34 - INFO --> ================== Starting process ==================
2016-01-04 14:41:34 - INFO --> ======================================================
2016-01-04 14:41:34 - DEBUG --> Connecting to BigCouch...
2016-01-04 14:41:34 - DEBUG -->  - POST - edit account doc 900a7c26988fd6e706fdac1a4dc07077
2016-01-04 14:41:34 - DEBUG --> Request coming from 162.216.4.136
2016-01-04 14:41:34 - INFO --> ======================================================
2016-01-04 14:41:34 - INFO --> ================== Starting process ==================
2016-01-04 14:41:34 - INFO --> ======================================================
2016-01-04 14:41:34 - DEBUG --> Connecting to BigCouch...
2016-01-04 14:41:34 - DEBUG -->  - GET - retrieve account doc 900a7c26988fd6e706fdac1a4dc07077 for mac doc 000e084c8788
2016-01-04 14:41:34 - DEBUG --> Request coming from 162.216.4.136
2016-01-04 14:41:34 - INFO --> ======================================================
2016-01-04 14:41:34 - INFO --> ================== Starting process ==================
2016-01-04 14:41:34 - INFO --> ======================================================
2016-01-04 14:41:34 - DEBUG --> Connecting to BigCouch...
2016-01-04 14:41:34 - DEBUG -->  - POST - edit in doc 900a7c26988fd6e706fdac1a4dc07077 mac address 000e084c8788
2016-01-04 14:41:34 - DEBUG --> Request coming from 162.216.4.136
2016-01-04 14:41:35 - DEBUG --> Will now edit the mac_lookup...
2016-01-04 14:41:35 - DEBUG --> done... Edit for account 900a7c26988fd6e706fdac1a4dc07077 and mac_address 000e084c8788 SUCCESS
2016-01-04 14:43:24 - INFO --> ======================================================
2016-01-04 14:43:24 - INFO --> ================== Starting process ==================
2016-01-04 14:43:24 - INFO --> ======================================================
2016-01-04 14:43:24 - DEBUG --> Connecting to BigCouch...
2016-01-04 14:43:24 - DEBUG -->  - GET - retrieve account doc 900a7c26988fd6e706fdac1a4dc07077
2016-01-04 14:43:24 - DEBUG --> Request coming from 162.216.4.136
2016-01-04 14:43:24 - INFO --> ======================================================
2016-01-04 14:43:24 - INFO --> ================== Starting process ==================
2016-01-04 14:43:24 - INFO --> ======================================================
2016-01-04 14:43:24 - DEBUG --> Connecting to BigCouch...
2016-01-04 14:43:24 - DEBUG -->  - POST - edit account doc 900a7c26988fd6e706fdac1a4dc07077
2016-01-04 14:43:24 - DEBUG --> Request coming from 162.216.4.136
2016-01-04 14:43:25 - INFO --> ======================================================
2016-01-04 14:43:25 - INFO --> ================== Starting process ==================
2016-01-04 14:43:25 - INFO --> ======================================================
2016-01-04 14:43:25 - DEBUG --> Connecting to BigCouch...
2016-01-04 14:43:25 - DEBUG -->  - GET - retrieve account doc 900a7c26988fd6e706fdac1a4dc07077 for mac doc 000e084c8788
2016-01-04 14:43:25 - DEBUG --> Request coming from 162.216.4.136
2016-01-04 14:43:25 - INFO --> ======================================================
2016-01-04 14:43:25 - INFO --> ================== Starting process ==================
2016-01-04 14:43:25 - INFO --> ======================================================
2016-01-04 14:43:25 - DEBUG --> Connecting to BigCouch...
2016-01-04 14:43:25 - DEBUG -->  - POST - edit in doc 900a7c26988fd6e706fdac1a4dc07077 mac address 000e084c8788
2016-01-04 14:43:25 - DEBUG --> Request coming from 162.216.4.136
2016-01-04 14:43:25 - DEBUG --> Will now edit the mac_lookup...
2016-01-04 14:43:26 - DEBUG --> done... Edit for account 900a7c26988fd6e706fdac1a4dc07077 and mac_address 000e084c8788 SUCCESS
2016-01-04 14:53:33 - INFO --> ======================================================
2016-01-04 14:53:33 - INFO --> ================== Starting process ==================
2016-01-04 14:53:33 - INFO --> ======================================================
2016-01-04 14:53:33 - DEBUG --> Connecting to BigCouch...
2016-01-04 14:53:33 - DEBUG -->  - GET - retrieve account doc ea229966252be956e05ebc38ecc13d2e
2016-01-04 14:53:33 - DEBUG --> Request coming from 162.216.4.136
2016-01-04 14:53:33 - INFO --> ======================================================
2016-01-04 14:53:33 - INFO --> ================== Starting process ==================
2016-01-04 14:53:33 - INFO --> ======================================================
2016-01-04 14:53:33 - DEBUG --> Connecting to BigCouch...
2016-01-04 14:53:33 - DEBUG -->  - POST - edit account doc ea229966252be956e05ebc38ecc13d2e
2016-01-04 14:53:33 - DEBUG --> Request coming from 162.216.4.136
2016-01-04 14:53:34 - INFO --> ======================================================
2016-01-04 14:53:34 - INFO --> ================== Starting process ==================
2016-01-04 14:53:34 - INFO --> ======================================================
2016-01-04 14:53:34 - DEBUG --> Connecting to BigCouch...
2016-01-04 14:53:34 - DEBUG -->  - GET - retrieve account doc ea229966252be956e05ebc38ecc13d2e for mac doc 000e08295171
2016-01-04 14:53:34 - DEBUG --> Request coming from 162.216.4.136
2016-01-04 14:53:34 - INFO --> ======================================================
2016-01-04 14:53:34 - INFO --> ================== Starting process ==================
2016-01-04 14:53:34 - INFO --> ======================================================
2016-01-04 14:53:34 - DEBUG --> Connecting to BigCouch...
2016-01-04 14:53:34 - DEBUG -->  - POST - edit in doc ea229966252be956e05ebc38ecc13d2e mac address 000e08295171
2016-01-04 14:53:34 - DEBUG --> Request coming from 162.216.4.136
2016-01-04 14:53:35 - DEBUG --> Will now edit the mac_lookup...
2016-01-04 14:53:35 - DEBUG --> done... Edit for account ea229966252be956e05ebc38ecc13d2e and mac_address 000e08295171 SUCCESS
2016-01-04 15:07:42 - INFO --> ======================================================
2016-01-04 15:07:42 - INFO --> ================== Starting process ==================
2016-01-04 15:07:42 - INFO --> ======================================================
2016-01-04 15:07:42 - DEBUG --> Connecting to BigCouch...
2016-01-04 15:07:42 - DEBUG -->  - GET - retrieve account doc 900a7c26988fd6e706fdac1a4dc07077
2016-01-04 15:07:42 - DEBUG --> Request coming from 162.216.4.136
2016-01-04 15:07:42 - INFO --> ======================================================
2016-01-04 15:07:42 - INFO --> ================== Starting process ==================
2016-01-04 15:07:42 - INFO --> ======================================================
2016-01-04 15:07:42 - DEBUG --> Connecting to BigCouch...
2016-01-04 15:07:42 - DEBUG -->  - POST - edit account doc 900a7c26988fd6e706fdac1a4dc07077
2016-01-04 15:07:42 - DEBUG --> Request coming from 162.216.4.136
2016-01-04 15:20:58 - INFO --> ======================================================
2016-01-04 15:20:58 - INFO --> ================== Starting process ==================
2016-01-04 15:20:58 - INFO --> ======================================================
2016-01-04 15:20:58 - DEBUG --> Connecting to BigCouch...
2016-01-04 15:20:58 - DEBUG -->  - GET - retrieve account doc 900a7c26988fd6e706fdac1a4dc07077
2016-01-04 15:20:58 - DEBUG --> Request coming from 162.216.4.136
2016-01-04 15:20:58 - INFO --> ======================================================
2016-01-04 15:20:58 - INFO --> ================== Starting process ==================
2016-01-04 15:20:58 - INFO --> ======================================================
2016-01-04 15:20:58 - DEBUG --> Connecting to BigCouch...
2016-01-04 15:20:58 - DEBUG -->  - POST - edit account doc 900a7c26988fd6e706fdac1a4dc07077
2016-01-04 15:20:58 - DEBUG --> Request coming from 162.216.4.136
2016-01-04 15:20:59 - INFO --> ======================================================
2016-01-04 15:20:59 - INFO --> ================== Starting process ==================
2016-01-04 15:20:59 - INFO --> ======================================================
2016-01-04 15:20:59 - DEBUG --> Connecting to BigCouch...
2016-01-04 15:20:59 - DEBUG -->  - GET - retrieve account doc 900a7c26988fd6e706fdac1a4dc07077 for mac doc 000e084c8788
2016-01-04 15:20:59 - DEBUG --> Request coming from 162.216.4.136
2016-01-04 15:20:59 - INFO --> ======================================================
2016-01-04 15:20:59 - INFO --> ================== Starting process ==================
2016-01-04 15:20:59 - INFO --> ======================================================
2016-01-04 15:20:59 - DEBUG --> Connecting to BigCouch...
2016-01-04 15:20:59 - DEBUG -->  - POST - edit in doc 900a7c26988fd6e706fdac1a4dc07077 mac address 000e084c8788
2016-01-04 15:20:59 - DEBUG --> Request coming from 162.216.4.136
2016-01-04 15:20:59 - DEBUG --> Will now edit the mac_lookup...
2016-01-04 15:20:59 - DEBUG --> done... Edit for account 900a7c26988fd6e706fdac1a4dc07077 and mac_address 000e084c8788 SUCCESS
2016-01-04 15:21:17 - INFO --> ======================================================
2016-01-04 15:21:17 - INFO --> ================== Starting process ==================
2016-01-04 15:21:17 - INFO --> ======================================================
2016-01-04 15:21:17 - DEBUG --> Connecting to BigCouch...
2016-01-04 15:21:17 - DEBUG -->  - GET - retrieve account doc 900a7c26988fd6e706fdac1a4dc07077
2016-01-04 15:21:17 - DEBUG --> Request coming from 162.216.4.136
2016-01-04 15:21:17 - INFO --> ======================================================
2016-01-04 15:21:17 - INFO --> ================== Starting process ==================
2016-01-04 15:21:17 - INFO --> ======================================================
2016-01-04 15:21:17 - DEBUG --> Connecting to BigCouch...
2016-01-04 15:21:17 - DEBUG -->  - POST - edit account doc 900a7c26988fd6e706fdac1a4dc07077
2016-01-04 15:21:17 - DEBUG --> Request coming from 162.216.4.136
2016-01-04 15:38:16 - INFO --> ======================================================
2016-01-04 15:38:16 - INFO --> ================== Starting process ==================
2016-01-04 15:38:16 - INFO --> ======================================================
2016-01-04 15:38:16 - DEBUG --> Connecting to BigCouch...
2016-01-04 15:38:16 - DEBUG -->  - GET - retrieve account doc 900a7c26988fd6e706fdac1a4dc07077
2016-01-04 15:38:16 - DEBUG --> Request coming from 162.216.4.136
2016-01-04 15:38:16 - INFO --> ======================================================
2016-01-04 15:38:16 - INFO --> ================== Starting process ==================
2016-01-04 15:38:16 - INFO --> ======================================================
2016-01-04 15:38:16 - DEBUG --> Connecting to BigCouch...
2016-01-04 15:38:16 - DEBUG -->  - POST - edit account doc 900a7c26988fd6e706fdac1a4dc07077
2016-01-04 15:38:16 - DEBUG --> Request coming from 162.216.4.136
2016-01-04 15:38:17 - INFO --> ======================================================
2016-01-04 15:38:17 - INFO --> ================== Starting process ==================
2016-01-04 15:38:17 - INFO --> ======================================================
2016-01-04 15:38:17 - DEBUG --> Connecting to BigCouch...
2016-01-04 15:38:17 - DEBUG -->  - GET - retrieve account doc 900a7c26988fd6e706fdac1a4dc07077 for mac doc 000e084b935c
2016-01-04 15:38:17 - DEBUG --> Request coming from 162.216.4.136
2016-01-04 15:38:17 - DEBUG --> No doc for this mac address - EXIT
2016-01-04 15:38:17 - INFO --> ======================================================
2016-01-04 15:38:17 - INFO --> ================== Starting process ==================
2016-01-04 15:38:17 - INFO --> ======================================================
2016-01-04 15:38:17 - DEBUG --> Connecting to BigCouch...
2016-01-04 15:38:17 - DEBUG -->  - PUT - Adding account first...
2016-01-04 15:38:17 - DEBUG --> Request coming from 162.216.4.136
2016-01-04 15:38:17 - DEBUG --> Adding the device with mac_address 000e084b935c...
2016-01-04 15:38:17 - DEBUG --> The mac_lookup...
2016-01-04 15:38:17 - DEBUG --> SUCCESS! exit...
2016-01-04 15:49:42 - INFO --> ======================================================
2016-01-04 15:49:42 - INFO --> ================== Starting process ==================
2016-01-04 15:49:42 - INFO --> ======================================================
2016-01-04 15:49:42 - DEBUG --> Connecting to BigCouch...
2016-01-04 15:49:42 - DEBUG -->  - GET - retrieve account doc 900a7c26988fd6e706fdac1a4dc07077
2016-01-04 15:49:42 - DEBUG --> Request coming from 162.216.4.136
2016-01-04 15:49:42 - INFO --> ======================================================
2016-01-04 15:49:42 - INFO --> ================== Starting process ==================
2016-01-04 15:49:42 - INFO --> ======================================================
2016-01-04 15:49:42 - DEBUG --> Connecting to BigCouch...
2016-01-04 15:49:42 - DEBUG -->  - POST - edit account doc 900a7c26988fd6e706fdac1a4dc07077
2016-01-04 15:49:42 - DEBUG --> Request coming from 162.216.4.136
2016-01-04 15:49:43 - INFO --> ======================================================
2016-01-04 15:49:43 - INFO --> ================== Starting process ==================
2016-01-04 15:49:43 - INFO --> ======================================================
2016-01-04 15:49:43 - DEBUG --> Connecting to BigCouch...
2016-01-04 15:49:43 - DEBUG -->  - GET - retrieve account doc 900a7c26988fd6e706fdac1a4dc07077 for mac doc 000e084b935c
2016-01-04 15:49:43 - DEBUG --> Request coming from 162.216.4.136
2016-01-04 15:49:43 - INFO --> ======================================================
2016-01-04 15:49:43 - INFO --> ================== Starting process ==================
2016-01-04 15:49:43 - INFO --> ======================================================
2016-01-04 15:49:43 - DEBUG --> Connecting to BigCouch...
2016-01-04 15:49:43 - DEBUG -->  - POST - edit in doc 900a7c26988fd6e706fdac1a4dc07077 mac address 000e084b935c
2016-01-04 15:49:43 - DEBUG --> Request coming from 162.216.4.136
2016-01-04 15:49:43 - DEBUG --> Will now edit the mac_lookup...
2016-01-04 15:49:43 - DEBUG --> done... Edit for account 900a7c26988fd6e706fdac1a4dc07077 and mac_address 000e084b935c SUCCESS
2016-01-04 15:59:31 - INFO --> ======================================================
2016-01-04 15:59:31 - INFO --> ================== Starting process ==================
2016-01-04 15:59:31 - INFO --> ======================================================
2016-01-04 15:59:31 - DEBUG --> Connecting to BigCouch...
2016-01-04 15:59:31 - DEBUG -->  - GET - retrieve account doc 900a7c26988fd6e706fdac1a4dc07077
2016-01-04 15:59:31 - DEBUG --> Request coming from 162.216.4.136
2016-01-04 15:59:31 - INFO --> ======================================================
2016-01-04 15:59:31 - INFO --> ================== Starting process ==================
2016-01-04 15:59:31 - INFO --> ======================================================
2016-01-04 15:59:31 - DEBUG --> Connecting to BigCouch...
2016-01-04 15:59:31 - DEBUG -->  - POST - edit account doc 900a7c26988fd6e706fdac1a4dc07077
2016-01-04 15:59:31 - DEBUG --> Request coming from 162.216.4.136
2016-01-04 16:01:27 - INFO --> ======================================================
2016-01-04 16:01:27 - INFO --> ================== Starting process ==================
2016-01-04 16:01:27 - INFO --> ======================================================
2016-01-04 16:01:27 - DEBUG --> Connecting to BigCouch...
2016-01-04 16:01:27 - DEBUG -->  - GET - retrieve account doc 900a7c26988fd6e706fdac1a4dc07077
2016-01-04 16:01:27 - DEBUG --> Request coming from 162.216.4.136
2016-01-04 16:01:27 - INFO --> ======================================================
2016-01-04 16:01:27 - INFO --> ================== Starting process ==================
2016-01-04 16:01:27 - INFO --> ======================================================
2016-01-04 16:01:27 - DEBUG --> Connecting to BigCouch...
2016-01-04 16:01:27 - DEBUG -->  - POST - edit account doc 900a7c26988fd6e706fdac1a4dc07077
2016-01-04 16:01:27 - DEBUG --> Request coming from 162.216.4.136
2016-01-04 16:01:27 - INFO --> ======================================================
2016-01-04 16:01:27 - INFO --> ================== Starting process ==================
2016-01-04 16:01:27 - INFO --> ======================================================
2016-01-04 16:01:27 - DEBUG --> Connecting to BigCouch...
2016-01-04 16:01:27 - DEBUG -->  - GET - retrieve account doc 900a7c26988fd6e706fdac1a4dc07077 for mac doc 000e084b935c
2016-01-04 16:01:27 - DEBUG --> Request coming from 162.216.4.136
2016-01-04 16:01:28 - INFO --> ======================================================
2016-01-04 16:01:28 - INFO --> ================== Starting process ==================
2016-01-04 16:01:28 - INFO --> ======================================================
2016-01-04 16:01:28 - DEBUG --> Connecting to BigCouch...
2016-01-04 16:01:28 - DEBUG -->  - POST - edit in doc 900a7c26988fd6e706fdac1a4dc07077 mac address 000e084b935c
2016-01-04 16:01:28 - DEBUG --> Request coming from 162.216.4.136
2016-01-04 16:01:28 - DEBUG --> Will now edit the mac_lookup...
2016-01-04 16:01:28 - DEBUG --> done... Edit for account 900a7c26988fd6e706fdac1a4dc07077 and mac_address 000e084b935c SUCCESS
