2015-10-01 10:30:42 - INFO --> ======================================================
2015-10-01 10:30:42 - INFO --> ================== Starting process ==================
2015-10-01 10:30:42 - INFO --> ======================================================
2015-10-01 10:30:42 - DEBUG --> Connecting to BigCouch...
2015-10-01 10:30:42 - DEBUG -->  - GET - retrieve account doc 973be02c9e1dfdc41fb7f33b4c71c129
2015-10-01 10:30:42 - DEBUG --> Request coming from 162.216.4.136
2015-10-01 10:30:42 - INFO --> ======================================================
2015-10-01 10:30:42 - INFO --> ================== Starting process ==================
2015-10-01 10:30:42 - INFO --> ======================================================
2015-10-01 10:30:42 - DEBUG --> Connecting to BigCouch...
2015-10-01 10:30:42 - DEBUG -->  - POST - edit account doc 973be02c9e1dfdc41fb7f33b4c71c129
2015-10-01 10:30:42 - DEBUG --> Request coming from 162.216.4.136
2015-10-01 10:30:43 - INFO --> ======================================================
2015-10-01 10:30:43 - INFO --> ================== Starting process ==================
2015-10-01 10:30:43 - INFO --> ======================================================
2015-10-01 10:30:43 - DEBUG --> Connecting to BigCouch...
2015-10-01 10:30:43 - DEBUG -->  - GET - retrieve account doc 973be02c9e1dfdc41fb7f33b4c71c129 for mac doc 0015658cccc6
2015-10-01 10:30:43 - DEBUG --> Request coming from 162.216.4.136
2015-10-01 10:30:43 - INFO --> ======================================================
2015-10-01 10:30:43 - INFO --> ================== Starting process ==================
2015-10-01 10:30:43 - INFO --> ======================================================
2015-10-01 10:30:43 - DEBUG --> Connecting to BigCouch...
2015-10-01 10:30:43 - DEBUG -->  - POST - edit in doc 973be02c9e1dfdc41fb7f33b4c71c129 mac address 0015658cccc6
2015-10-01 10:30:43 - DEBUG --> Request coming from 162.216.4.136
2015-10-01 10:30:43 - DEBUG --> Will now edit the mac_lookup...
2015-10-01 15:55:22 - INFO --> ======================================================
2015-10-01 15:55:22 - INFO --> ================== Starting process ==================
2015-10-01 15:55:22 - INFO --> ======================================================
2015-10-01 15:55:22 - DEBUG --> Connecting to BigCouch...
2015-10-01 15:55:22 - DEBUG -->  - GET - retrieve account doc dbbdab1f3bf14d5f5221a890dc91faed
2015-10-01 15:55:22 - DEBUG --> Request coming from 162.216.4.136
2015-10-01 15:55:22 - INFO --> ======================================================
2015-10-01 15:55:22 - INFO --> ================== Starting process ==================
2015-10-01 15:55:22 - INFO --> ======================================================
2015-10-01 15:55:22 - DEBUG --> Connecting to BigCouch...
2015-10-01 15:55:22 - DEBUG -->  - POST - edit account doc dbbdab1f3bf14d5f5221a890dc91faed
2015-10-01 15:55:22 - DEBUG --> Request coming from 162.216.4.136
