2015-04-22 9:37:42 - INFO --> ======================================================
2015-04-22 9:37:42 - INFO --> ================== Starting process ==================
2015-04-22 9:37:42 - INFO --> ======================================================
2015-04-22 9:37:42 - DEBUG --> Connecting to BigCouch...
2015-04-22 9:37:42 - DEBUG -->  - GET - retrieve account doc bb37491a4286938f0368c1ce71c65f0f
2015-04-22 9:37:42 - DEBUG --> Request coming from 24.181.114.161
2015-04-22 9:37:42 - INFO --> ======================================================
2015-04-22 9:37:42 - INFO --> ================== Starting process ==================
2015-04-22 9:37:42 - INFO --> ======================================================
2015-04-22 9:37:42 - DEBUG --> Connecting to BigCouch...
2015-04-22 9:37:42 - DEBUG -->  - GET - retrieve account doc bb37491a4286938f0368c1ce71c65f0f
2015-04-22 9:37:42 - DEBUG --> Request coming from 24.181.114.161
2015-04-22 9:37:43 - INFO --> ======================================================
2015-04-22 9:37:43 - INFO --> ================== Starting process ==================
2015-04-22 9:37:43 - INFO --> ======================================================
2015-04-22 9:37:43 - DEBUG --> Connecting to BigCouch...
2015-04-22 9:37:43 - DEBUG -->  - GET - retrieve account doc bb37491a4286938f0368c1ce71c65f0f
2015-04-22 9:37:43 - DEBUG --> Request coming from 24.181.114.161
2015-04-22 9:37:43 - INFO --> ======================================================
2015-04-22 9:37:43 - INFO --> ================== Starting process ==================
2015-04-22 9:37:43 - INFO --> ======================================================
2015-04-22 9:37:43 - DEBUG --> Connecting to BigCouch...
2015-04-22 9:37:43 - DEBUG -->  - GET - retrieve account doc bb37491a4286938f0368c1ce71c65f0f
2015-04-22 9:37:43 - DEBUG --> Request coming from 24.181.114.161
2015-04-22 9:37:44 - INFO --> ======================================================
2015-04-22 9:37:44 - INFO --> ================== Starting process ==================
2015-04-22 9:37:44 - INFO --> ======================================================
2015-04-22 9:37:44 - DEBUG --> Connecting to BigCouch...
2015-04-22 9:37:44 - DEBUG -->  - GET - retrieve account doc bb37491a4286938f0368c1ce71c65f0f
2015-04-22 9:37:44 - DEBUG --> Request coming from 24.181.114.161
2015-04-22 9:37:44 - INFO --> ======================================================
2015-04-22 9:37:44 - INFO --> ================== Starting process ==================
2015-04-22 9:37:44 - INFO --> ======================================================
2015-04-22 9:37:44 - DEBUG --> Connecting to BigCouch...
2015-04-22 9:37:44 - DEBUG -->  - GET - retrieve account doc bb37491a4286938f0368c1ce71c65f0f
2015-04-22 9:37:44 - DEBUG --> Request coming from 24.181.114.161
2015-04-22 9:37:44 - INFO --> ======================================================
2015-04-22 9:37:44 - INFO --> ================== Starting process ==================
2015-04-22 9:37:44 - INFO --> ======================================================
2015-04-22 9:37:44 - DEBUG --> Connecting to BigCouch...
2015-04-22 9:37:44 - DEBUG -->  - GET - retrieve account doc bb37491a4286938f0368c1ce71c65f0f
2015-04-22 9:37:44 - DEBUG --> Request coming from 24.181.114.161
2015-04-22 9:37:44 - INFO --> ======================================================
2015-04-22 9:37:44 - INFO --> ================== Starting process ==================
2015-04-22 9:37:44 - INFO --> ======================================================
2015-04-22 9:37:44 - DEBUG --> Connecting to BigCouch...
2015-04-22 9:37:44 - DEBUG -->  - GET - retrieve account doc bb37491a4286938f0368c1ce71c65f0f
2015-04-22 9:37:44 - DEBUG --> Request coming from 24.181.114.161
2015-04-22 9:37:45 - INFO --> ======================================================
2015-04-22 9:37:45 - INFO --> ================== Starting process ==================
2015-04-22 9:37:45 - INFO --> ======================================================
2015-04-22 9:37:45 - DEBUG --> Connecting to BigCouch...
2015-04-22 9:37:45 - DEBUG -->  - GET - retrieve account doc bb37491a4286938f0368c1ce71c65f0f
2015-04-22 9:37:45 - DEBUG --> Request coming from 24.181.114.161
2015-04-22 9:37:45 - INFO --> ======================================================
2015-04-22 9:37:45 - INFO --> ================== Starting process ==================
2015-04-22 9:37:45 - INFO --> ======================================================
2015-04-22 9:37:45 - DEBUG --> Connecting to BigCouch...
2015-04-22 9:37:45 - DEBUG -->  - GET - retrieve account doc bb37491a4286938f0368c1ce71c65f0f
2015-04-22 9:37:45 - DEBUG --> Request coming from 24.181.114.161
2015-04-22 9:37:46 - INFO --> ======================================================
2015-04-22 9:37:46 - INFO --> ================== Starting process ==================
2015-04-22 9:37:46 - INFO --> ======================================================
2015-04-22 9:37:46 - DEBUG --> Connecting to BigCouch...
2015-04-22 9:37:46 - DEBUG -->  - GET - retrieve account doc bb37491a4286938f0368c1ce71c65f0f
2015-04-22 9:37:46 - DEBUG --> Request coming from 24.181.114.161
2015-04-22 9:37:56 - INFO --> ======================================================
2015-04-22 9:37:56 - INFO --> ================== Starting process ==================
2015-04-22 9:37:56 - INFO --> ======================================================
2015-04-22 9:37:56 - DEBUG --> Connecting to BigCouch...
2015-04-22 9:37:56 - DEBUG -->  - GET - retrieve account doc bb37491a4286938f0368c1ce71c65f0f
2015-04-22 9:37:56 - DEBUG --> Request coming from 162.216.4.136
2015-04-22 9:37:56 - INFO --> ======================================================
2015-04-22 9:37:56 - INFO --> ================== Starting process ==================
2015-04-22 9:37:56 - INFO --> ======================================================
2015-04-22 9:37:56 - DEBUG --> Connecting to BigCouch...
2015-04-22 9:37:56 - DEBUG -->  - POST - edit account doc bb37491a4286938f0368c1ce71c65f0f
2015-04-22 9:37:56 - DEBUG --> Request coming from 162.216.4.136
2015-04-22 9:37:57 - INFO --> ======================================================
2015-04-22 9:37:57 - INFO --> ================== Starting process ==================
2015-04-22 9:37:57 - INFO --> ======================================================
2015-04-22 9:37:57 - DEBUG --> Connecting to BigCouch...
2015-04-22 9:37:57 - DEBUG -->  - GET - retrieve account doc bb37491a4286938f0368c1ce71c65f0f for mac doc 001565644704
2015-04-22 9:37:57 - DEBUG --> Request coming from 162.216.4.136
2015-04-22 9:37:57 - INFO --> ======================================================
2015-04-22 9:37:57 - INFO --> ================== Starting process ==================
2015-04-22 9:37:57 - INFO --> ======================================================
2015-04-22 9:37:57 - DEBUG --> Connecting to BigCouch...
2015-04-22 9:37:57 - DEBUG -->  - POST - edit in doc bb37491a4286938f0368c1ce71c65f0f mac address 001565644704
2015-04-22 9:37:57 - DEBUG --> Request coming from 162.216.4.136
2015-04-22 9:37:57 - DEBUG --> Will now edit the mac_lookup...
2015-04-22 9:37:57 - DEBUG --> done... Edit for account bb37491a4286938f0368c1ce71c65f0f and mac_address 001565644704 SUCCESS
2015-04-22 9:42:05 - INFO --> ======================================================
2015-04-22 9:42:05 - INFO --> ================== Starting process ==================
2015-04-22 9:42:05 - INFO --> ======================================================
2015-04-22 9:42:05 - DEBUG --> Connecting to BigCouch...
2015-04-22 9:42:05 - DEBUG -->  - GET - retrieve account doc bb37491a4286938f0368c1ce71c65f0f
2015-04-22 9:42:05 - DEBUG --> Request coming from 162.216.4.136
2015-04-22 9:42:05 - INFO --> ======================================================
2015-04-22 9:42:05 - INFO --> ================== Starting process ==================
2015-04-22 9:42:05 - INFO --> ======================================================
2015-04-22 9:42:05 - DEBUG --> Connecting to BigCouch...
2015-04-22 9:42:05 - DEBUG -->  - GET - retrieve account doc bb37491a4286938f0368c1ce71c65f0f
2015-04-22 9:42:05 - DEBUG --> Request coming from 162.216.4.136
2015-04-22 9:42:06 - INFO --> ======================================================
2015-04-22 9:42:06 - INFO --> ================== Starting process ==================
2015-04-22 9:42:06 - INFO --> ======================================================
2015-04-22 9:42:06 - DEBUG --> Connecting to BigCouch...
2015-04-22 9:42:06 - DEBUG -->  - POST - edit account doc bb37491a4286938f0368c1ce71c65f0f
2015-04-22 9:42:06 - DEBUG --> Request coming from 162.216.4.136
2015-04-22 9:42:06 - INFO --> ======================================================
2015-04-22 9:42:06 - INFO --> ================== Starting process ==================
2015-04-22 9:42:06 - INFO --> ======================================================
2015-04-22 9:42:06 - DEBUG --> Connecting to BigCouch...
2015-04-22 9:42:06 - DEBUG -->  - POST - edit account doc bb37491a4286938f0368c1ce71c65f0f
2015-04-22 9:42:06 - DEBUG --> Request coming from 162.216.4.136
2015-04-22 9:42:06 - DEBUG --> Could not save key:provider_id - EXIT
2015-04-22 9:42:06 - INFO --> ======================================================
2015-04-22 9:42:06 - INFO --> ================== Starting process ==================
2015-04-22 9:42:06 - INFO --> ======================================================
2015-04-22 9:42:06 - DEBUG --> Connecting to BigCouch...
2015-04-22 9:42:06 - DEBUG -->  - GET - retrieve account doc bb37491a4286938f0368c1ce71c65f0f for mac doc 00156578ba8a
2015-04-22 9:42:06 - DEBUG --> Request coming from 162.216.4.136
2015-04-22 9:42:06 - INFO --> ======================================================
2015-04-22 9:42:06 - INFO --> ================== Starting process ==================
2015-04-22 9:42:06 - INFO --> ======================================================
2015-04-22 9:42:06 - DEBUG --> Connecting to BigCouch...
2015-04-22 9:42:06 - DEBUG -->  - POST - edit in doc bb37491a4286938f0368c1ce71c65f0f mac address 00156578ba8a
2015-04-22 9:42:06 - DEBUG --> Request coming from 162.216.4.136
2015-04-22 9:42:06 - DEBUG --> Will now edit the mac_lookup...
2015-04-22 9:42:06 - DEBUG --> done... Edit for account bb37491a4286938f0368c1ce71c65f0f and mac_address 00156578ba8a SUCCESS
2015-04-22 9:42:10 - INFO --> ======================================================
2015-04-22 9:42:10 - INFO --> ================== Starting process ==================
2015-04-22 9:42:10 - INFO --> ======================================================
2015-04-22 9:42:10 - DEBUG --> Connecting to BigCouch...
2015-04-22 9:42:10 - DEBUG -->  - GET - retrieve account doc bb37491a4286938f0368c1ce71c65f0f
2015-04-22 9:42:10 - DEBUG --> Request coming from 162.216.4.136
2015-04-22 9:42:10 - INFO --> ======================================================
2015-04-22 9:42:10 - INFO --> ================== Starting process ==================
2015-04-22 9:42:10 - INFO --> ======================================================
2015-04-22 9:42:10 - DEBUG --> Connecting to BigCouch...
2015-04-22 9:42:10 - DEBUG -->  - GET - retrieve account doc bb37491a4286938f0368c1ce71c65f0f
2015-04-22 9:42:10 - DEBUG --> Request coming from 162.216.4.136
2015-04-22 9:42:10 - INFO --> ======================================================
2015-04-22 9:42:10 - INFO --> ================== Starting process ==================
2015-04-22 9:42:10 - INFO --> ======================================================
2015-04-22 9:42:10 - DEBUG --> Connecting to BigCouch...
2015-04-22 9:42:10 - DEBUG -->  - POST - edit account doc bb37491a4286938f0368c1ce71c65f0f
2015-04-22 9:42:10 - DEBUG --> Request coming from 162.216.4.136
2015-04-22 9:42:10 - INFO --> ======================================================
2015-04-22 9:42:10 - INFO --> ================== Starting process ==================
2015-04-22 9:42:10 - INFO --> ======================================================
2015-04-22 9:42:10 - DEBUG --> Connecting to BigCouch...
2015-04-22 9:42:10 - DEBUG -->  - POST - edit account doc bb37491a4286938f0368c1ce71c65f0f
2015-04-22 9:42:10 - DEBUG --> Request coming from 162.216.4.136
2015-04-22 9:42:10 - DEBUG --> Could not save key:provider_id - EXIT
2015-04-22 9:42:10 - INFO --> ======================================================
2015-04-22 9:42:10 - INFO --> ================== Starting process ==================
2015-04-22 9:42:10 - INFO --> ======================================================
2015-04-22 9:42:10 - DEBUG --> Connecting to BigCouch...
2015-04-22 9:42:10 - DEBUG -->  - GET - retrieve account doc bb37491a4286938f0368c1ce71c65f0f for mac doc 00156578ba8a
2015-04-22 9:42:10 - DEBUG --> Request coming from 162.216.4.136
2015-04-22 9:42:11 - INFO --> ======================================================
2015-04-22 9:42:11 - INFO --> ================== Starting process ==================
2015-04-22 9:42:11 - INFO --> ======================================================
2015-04-22 9:42:11 - DEBUG --> Connecting to BigCouch...
2015-04-22 9:42:11 - DEBUG -->  - POST - edit in doc bb37491a4286938f0368c1ce71c65f0f mac address 00156578ba8a
2015-04-22 9:42:11 - DEBUG --> Request coming from 162.216.4.136
2015-04-22 9:42:11 - DEBUG --> Will now edit the mac_lookup...
2015-04-22 9:42:11 - DEBUG --> done... Edit for account bb37491a4286938f0368c1ce71c65f0f and mac_address 00156578ba8a SUCCESS
2015-04-22 10:10:23 - INFO --> ======================================================
2015-04-22 10:10:23 - INFO --> ================== Starting process ==================
2015-04-22 10:10:23 - INFO --> ======================================================
2015-04-22 10:10:23 - DEBUG --> Connecting to BigCouch...
2015-04-22 10:10:23 - DEBUG -->  - GET - retrieve account doc bb37491a4286938f0368c1ce71c65f0f
2015-04-22 10:10:23 - DEBUG --> Request coming from 162.216.4.136
2015-04-22 10:10:23 - INFO --> ======================================================
2015-04-22 10:10:23 - INFO --> ================== Starting process ==================
2015-04-22 10:10:23 - INFO --> ======================================================
2015-04-22 10:10:23 - DEBUG --> Connecting to BigCouch...
2015-04-22 10:10:23 - DEBUG -->  - POST - edit account doc bb37491a4286938f0368c1ce71c65f0f
2015-04-22 10:10:23 - DEBUG --> Request coming from 162.216.4.136
2015-04-22 10:10:23 - INFO --> ======================================================
2015-04-22 10:10:23 - INFO --> ================== Starting process ==================
2015-04-22 10:10:23 - INFO --> ======================================================
2015-04-22 10:10:23 - DEBUG --> Connecting to BigCouch...
2015-04-22 10:10:23 - DEBUG -->  - GET - retrieve account doc bb37491a4286938f0368c1ce71c65f0f for mac doc 00156578c0ac
2015-04-22 10:10:23 - DEBUG --> Request coming from 162.216.4.136
2015-04-22 10:10:23 - INFO --> ======================================================
2015-04-22 10:10:23 - INFO --> ================== Starting process ==================
2015-04-22 10:10:23 - INFO --> ======================================================
2015-04-22 10:10:23 - DEBUG --> Connecting to BigCouch...
2015-04-22 10:10:23 - DEBUG -->  - POST - edit in doc bb37491a4286938f0368c1ce71c65f0f mac address 00156578c0ac
2015-04-22 10:10:23 - DEBUG --> Request coming from 162.216.4.136
2015-04-22 10:10:24 - DEBUG --> Will now edit the mac_lookup...
2015-04-22 10:10:24 - DEBUG --> done... Edit for account bb37491a4286938f0368c1ce71c65f0f and mac_address 00156578c0ac SUCCESS
2015-04-22 10:10:59 - INFO --> ======================================================
2015-04-22 10:10:59 - INFO --> ================== Starting process ==================
2015-04-22 10:10:59 - INFO --> ======================================================
2015-04-22 10:10:59 - DEBUG --> Connecting to BigCouch...
2015-04-22 10:10:59 - DEBUG -->  - GET - retrieve account doc bb37491a4286938f0368c1ce71c65f0f
2015-04-22 10:10:59 - DEBUG --> Request coming from 162.216.4.136
2015-04-22 10:10:59 - INFO --> ======================================================
2015-04-22 10:10:59 - INFO --> ================== Starting process ==================
2015-04-22 10:10:59 - INFO --> ======================================================
2015-04-22 10:10:59 - DEBUG --> Connecting to BigCouch...
2015-04-22 10:10:59 - DEBUG -->  - POST - edit account doc bb37491a4286938f0368c1ce71c65f0f
2015-04-22 10:10:59 - DEBUG --> Request coming from 162.216.4.136
2015-04-22 10:11:00 - INFO --> ======================================================
2015-04-22 10:11:00 - INFO --> ================== Starting process ==================
2015-04-22 10:11:00 - INFO --> ======================================================
2015-04-22 10:11:00 - DEBUG --> Connecting to BigCouch...
2015-04-22 10:11:00 - DEBUG -->  - GET - retrieve account doc bb37491a4286938f0368c1ce71c65f0f for mac doc 00156578c0ac
2015-04-22 10:11:00 - DEBUG --> Request coming from 162.216.4.136
2015-04-22 10:11:00 - INFO --> ======================================================
2015-04-22 10:11:00 - INFO --> ================== Starting process ==================
2015-04-22 10:11:00 - INFO --> ======================================================
2015-04-22 10:11:00 - DEBUG --> Connecting to BigCouch...
2015-04-22 10:11:00 - DEBUG -->  - POST - edit in doc bb37491a4286938f0368c1ce71c65f0f mac address 00156578c0ac
2015-04-22 10:11:00 - DEBUG --> Request coming from 162.216.4.136
2015-04-22 10:11:00 - DEBUG --> Will now edit the mac_lookup...
2015-04-22 10:11:00 - DEBUG --> done... Edit for account bb37491a4286938f0368c1ce71c65f0f and mac_address 00156578c0ac SUCCESS
2015-04-22 10:11:02 - INFO --> ======================================================
2015-04-22 10:11:02 - INFO --> ================== Starting process ==================
2015-04-22 10:11:02 - INFO --> ======================================================
2015-04-22 10:11:02 - DEBUG --> Connecting to BigCouch...
2015-04-22 10:11:02 - DEBUG -->  - GET - retrieve account doc bb37491a4286938f0368c1ce71c65f0f
2015-04-22 10:11:02 - DEBUG --> Request coming from 162.216.4.136
2015-04-22 10:11:02 - INFO --> ======================================================
2015-04-22 10:11:02 - INFO --> ================== Starting process ==================
2015-04-22 10:11:02 - INFO --> ======================================================
2015-04-22 10:11:02 - DEBUG --> Connecting to BigCouch...
2015-04-22 10:11:02 - DEBUG -->  - POST - edit account doc bb37491a4286938f0368c1ce71c65f0f
2015-04-22 10:11:02 - DEBUG --> Request coming from 162.216.4.136
2015-04-22 10:11:03 - INFO --> ======================================================
2015-04-22 10:11:03 - INFO --> ================== Starting process ==================
2015-04-22 10:11:03 - INFO --> ======================================================
2015-04-22 10:11:03 - DEBUG --> Connecting to BigCouch...
2015-04-22 10:11:03 - DEBUG -->  - GET - retrieve account doc bb37491a4286938f0368c1ce71c65f0f for mac doc 00156578c0ac
2015-04-22 10:11:03 - DEBUG --> Request coming from 162.216.4.136
2015-04-22 10:11:03 - INFO --> ======================================================
2015-04-22 10:11:03 - INFO --> ================== Starting process ==================
2015-04-22 10:11:03 - INFO --> ======================================================
2015-04-22 10:11:03 - DEBUG --> Connecting to BigCouch...
2015-04-22 10:11:03 - DEBUG -->  - POST - edit in doc bb37491a4286938f0368c1ce71c65f0f mac address 00156578c0ac
2015-04-22 10:11:03 - DEBUG --> Request coming from 162.216.4.136
2015-04-22 10:11:03 - DEBUG --> Will now edit the mac_lookup...
2015-04-22 10:11:03 - DEBUG --> done... Edit for account bb37491a4286938f0368c1ce71c65f0f and mac_address 00156578c0ac SUCCESS
2015-04-22 10:11:21 - INFO --> ======================================================
2015-04-22 10:11:21 - INFO --> ================== Starting process ==================
2015-04-22 10:11:21 - INFO --> ======================================================
2015-04-22 10:11:21 - DEBUG --> Connecting to BigCouch...
2015-04-22 10:11:21 - DEBUG -->  - GET - retrieve account doc bb37491a4286938f0368c1ce71c65f0f
2015-04-22 10:11:21 - DEBUG --> Request coming from 162.216.4.136
2015-04-22 10:11:21 - INFO --> ======================================================
2015-04-22 10:11:21 - INFO --> ================== Starting process ==================
2015-04-22 10:11:21 - INFO --> ======================================================
2015-04-22 10:11:21 - DEBUG --> Connecting to BigCouch...
2015-04-22 10:11:21 - DEBUG -->  - POST - edit account doc bb37491a4286938f0368c1ce71c65f0f
2015-04-22 10:11:21 - DEBUG --> Request coming from 162.216.4.136
2015-04-22 10:11:21 - INFO --> ======================================================
2015-04-22 10:11:21 - INFO --> ================== Starting process ==================
2015-04-22 10:11:21 - INFO --> ======================================================
2015-04-22 10:11:21 - DEBUG --> Connecting to BigCouch...
2015-04-22 10:11:21 - DEBUG -->  - GET - retrieve account doc bb37491a4286938f0368c1ce71c65f0f for mac doc 00156578c0ac
2015-04-22 10:11:21 - DEBUG --> Request coming from 162.216.4.136
2015-04-22 10:11:21 - INFO --> ======================================================
2015-04-22 10:11:21 - INFO --> ================== Starting process ==================
2015-04-22 10:11:21 - INFO --> ======================================================
2015-04-22 10:11:21 - DEBUG --> Connecting to BigCouch...
2015-04-22 10:11:21 - DEBUG -->  - POST - edit in doc bb37491a4286938f0368c1ce71c65f0f mac address 00156578c0ac
2015-04-22 10:11:21 - DEBUG --> Request coming from 162.216.4.136
2015-04-22 10:11:22 - DEBUG --> Will now edit the mac_lookup...
2015-04-22 10:11:22 - DEBUG --> done... Edit for account bb37491a4286938f0368c1ce71c65f0f and mac_address 00156578c0ac SUCCESS
2015-04-22 10:11:38 - INFO --> ======================================================
2015-04-22 10:11:38 - INFO --> ================== Starting process ==================
2015-04-22 10:11:38 - INFO --> ======================================================
2015-04-22 10:11:38 - DEBUG --> Connecting to BigCouch...
2015-04-22 10:11:38 - DEBUG -->  - GET - retrieve account doc bb37491a4286938f0368c1ce71c65f0f
2015-04-22 10:11:38 - DEBUG --> Request coming from 24.181.114.161
2015-04-22 10:11:38 - INFO --> ======================================================
2015-04-22 10:11:38 - INFO --> ================== Starting process ==================
2015-04-22 10:11:38 - INFO --> ======================================================
2015-04-22 10:11:38 - DEBUG --> Connecting to BigCouch...
2015-04-22 10:11:38 - DEBUG -->  - GET - retrieve account doc bb37491a4286938f0368c1ce71c65f0f
2015-04-22 10:11:38 - DEBUG --> Request coming from 24.181.114.161
2015-04-22 10:11:39 - INFO --> ======================================================
2015-04-22 10:11:39 - INFO --> ================== Starting process ==================
2015-04-22 10:11:39 - INFO --> ======================================================
2015-04-22 10:11:39 - DEBUG --> Connecting to BigCouch...
2015-04-22 10:11:39 - DEBUG -->  - GET - retrieve account doc bb37491a4286938f0368c1ce71c65f0f
2015-04-22 10:11:39 - DEBUG --> Request coming from 24.181.114.161
2015-04-22 10:11:39 - INFO --> ======================================================
2015-04-22 10:11:39 - INFO --> ================== Starting process ==================
2015-04-22 10:11:39 - INFO --> ======================================================
2015-04-22 10:11:39 - DEBUG --> Connecting to BigCouch...
2015-04-22 10:11:39 - DEBUG -->  - GET - retrieve account doc bb37491a4286938f0368c1ce71c65f0f
2015-04-22 10:11:39 - DEBUG --> Request coming from 24.181.114.161
2015-04-22 10:11:39 - INFO --> ======================================================
2015-04-22 10:11:39 - INFO --> ================== Starting process ==================
2015-04-22 10:11:39 - INFO --> ======================================================
2015-04-22 10:11:39 - DEBUG --> Connecting to BigCouch...
2015-04-22 10:11:39 - DEBUG -->  - GET - retrieve account doc bb37491a4286938f0368c1ce71c65f0f
2015-04-22 10:11:39 - DEBUG --> Request coming from 24.181.114.161
2015-04-22 10:11:39 - INFO --> ======================================================
2015-04-22 10:11:39 - INFO --> ================== Starting process ==================
2015-04-22 10:11:39 - INFO --> ======================================================
2015-04-22 10:11:39 - DEBUG --> Connecting to BigCouch...
2015-04-22 10:11:39 - DEBUG -->  - GET - retrieve account doc bb37491a4286938f0368c1ce71c65f0f
2015-04-22 10:11:39 - DEBUG --> Request coming from 24.181.114.161
2015-04-22 10:11:40 - INFO --> ======================================================
2015-04-22 10:11:40 - INFO --> ================== Starting process ==================
2015-04-22 10:11:40 - INFO --> ======================================================
2015-04-22 10:11:40 - DEBUG --> Connecting to BigCouch...
2015-04-22 10:11:40 - DEBUG -->  - GET - retrieve account doc bb37491a4286938f0368c1ce71c65f0f
2015-04-22 10:11:40 - DEBUG --> Request coming from 24.181.114.161
2015-04-22 10:11:40 - INFO --> ======================================================
2015-04-22 10:11:40 - INFO --> ================== Starting process ==================
2015-04-22 10:11:40 - INFO --> ======================================================
2015-04-22 10:11:40 - DEBUG --> Connecting to BigCouch...
2015-04-22 10:11:40 - DEBUG -->  - GET - retrieve account doc bb37491a4286938f0368c1ce71c65f0f
2015-04-22 10:11:40 - DEBUG --> Request coming from 24.181.114.161
2015-04-22 10:11:42 - INFO --> ======================================================
2015-04-22 10:11:42 - INFO --> ================== Starting process ==================
2015-04-22 10:11:42 - INFO --> ======================================================
2015-04-22 10:11:42 - DEBUG --> Connecting to BigCouch...
2015-04-22 10:11:42 - DEBUG -->  - GET - retrieve account doc bb37491a4286938f0368c1ce71c65f0f for mac doc devices
2015-04-22 10:11:42 - DEBUG --> Request coming from 24.181.114.161
2015-04-22 10:11:42 - DEBUG --> No doc for this mac address - EXIT
2015-04-22 10:11:51 - INFO --> ======================================================
2015-04-22 10:11:51 - INFO --> ================== Starting process ==================
2015-04-22 10:11:51 - INFO --> ======================================================
2015-04-22 10:11:51 - DEBUG --> Connecting to BigCouch...
2015-04-22 10:11:51 - DEBUG -->  - GET - retrieve account doc bb37491a4286938f0368c1ce71c65f0f
2015-04-22 10:11:51 - DEBUG --> Request coming from 24.181.114.161
2015-04-22 10:11:52 - INFO --> ======================================================
2015-04-22 10:11:52 - INFO --> ================== Starting process ==================
2015-04-22 10:11:52 - INFO --> ======================================================
2015-04-22 10:11:52 - DEBUG --> Connecting to BigCouch...
2015-04-22 10:11:52 - DEBUG -->  - GET - retrieve account doc bb37491a4286938f0368c1ce71c65f0f
2015-04-22 10:11:52 - DEBUG --> Request coming from 24.181.114.161
2015-04-22 10:12:04 - INFO --> ======================================================
2015-04-22 10:12:04 - INFO --> ================== Starting process ==================
2015-04-22 10:12:04 - INFO --> ======================================================
2015-04-22 10:12:04 - DEBUG --> Connecting to BigCouch...
2015-04-22 10:12:04 - DEBUG -->  - GET - retrieve account doc bb37491a4286938f0368c1ce71c65f0f
2015-04-22 10:12:04 - DEBUG --> Request coming from 162.216.4.136
2015-04-22 10:12:04 - INFO --> ======================================================
2015-04-22 10:12:04 - INFO --> ================== Starting process ==================
2015-04-22 10:12:04 - INFO --> ======================================================
2015-04-22 10:12:04 - DEBUG --> Connecting to BigCouch...
2015-04-22 10:12:04 - DEBUG -->  - POST - edit account doc bb37491a4286938f0368c1ce71c65f0f
2015-04-22 10:12:04 - DEBUG --> Request coming from 162.216.4.136
2015-04-22 10:12:05 - INFO --> ======================================================
2015-04-22 10:12:05 - INFO --> ================== Starting process ==================
2015-04-22 10:12:05 - INFO --> ======================================================
2015-04-22 10:12:05 - DEBUG --> Connecting to BigCouch...
2015-04-22 10:12:05 - DEBUG -->  - GET - retrieve account doc bb37491a4286938f0368c1ce71c65f0f for mac doc 00156578c0ac
2015-04-22 10:12:05 - DEBUG --> Request coming from 162.216.4.136
2015-04-22 10:12:05 - INFO --> ======================================================
2015-04-22 10:12:05 - INFO --> ================== Starting process ==================
2015-04-22 10:12:05 - INFO --> ======================================================
2015-04-22 10:12:05 - DEBUG --> Connecting to BigCouch...
2015-04-22 10:12:05 - DEBUG -->  - POST - edit in doc bb37491a4286938f0368c1ce71c65f0f mac address 00156578c0ac
2015-04-22 10:12:05 - DEBUG --> Request coming from 162.216.4.136
2015-04-22 10:12:05 - DEBUG --> Will now edit the mac_lookup...
2015-04-22 10:12:05 - DEBUG --> done... Edit for account bb37491a4286938f0368c1ce71c65f0f and mac_address 00156578c0ac SUCCESS
2015-04-22 10:12:12 - INFO --> ======================================================
2015-04-22 10:12:12 - INFO --> ================== Starting process ==================
2015-04-22 10:12:12 - INFO --> ======================================================
2015-04-22 10:12:12 - DEBUG --> Connecting to BigCouch...
2015-04-22 10:12:12 - DEBUG -->  - GET - retrieve account doc bb37491a4286938f0368c1ce71c65f0f
2015-04-22 10:12:12 - DEBUG --> Request coming from 162.216.4.136
2015-04-22 10:12:12 - INFO --> ======================================================
2015-04-22 10:12:12 - INFO --> ================== Starting process ==================
2015-04-22 10:12:12 - INFO --> ======================================================
2015-04-22 10:12:12 - DEBUG --> Connecting to BigCouch...
2015-04-22 10:12:12 - DEBUG -->  - POST - edit account doc bb37491a4286938f0368c1ce71c65f0f
2015-04-22 10:12:12 - DEBUG --> Request coming from 162.216.4.136
2015-04-22 10:12:12 - INFO --> ======================================================
2015-04-22 10:12:12 - INFO --> ================== Starting process ==================
2015-04-22 10:12:12 - INFO --> ======================================================
2015-04-22 10:12:12 - DEBUG --> Connecting to BigCouch...
2015-04-22 10:12:12 - DEBUG -->  - GET - retrieve account doc bb37491a4286938f0368c1ce71c65f0f for mac doc 00156578c0ac
2015-04-22 10:12:12 - DEBUG --> Request coming from 162.216.4.136
2015-04-22 10:12:12 - INFO --> ======================================================
2015-04-22 10:12:12 - INFO --> ================== Starting process ==================
2015-04-22 10:12:12 - INFO --> ======================================================
2015-04-22 10:12:12 - DEBUG --> Connecting to BigCouch...
2015-04-22 10:12:12 - DEBUG -->  - POST - edit in doc bb37491a4286938f0368c1ce71c65f0f mac address 00156578c0ac
2015-04-22 10:12:12 - DEBUG --> Request coming from 162.216.4.136
2015-04-22 10:12:12 - DEBUG --> Will now edit the mac_lookup...
2015-04-22 10:12:12 - DEBUG --> done... Edit for account bb37491a4286938f0368c1ce71c65f0f and mac_address 00156578c0ac SUCCESS
2015-04-22 10:12:15 - INFO --> ======================================================
2015-04-22 10:12:15 - INFO --> ================== Starting process ==================
2015-04-22 10:12:15 - INFO --> ======================================================
2015-04-22 10:12:15 - DEBUG --> Connecting to BigCouch...
2015-04-22 10:12:15 - DEBUG -->  - GET - retrieve account doc bb37491a4286938f0368c1ce71c65f0f
2015-04-22 10:12:15 - DEBUG --> Request coming from 162.216.4.136
2015-04-22 10:12:15 - INFO --> ======================================================
2015-04-22 10:12:15 - INFO --> ================== Starting process ==================
2015-04-22 10:12:15 - INFO --> ======================================================
2015-04-22 10:12:15 - DEBUG --> Connecting to BigCouch...
2015-04-22 10:12:15 - DEBUG -->  - POST - edit account doc bb37491a4286938f0368c1ce71c65f0f
2015-04-22 10:12:15 - DEBUG --> Request coming from 162.216.4.136
2015-04-22 10:12:16 - INFO --> ======================================================
2015-04-22 10:12:16 - INFO --> ================== Starting process ==================
2015-04-22 10:12:16 - INFO --> ======================================================
2015-04-22 10:12:16 - DEBUG --> Connecting to BigCouch...
2015-04-22 10:12:16 - DEBUG -->  - GET - retrieve account doc bb37491a4286938f0368c1ce71c65f0f for mac doc 00156578c0ac
2015-04-22 10:12:16 - DEBUG --> Request coming from 162.216.4.136
2015-04-22 10:12:16 - INFO --> ======================================================
2015-04-22 10:12:16 - INFO --> ================== Starting process ==================
2015-04-22 10:12:16 - INFO --> ======================================================
2015-04-22 10:12:16 - DEBUG --> Connecting to BigCouch...
2015-04-22 10:12:16 - DEBUG -->  - POST - edit in doc bb37491a4286938f0368c1ce71c65f0f mac address 00156578c0ac
2015-04-22 10:12:16 - DEBUG --> Request coming from 162.216.4.136
2015-04-22 10:12:16 - DEBUG --> Will now edit the mac_lookup...
2015-04-22 10:12:16 - DEBUG --> done... Edit for account bb37491a4286938f0368c1ce71c65f0f and mac_address 00156578c0ac SUCCESS
2015-04-22 10:12:40 - INFO --> ======================================================
2015-04-22 10:12:40 - INFO --> ================== Starting process ==================
2015-04-22 10:12:40 - INFO --> ======================================================
2015-04-22 10:12:40 - DEBUG --> Connecting to BigCouch...
2015-04-22 10:12:40 - DEBUG -->  - DELETE - Deleting a device (00156578c0ac) for account bb37491a4286938f0368c1ce71c65f0f...
2015-04-22 10:12:40 - DEBUG --> Request coming from 162.216.4.136
2015-04-22 10:12:40 - DEBUG --> The device does exist... let's delete it
2015-04-22 10:12:40 - DEBUG --> Now deleting the mac lookup entry...
2015-04-22 10:12:40 - DEBUG --> Successfully deleted device (00156578c0ac)
2015-04-22 10:13:50 - INFO --> ======================================================
2015-04-22 10:13:50 - INFO --> ================== Starting process ==================
2015-04-22 10:13:50 - INFO --> ======================================================
2015-04-22 10:13:50 - DEBUG --> Connecting to BigCouch...
2015-04-22 10:13:50 - DEBUG -->  - GET - retrieve account doc bb37491a4286938f0368c1ce71c65f0f
2015-04-22 10:13:50 - DEBUG --> Request coming from 162.216.4.136
2015-04-22 10:13:51 - INFO --> ======================================================
2015-04-22 10:13:51 - INFO --> ================== Starting process ==================
2015-04-22 10:13:51 - INFO --> ======================================================
2015-04-22 10:13:51 - DEBUG --> Connecting to BigCouch...
2015-04-22 10:13:51 - DEBUG -->  - POST - edit account doc bb37491a4286938f0368c1ce71c65f0f
2015-04-22 10:13:51 - DEBUG --> Request coming from 162.216.4.136
2015-04-22 10:13:51 - INFO --> ======================================================
2015-04-22 10:13:51 - INFO --> ================== Starting process ==================
2015-04-22 10:13:51 - INFO --> ======================================================
2015-04-22 10:13:51 - DEBUG --> Connecting to BigCouch...
2015-04-22 10:13:51 - DEBUG -->  - GET - retrieve account doc bb37491a4286938f0368c1ce71c65f0f for mac doc 00156578c0ac
2015-04-22 10:13:51 - DEBUG --> Request coming from 162.216.4.136
2015-04-22 10:13:51 - DEBUG --> No doc for this mac address - EXIT
2015-04-22 10:13:51 - INFO --> ======================================================
2015-04-22 10:13:51 - INFO --> ================== Starting process ==================
2015-04-22 10:13:51 - INFO --> ======================================================
2015-04-22 10:13:51 - DEBUG --> Connecting to BigCouch...
2015-04-22 10:13:51 - DEBUG -->  - PUT - Adding account first...
2015-04-22 10:13:51 - DEBUG --> Request coming from 162.216.4.136
2015-04-22 10:13:51 - DEBUG --> Adding the device with mac_address 00156578c0ac...
2015-04-22 10:13:51 - DEBUG --> The mac_lookup...
2015-04-22 10:13:51 - DEBUG --> SUCCESS! exit...
2015-04-22 10:14:28 - INFO --> ======================================================
2015-04-22 10:14:28 - INFO --> ================== Starting process ==================
2015-04-22 10:14:28 - INFO --> ======================================================
2015-04-22 10:14:28 - DEBUG --> Connecting to BigCouch...
2015-04-22 10:14:28 - DEBUG -->  - GET - retrieve account doc bb37491a4286938f0368c1ce71c65f0f
2015-04-22 10:14:28 - DEBUG --> Request coming from 162.216.4.136
2015-04-22 10:14:29 - INFO --> ======================================================
2015-04-22 10:14:29 - INFO --> ================== Starting process ==================
2015-04-22 10:14:29 - INFO --> ======================================================
2015-04-22 10:14:29 - DEBUG --> Connecting to BigCouch...
2015-04-22 10:14:29 - DEBUG -->  - POST - edit account doc bb37491a4286938f0368c1ce71c65f0f
2015-04-22 10:14:29 - DEBUG --> Request coming from 162.216.4.136
2015-04-22 10:14:29 - INFO --> ======================================================
2015-04-22 10:14:29 - INFO --> ================== Starting process ==================
2015-04-22 10:14:29 - INFO --> ======================================================
2015-04-22 10:14:29 - DEBUG --> Connecting to BigCouch...
2015-04-22 10:14:29 - DEBUG -->  - GET - retrieve account doc bb37491a4286938f0368c1ce71c65f0f for mac doc 00156578c0ac
2015-04-22 10:14:29 - DEBUG --> Request coming from 162.216.4.136
2015-04-22 10:14:29 - INFO --> ======================================================
2015-04-22 10:14:29 - INFO --> ================== Starting process ==================
2015-04-22 10:14:29 - INFO --> ======================================================
2015-04-22 10:14:29 - DEBUG --> Connecting to BigCouch...
2015-04-22 10:14:29 - DEBUG -->  - POST - edit in doc bb37491a4286938f0368c1ce71c65f0f mac address 00156578c0ac
2015-04-22 10:14:29 - DEBUG --> Request coming from 162.216.4.136
2015-04-22 10:14:29 - DEBUG --> Will now edit the mac_lookup...
2015-04-22 10:14:29 - DEBUG --> done... Edit for account bb37491a4286938f0368c1ce71c65f0f and mac_address 00156578c0ac SUCCESS
2015-04-22 10:15:28 - INFO --> ======================================================
2015-04-22 10:15:28 - INFO --> ================== Starting process ==================
2015-04-22 10:15:28 - INFO --> ======================================================
2015-04-22 10:15:28 - DEBUG --> Connecting to BigCouch...
2015-04-22 10:15:28 - DEBUG -->  - GET - retrieve account doc bb37491a4286938f0368c1ce71c65f0f
2015-04-22 10:15:28 - DEBUG --> Request coming from 162.216.4.136
2015-04-22 10:15:28 - INFO --> ======================================================
2015-04-22 10:15:28 - INFO --> ================== Starting process ==================
2015-04-22 10:15:28 - INFO --> ======================================================
2015-04-22 10:15:28 - DEBUG --> Connecting to BigCouch...
2015-04-22 10:15:28 - DEBUG -->  - POST - edit account doc bb37491a4286938f0368c1ce71c65f0f
2015-04-22 10:15:28 - DEBUG --> Request coming from 162.216.4.136
2015-04-22 10:15:28 - INFO --> ======================================================
2015-04-22 10:15:28 - INFO --> ================== Starting process ==================
2015-04-22 10:15:28 - INFO --> ======================================================
2015-04-22 10:15:28 - DEBUG --> Connecting to BigCouch...
2015-04-22 10:15:28 - DEBUG -->  - GET - retrieve account doc bb37491a4286938f0368c1ce71c65f0f for mac doc 00156578c0ac
2015-04-22 10:15:28 - DEBUG --> Request coming from 162.216.4.136
2015-04-22 10:15:28 - DEBUG --> No doc for this mac address - EXIT
2015-04-22 10:15:29 - INFO --> ======================================================
2015-04-22 10:15:29 - INFO --> ================== Starting process ==================
2015-04-22 10:15:29 - INFO --> ======================================================
2015-04-22 10:15:29 - DEBUG --> Connecting to BigCouch...
2015-04-22 10:15:29 - DEBUG -->  - PUT - Adding account first...
2015-04-22 10:15:29 - DEBUG --> Request coming from 162.216.4.136
2015-04-22 10:15:29 - DEBUG --> Adding the device with mac_address 00156578c0ac...
2015-04-22 10:15:29 - DEBUG --> Could not add the mac_lookup entry... EXIT
2015-04-22 10:15:44 - INFO --> ======================================================
2015-04-22 10:15:44 - INFO --> ================== Starting process ==================
2015-04-22 10:15:44 - INFO --> ======================================================
2015-04-22 10:15:44 - DEBUG --> Connecting to BigCouch...
2015-04-22 10:15:44 - DEBUG -->  - GET - retrieve account doc bb37491a4286938f0368c1ce71c65f0f for mac doc 00156578c0ac
2015-04-22 10:15:44 - DEBUG --> Request coming from 24.181.114.161
2015-04-22 10:15:45 - INFO --> ======================================================
2015-04-22 10:15:45 - INFO --> ================== Starting process ==================
2015-04-22 10:15:45 - INFO --> ======================================================
2015-04-22 10:15:45 - DEBUG --> Connecting to BigCouch...
2015-04-22 10:15:45 - DEBUG -->  - GET - retrieve account doc bb37491a4286938f0368c1ce71c65f0f for mac doc 00156578c0ac
2015-04-22 10:15:45 - DEBUG --> Request coming from 24.181.114.161
2015-04-22 10:15:45 - INFO --> ======================================================
2015-04-22 10:15:45 - INFO --> ================== Starting process ==================
2015-04-22 10:15:45 - INFO --> ======================================================
2015-04-22 10:15:45 - DEBUG --> Connecting to BigCouch...
2015-04-22 10:15:45 - DEBUG -->  - GET - retrieve account doc bb37491a4286938f0368c1ce71c65f0f for mac doc 00156578c0ac
2015-04-22 10:15:45 - DEBUG --> Request coming from 24.181.114.161
2015-04-22 10:15:46 - INFO --> ======================================================
2015-04-22 10:15:46 - INFO --> ================== Starting process ==================
2015-04-22 10:15:46 - INFO --> ======================================================
2015-04-22 10:15:46 - DEBUG --> Connecting to BigCouch...
2015-04-22 10:15:46 - DEBUG -->  - GET - retrieve account doc bb37491a4286938f0368c1ce71c65f0f for mac doc 00156578c0ac
2015-04-22 10:15:46 - DEBUG --> Request coming from 24.181.114.161
2015-04-22 10:15:59 - INFO --> ======================================================
2015-04-22 10:15:59 - INFO --> ================== Starting process ==================
2015-04-22 10:15:59 - INFO --> ======================================================
2015-04-22 10:15:59 - DEBUG --> Connecting to BigCouch...
2015-04-22 10:15:59 - DEBUG -->  - GET - retrieve account doc bb37491a4286938f0368c1ce71c65f0f
2015-04-22 10:15:59 - DEBUG --> Request coming from 162.216.4.136
2015-04-22 10:15:59 - INFO --> ======================================================
2015-04-22 10:15:59 - INFO --> ================== Starting process ==================
2015-04-22 10:15:59 - INFO --> ======================================================
2015-04-22 10:15:59 - DEBUG --> Connecting to BigCouch...
2015-04-22 10:15:59 - DEBUG -->  - POST - edit account doc bb37491a4286938f0368c1ce71c65f0f
2015-04-22 10:15:59 - DEBUG --> Request coming from 162.216.4.136
2015-04-22 10:15:59 - INFO --> ======================================================
2015-04-22 10:15:59 - INFO --> ================== Starting process ==================
2015-04-22 10:15:59 - INFO --> ======================================================
2015-04-22 10:15:59 - DEBUG --> Connecting to BigCouch...
2015-04-22 10:15:59 - DEBUG -->  - GET - retrieve account doc bb37491a4286938f0368c1ce71c65f0f for mac doc 00156578c0ac
2015-04-22 10:15:59 - DEBUG --> Request coming from 162.216.4.136
2015-04-22 10:15:59 - INFO --> ======================================================
2015-04-22 10:15:59 - INFO --> ================== Starting process ==================
2015-04-22 10:15:59 - INFO --> ======================================================
2015-04-22 10:15:59 - DEBUG --> Connecting to BigCouch...
2015-04-22 10:15:59 - DEBUG -->  - POST - edit in doc bb37491a4286938f0368c1ce71c65f0f mac address 00156578c0ac
2015-04-22 10:15:59 - DEBUG --> Request coming from 162.216.4.136
2015-04-22 10:16:00 - DEBUG --> Will now edit the mac_lookup...
2015-04-22 10:16:00 - DEBUG --> done... Edit for account bb37491a4286938f0368c1ce71c65f0f and mac_address 00156578c0ac SUCCESS
2015-04-22 10:16:01 - INFO --> ======================================================
2015-04-22 10:16:01 - INFO --> ================== Starting process ==================
2015-04-22 10:16:01 - INFO --> ======================================================
2015-04-22 10:16:01 - DEBUG --> Connecting to BigCouch...
2015-04-22 10:16:01 - DEBUG -->  - GET - retrieve account doc bb37491a4286938f0368c1ce71c65f0f for mac doc 00156578c0ac
2015-04-22 10:16:01 - DEBUG --> Request coming from 24.181.114.161
2015-04-22 10:16:02 - INFO --> ======================================================
2015-04-22 10:16:02 - INFO --> ================== Starting process ==================
2015-04-22 10:16:02 - INFO --> ======================================================
2015-04-22 10:16:02 - DEBUG --> Connecting to BigCouch...
2015-04-22 10:16:02 - DEBUG -->  - GET - retrieve account doc bb37491a4286938f0368c1ce71c65f0f for mac doc 00156578c0ac
2015-04-22 10:16:02 - DEBUG --> Request coming from 24.181.114.161
2015-04-22 10:16:02 - INFO --> ======================================================
2015-04-22 10:16:02 - INFO --> ================== Starting process ==================
2015-04-22 10:16:02 - INFO --> ======================================================
2015-04-22 10:16:02 - DEBUG --> Connecting to BigCouch...
2015-04-22 10:16:02 - DEBUG -->  - GET - retrieve account doc bb37491a4286938f0368c1ce71c65f0f for mac doc 00156578c0ac
2015-04-22 10:16:02 - DEBUG --> Request coming from 24.181.114.161
2015-04-22 10:16:03 - INFO --> ======================================================
2015-04-22 10:16:03 - INFO --> ================== Starting process ==================
2015-04-22 10:16:03 - INFO --> ======================================================
2015-04-22 10:16:03 - DEBUG --> Connecting to BigCouch...
2015-04-22 10:16:03 - DEBUG -->  - GET - retrieve account doc bb37491a4286938f0368c1ce71c65f0f for mac doc 00156578c0ac
2015-04-22 10:16:03 - DEBUG --> Request coming from 24.181.114.161
2015-04-22 10:16:03 - INFO --> ======================================================
2015-04-22 10:16:03 - INFO --> ================== Starting process ==================
2015-04-22 10:16:03 - INFO --> ======================================================
2015-04-22 10:16:03 - DEBUG --> Connecting to BigCouch...
2015-04-22 10:16:03 - DEBUG -->  - GET - retrieve account doc bb37491a4286938f0368c1ce71c65f0f for mac doc 00156578c0ac
2015-04-22 10:16:03 - DEBUG --> Request coming from 24.181.114.161
2015-04-22 10:16:04 - INFO --> ======================================================
2015-04-22 10:16:04 - INFO --> ================== Starting process ==================
2015-04-22 10:16:04 - INFO --> ======================================================
2015-04-22 10:16:04 - DEBUG --> Connecting to BigCouch...
2015-04-22 10:16:04 - DEBUG -->  - GET - retrieve account doc bb37491a4286938f0368c1ce71c65f0f for mac doc 00156578c0ac
2015-04-22 10:16:04 - DEBUG --> Request coming from 24.181.114.161
2015-04-22 10:16:04 - INFO --> ======================================================
2015-04-22 10:16:04 - INFO --> ================== Starting process ==================
2015-04-22 10:16:04 - INFO --> ======================================================
2015-04-22 10:16:04 - DEBUG --> Connecting to BigCouch...
2015-04-22 10:16:04 - DEBUG -->  - GET - retrieve account doc bb37491a4286938f0368c1ce71c65f0f for mac doc 00156578c0ac
2015-04-22 10:16:04 - DEBUG --> Request coming from 24.181.114.161
2015-04-22 10:16:05 - INFO --> ======================================================
2015-04-22 10:16:05 - INFO --> ================== Starting process ==================
2015-04-22 10:16:05 - INFO --> ======================================================
2015-04-22 10:16:05 - DEBUG --> Connecting to BigCouch...
2015-04-22 10:16:05 - DEBUG -->  - GET - retrieve account doc bb37491a4286938f0368c1ce71c65f0f for mac doc 00156578c0ac
2015-04-22 10:16:05 - DEBUG --> Request coming from 24.181.114.161
2015-04-22 10:17:16 - INFO --> ======================================================
2015-04-22 10:17:16 - INFO --> ================== Starting process ==================
2015-04-22 10:17:16 - INFO --> ======================================================
2015-04-22 10:17:16 - DEBUG --> Connecting to BigCouch...
2015-04-22 10:17:16 - DEBUG -->  - GET - retrieve account doc bb37491a4286938f0368c1ce71c65f0f
2015-04-22 10:17:16 - DEBUG --> Request coming from 162.216.4.136
2015-04-22 10:17:16 - INFO --> ======================================================
2015-04-22 10:17:16 - INFO --> ================== Starting process ==================
2015-04-22 10:17:16 - INFO --> ======================================================
2015-04-22 10:17:16 - DEBUG --> Connecting to BigCouch...
2015-04-22 10:17:16 - DEBUG -->  - POST - edit account doc bb37491a4286938f0368c1ce71c65f0f
2015-04-22 10:17:16 - DEBUG --> Request coming from 162.216.4.136
2015-04-22 10:17:16 - INFO --> ======================================================
2015-04-22 10:17:16 - INFO --> ================== Starting process ==================
2015-04-22 10:17:16 - INFO --> ======================================================
2015-04-22 10:17:16 - DEBUG --> Connecting to BigCouch...
2015-04-22 10:17:16 - DEBUG -->  - GET - retrieve account doc bb37491a4286938f0368c1ce71c65f0f for mac doc 00156578c0ac
2015-04-22 10:17:16 - DEBUG --> Request coming from 162.216.4.136
2015-04-22 10:17:16 - INFO --> ======================================================
2015-04-22 10:17:16 - INFO --> ================== Starting process ==================
2015-04-22 10:17:16 - INFO --> ======================================================
2015-04-22 10:17:16 - DEBUG --> Connecting to BigCouch...
2015-04-22 10:17:16 - DEBUG -->  - POST - edit in doc bb37491a4286938f0368c1ce71c65f0f mac address 00156578c0ac
2015-04-22 10:17:16 - DEBUG --> Request coming from 162.216.4.136
2015-04-22 10:17:16 - DEBUG --> Will now edit the mac_lookup...
2015-04-22 10:18:14 - INFO --> ======================================================
2015-04-22 10:18:14 - INFO --> ================== Starting process ==================
2015-04-22 10:18:14 - INFO --> ======================================================
2015-04-22 10:18:14 - DEBUG --> Connecting to BigCouch...
2015-04-22 10:18:14 - DEBUG -->  - GET - retrieve account doc bb37491a4286938f0368c1ce71c65f0f
2015-04-22 10:18:14 - DEBUG --> Request coming from 162.216.4.136
2015-04-22 10:18:14 - INFO --> ======================================================
2015-04-22 10:18:14 - INFO --> ================== Starting process ==================
2015-04-22 10:18:14 - INFO --> ======================================================
2015-04-22 10:18:14 - DEBUG --> Connecting to BigCouch...
2015-04-22 10:18:14 - DEBUG -->  - POST - edit account doc bb37491a4286938f0368c1ce71c65f0f
2015-04-22 10:18:14 - DEBUG --> Request coming from 162.216.4.136
2015-04-22 10:18:14 - INFO --> ======================================================
2015-04-22 10:18:14 - INFO --> ================== Starting process ==================
2015-04-22 10:18:14 - INFO --> ======================================================
2015-04-22 10:18:14 - DEBUG --> Connecting to BigCouch...
2015-04-22 10:18:14 - DEBUG -->  - GET - retrieve account doc bb37491a4286938f0368c1ce71c65f0f for mac doc 00156578c0ac
2015-04-22 10:18:14 - DEBUG --> Request coming from 162.216.4.136
2015-04-22 10:18:14 - INFO --> ======================================================
2015-04-22 10:18:14 - INFO --> ================== Starting process ==================
2015-04-22 10:18:14 - INFO --> ======================================================
2015-04-22 10:18:14 - DEBUG --> Connecting to BigCouch...
2015-04-22 10:18:14 - DEBUG -->  - POST - edit in doc bb37491a4286938f0368c1ce71c65f0f mac address 00156578c0ac
2015-04-22 10:18:14 - DEBUG --> Request coming from 162.216.4.136
2015-04-22 10:18:14 - DEBUG --> Will now edit the mac_lookup...
2015-04-22 10:18:14 - DEBUG --> done... Edit for account bb37491a4286938f0368c1ce71c65f0f and mac_address 00156578c0ac SUCCESS
2015-04-22 10:18:15 - INFO --> ======================================================
2015-04-22 10:18:15 - INFO --> ================== Starting process ==================
2015-04-22 10:18:15 - INFO --> ======================================================
2015-04-22 10:18:15 - DEBUG --> Connecting to BigCouch...
2015-04-22 10:18:15 - DEBUG -->  - GET - retrieve account doc bb37491a4286938f0368c1ce71c65f0f
2015-04-22 10:18:15 - DEBUG --> Request coming from 162.216.4.136
2015-04-22 10:18:15 - INFO --> ======================================================
2015-04-22 10:18:15 - INFO --> ================== Starting process ==================
2015-04-22 10:18:15 - INFO --> ======================================================
2015-04-22 10:18:15 - DEBUG --> Connecting to BigCouch...
2015-04-22 10:18:15 - DEBUG -->  - POST - edit account doc bb37491a4286938f0368c1ce71c65f0f
2015-04-22 10:18:15 - DEBUG --> Request coming from 162.216.4.136
2015-04-22 10:18:15 - INFO --> ======================================================
2015-04-22 10:18:15 - INFO --> ================== Starting process ==================
2015-04-22 10:18:15 - INFO --> ======================================================
2015-04-22 10:18:15 - DEBUG --> Connecting to BigCouch...
2015-04-22 10:18:15 - DEBUG -->  - GET - retrieve account doc bb37491a4286938f0368c1ce71c65f0f for mac doc 00156578c0ac
2015-04-22 10:18:15 - DEBUG --> Request coming from 162.216.4.136
2015-04-22 10:18:16 - INFO --> ======================================================
2015-04-22 10:18:16 - INFO --> ================== Starting process ==================
2015-04-22 10:18:16 - INFO --> ======================================================
2015-04-22 10:18:16 - DEBUG --> Connecting to BigCouch...
2015-04-22 10:18:16 - DEBUG -->  - POST - edit in doc bb37491a4286938f0368c1ce71c65f0f mac address 00156578c0ac
2015-04-22 10:18:16 - DEBUG --> Request coming from 162.216.4.136
2015-04-22 10:18:16 - DEBUG --> Will now edit the mac_lookup...
2015-04-22 10:18:16 - DEBUG --> done... Edit for account bb37491a4286938f0368c1ce71c65f0f and mac_address 00156578c0ac SUCCESS
2015-04-22 10:18:57 - INFO --> ======================================================
2015-04-22 10:18:57 - INFO --> ================== Starting process ==================
2015-04-22 10:18:57 - INFO --> ======================================================
2015-04-22 10:18:57 - DEBUG --> Connecting to BigCouch...
2015-04-22 10:18:57 - DEBUG -->  - GET - retrieve account doc bb37491a4286938f0368c1ce71c65f0f
2015-04-22 10:18:57 - DEBUG --> Request coming from 162.216.4.136
2015-04-22 10:18:57 - DEBUG --> No account with this id - EXIT
2015-04-22 10:18:57 - INFO --> ======================================================
2015-04-22 10:18:57 - INFO --> ================== Starting process ==================
2015-04-22 10:18:57 - INFO --> ======================================================
2015-04-22 10:18:57 - DEBUG --> Connecting to BigCouch...
2015-04-22 10:18:57 - DEBUG -->  - PUT - Adding account first...
2015-04-22 10:18:57 - DEBUG --> Request coming from 162.216.4.136
2015-04-22 10:18:57 - DEBUG --> Successfully Add account
2015-04-22 10:18:57 - INFO --> ======================================================
2015-04-22 10:18:57 - INFO --> ================== Starting process ==================
2015-04-22 10:18:57 - INFO --> ======================================================
2015-04-22 10:18:57 - DEBUG --> Connecting to BigCouch...
2015-04-22 10:18:57 - DEBUG -->  - GET - retrieve account doc bb37491a4286938f0368c1ce71c65f0f for mac doc 001565644704
2015-04-22 10:18:57 - DEBUG --> Request coming from 162.216.4.136
2015-04-22 10:18:57 - DEBUG --> No doc for this mac address - EXIT
2015-04-22 10:18:57 - INFO --> ======================================================
2015-04-22 10:18:57 - INFO --> ================== Starting process ==================
2015-04-22 10:18:57 - INFO --> ======================================================
2015-04-22 10:18:57 - DEBUG --> Connecting to BigCouch...
2015-04-22 10:18:57 - DEBUG -->  - PUT - Adding account first...
2015-04-22 10:18:57 - DEBUG --> Request coming from 162.216.4.136
2015-04-22 10:18:57 - DEBUG --> Adding the device with mac_address 001565644704...
2015-04-22 10:18:57 - DEBUG --> Could not add the mac_lookup entry... EXIT
2015-04-22 10:19:22 - INFO --> ======================================================
2015-04-22 10:19:22 - INFO --> ================== Starting process ==================
2015-04-22 10:19:22 - INFO --> ======================================================
2015-04-22 10:19:22 - DEBUG --> Connecting to BigCouch...
2015-04-22 10:19:22 - DEBUG -->  - GET - retrieve account doc bb37491a4286938f0368c1ce71c65f0f
2015-04-22 10:19:22 - DEBUG --> Request coming from 162.216.4.136
2015-04-22 10:19:22 - INFO --> ======================================================
2015-04-22 10:19:22 - INFO --> ================== Starting process ==================
2015-04-22 10:19:22 - INFO --> ======================================================
2015-04-22 10:19:22 - DEBUG --> Connecting to BigCouch...
2015-04-22 10:19:22 - DEBUG -->  - POST - edit account doc bb37491a4286938f0368c1ce71c65f0f
2015-04-22 10:19:22 - DEBUG --> Request coming from 162.216.4.136
2015-04-22 10:19:22 - INFO --> ======================================================
2015-04-22 10:19:22 - INFO --> ================== Starting process ==================
2015-04-22 10:19:22 - INFO --> ======================================================
2015-04-22 10:19:22 - DEBUG --> Connecting to BigCouch...
2015-04-22 10:19:22 - DEBUG -->  - GET - retrieve account doc bb37491a4286938f0368c1ce71c65f0f for mac doc 001565747648
2015-04-22 10:19:22 - DEBUG --> Request coming from 162.216.4.136
2015-04-22 10:19:22 - DEBUG --> No doc for this mac address - EXIT
2015-04-22 10:19:23 - INFO --> ======================================================
2015-04-22 10:19:23 - INFO --> ================== Starting process ==================
2015-04-22 10:19:23 - INFO --> ======================================================
2015-04-22 10:19:23 - DEBUG --> Connecting to BigCouch...
2015-04-22 10:19:23 - DEBUG -->  - PUT - Adding account first...
2015-04-22 10:19:23 - DEBUG --> Request coming from 162.216.4.136
2015-04-22 10:19:23 - DEBUG --> Adding the device with mac_address 001565747648...
2015-04-22 10:19:23 - DEBUG --> Could not add the mac_lookup entry... EXIT
2015-04-22 10:20:16 - INFO --> ======================================================
2015-04-22 10:20:16 - INFO --> ================== Starting process ==================
2015-04-22 10:20:16 - INFO --> ======================================================
2015-04-22 10:20:16 - DEBUG --> Connecting to BigCouch...
2015-04-22 10:20:16 - DEBUG -->  - GET - retrieve account doc bb37491a4286938f0368c1ce71c65f0f
2015-04-22 10:20:16 - DEBUG --> Request coming from 162.216.4.136
2015-04-22 10:20:16 - INFO --> ======================================================
2015-04-22 10:20:16 - INFO --> ================== Starting process ==================
2015-04-22 10:20:16 - INFO --> ======================================================
2015-04-22 10:20:16 - DEBUG --> Connecting to BigCouch...
2015-04-22 10:20:16 - DEBUG -->  - POST - edit account doc bb37491a4286938f0368c1ce71c65f0f
2015-04-22 10:20:16 - DEBUG --> Request coming from 162.216.4.136
2015-04-22 10:20:17 - INFO --> ======================================================
2015-04-22 10:20:17 - INFO --> ================== Starting process ==================
2015-04-22 10:20:17 - INFO --> ======================================================
2015-04-22 10:20:17 - DEBUG --> Connecting to BigCouch...
2015-04-22 10:20:17 - DEBUG -->  - GET - retrieve account doc bb37491a4286938f0368c1ce71c65f0f for mac doc 001565747648
2015-04-22 10:20:17 - DEBUG --> Request coming from 162.216.4.136
2015-04-22 10:20:17 - INFO --> ======================================================
2015-04-22 10:20:17 - INFO --> ================== Starting process ==================
2015-04-22 10:20:17 - INFO --> ======================================================
2015-04-22 10:20:17 - DEBUG --> Connecting to BigCouch...
2015-04-22 10:20:17 - DEBUG -->  - POST - edit in doc bb37491a4286938f0368c1ce71c65f0f mac address 001565747648
2015-04-22 10:20:17 - DEBUG --> Request coming from 162.216.4.136
2015-04-22 10:20:17 - DEBUG --> Will now edit the mac_lookup...
2015-04-22 10:20:17 - DEBUG --> done... Edit for account bb37491a4286938f0368c1ce71c65f0f and mac_address 001565747648 SUCCESS
2015-04-22 10:20:26 - INFO --> ======================================================
2015-04-22 10:20:26 - INFO --> ================== Starting process ==================
2015-04-22 10:20:26 - INFO --> ======================================================
2015-04-22 10:20:26 - DEBUG --> Connecting to BigCouch...
2015-04-22 10:20:26 - DEBUG -->  - GET - retrieve account doc bb37491a4286938f0368c1ce71c65f0f
2015-04-22 10:20:26 - DEBUG --> Request coming from 162.216.4.136
2015-04-22 10:20:26 - INFO --> ======================================================
2015-04-22 10:20:26 - INFO --> ================== Starting process ==================
2015-04-22 10:20:26 - INFO --> ======================================================
2015-04-22 10:20:26 - DEBUG --> Connecting to BigCouch...
2015-04-22 10:20:26 - DEBUG -->  - POST - edit account doc bb37491a4286938f0368c1ce71c65f0f
2015-04-22 10:20:26 - DEBUG --> Request coming from 162.216.4.136
2015-04-22 10:20:26 - INFO --> ======================================================
2015-04-22 10:20:26 - INFO --> ================== Starting process ==================
2015-04-22 10:20:26 - INFO --> ======================================================
2015-04-22 10:20:26 - DEBUG --> Connecting to BigCouch...
2015-04-22 10:20:26 - DEBUG -->  - GET - retrieve account doc bb37491a4286938f0368c1ce71c65f0f for mac doc 001565747648
2015-04-22 10:20:26 - DEBUG --> Request coming from 162.216.4.136
2015-04-22 10:20:26 - INFO --> ======================================================
2015-04-22 10:20:26 - INFO --> ================== Starting process ==================
2015-04-22 10:20:26 - INFO --> ======================================================
2015-04-22 10:20:26 - DEBUG --> Connecting to BigCouch...
2015-04-22 10:20:26 - DEBUG -->  - POST - edit in doc bb37491a4286938f0368c1ce71c65f0f mac address 001565747648
2015-04-22 10:20:26 - DEBUG --> Request coming from 162.216.4.136
2015-04-22 10:20:26 - DEBUG --> Will now edit the mac_lookup...
2015-04-22 10:20:26 - DEBUG --> done... Edit for account bb37491a4286938f0368c1ce71c65f0f and mac_address 001565747648 SUCCESS
2015-04-22 10:21:17 - INFO --> ======================================================
2015-04-22 10:21:17 - INFO --> ================== Starting process ==================
2015-04-22 10:21:17 - INFO --> ======================================================
2015-04-22 10:21:17 - DEBUG --> Connecting to BigCouch...
2015-04-22 10:21:17 - DEBUG -->  - GET - retrieve account doc bb37491a4286938f0368c1ce71c65f0f
2015-04-22 10:21:17 - DEBUG --> Request coming from 24.181.114.161
2015-04-22 10:21:18 - INFO --> ======================================================
2015-04-22 10:21:18 - INFO --> ================== Starting process ==================
2015-04-22 10:21:18 - INFO --> ======================================================
2015-04-22 10:21:18 - DEBUG --> Connecting to BigCouch...
2015-04-22 10:21:18 - DEBUG -->  - GET - retrieve account doc bb37491a4286938f0368c1ce71c65f0f
2015-04-22 10:21:18 - DEBUG --> Request coming from 24.181.114.161
2015-04-22 10:21:18 - INFO --> ======================================================
2015-04-22 10:21:18 - INFO --> ================== Starting process ==================
2015-04-22 10:21:18 - INFO --> ======================================================
2015-04-22 10:21:18 - DEBUG --> Connecting to BigCouch...
2015-04-22 10:21:18 - DEBUG -->  - GET - retrieve account doc bb37491a4286938f0368c1ce71c65f0f
2015-04-22 10:21:18 - DEBUG --> Request coming from 24.181.114.161
2015-04-22 10:21:18 - INFO --> ======================================================
2015-04-22 10:21:18 - INFO --> ================== Starting process ==================
2015-04-22 10:21:18 - INFO --> ======================================================
2015-04-22 10:21:18 - DEBUG --> Connecting to BigCouch...
2015-04-22 10:21:18 - DEBUG -->  - GET - retrieve account doc bb37491a4286938f0368c1ce71c65f0f
2015-04-22 10:21:18 - DEBUG --> Request coming from 24.181.114.161
2015-04-22 10:21:19 - INFO --> ======================================================
2015-04-22 10:21:19 - INFO --> ================== Starting process ==================
2015-04-22 10:21:19 - INFO --> ======================================================
2015-04-22 10:21:19 - DEBUG --> Connecting to BigCouch...
2015-04-22 10:21:19 - DEBUG -->  - GET - retrieve account doc bb37491a4286938f0368c1ce71c65f0f
2015-04-22 10:21:19 - DEBUG --> Request coming from 24.181.114.161
2015-04-22 10:21:19 - INFO --> ======================================================
2015-04-22 10:21:19 - INFO --> ================== Starting process ==================
2015-04-22 10:21:19 - INFO --> ======================================================
2015-04-22 10:21:19 - DEBUG --> Connecting to BigCouch...
2015-04-22 10:21:19 - DEBUG -->  - GET - retrieve account doc bb37491a4286938f0368c1ce71c65f0f
2015-04-22 10:21:19 - DEBUG --> Request coming from 24.181.114.161
2015-04-22 10:21:19 - INFO --> ======================================================
2015-04-22 10:21:19 - INFO --> ================== Starting process ==================
2015-04-22 10:21:19 - INFO --> ======================================================
2015-04-22 10:21:19 - DEBUG --> Connecting to BigCouch...
2015-04-22 10:21:19 - DEBUG -->  - GET - retrieve account doc bb37491a4286938f0368c1ce71c65f0f
2015-04-22 10:21:19 - DEBUG --> Request coming from 24.181.114.161
2015-04-22 10:23:26 - INFO --> ======================================================
2015-04-22 10:23:26 - INFO --> ================== Starting process ==================
2015-04-22 10:23:26 - INFO --> ======================================================
2015-04-22 10:23:26 - DEBUG --> Connecting to BigCouch...
2015-04-22 10:23:26 - DEBUG -->  - GET - retrieve account doc bb37491a4286938f0368c1ce71c65f0f
2015-04-22 10:23:26 - DEBUG --> Request coming from 162.216.4.136
2015-04-22 10:23:26 - INFO --> ======================================================
2015-04-22 10:23:26 - INFO --> ================== Starting process ==================
2015-04-22 10:23:26 - INFO --> ======================================================
2015-04-22 10:23:26 - DEBUG --> Connecting to BigCouch...
2015-04-22 10:23:26 - DEBUG -->  - POST - edit account doc bb37491a4286938f0368c1ce71c65f0f
2015-04-22 10:23:26 - DEBUG --> Request coming from 162.216.4.136
2015-04-22 10:23:26 - INFO --> ======================================================
2015-04-22 10:23:26 - INFO --> ================== Starting process ==================
2015-04-22 10:23:26 - INFO --> ======================================================
2015-04-22 10:23:26 - DEBUG --> Connecting to BigCouch...
2015-04-22 10:23:26 - DEBUG -->  - GET - retrieve account doc bb37491a4286938f0368c1ce71c65f0f for mac doc 001565747648
2015-04-22 10:23:26 - DEBUG --> Request coming from 162.216.4.136
2015-04-22 10:23:26 - INFO --> ======================================================
2015-04-22 10:23:26 - INFO --> ================== Starting process ==================
2015-04-22 10:23:26 - INFO --> ======================================================
2015-04-22 10:23:26 - DEBUG --> Connecting to BigCouch...
2015-04-22 10:23:26 - DEBUG -->  - POST - edit in doc bb37491a4286938f0368c1ce71c65f0f mac address 001565747648
2015-04-22 10:23:26 - DEBUG --> Request coming from 162.216.4.136
2015-04-22 10:23:26 - DEBUG --> Will now edit the mac_lookup...
2015-04-22 10:23:27 - DEBUG --> done... Edit for account bb37491a4286938f0368c1ce71c65f0f and mac_address 001565747648 SUCCESS
2015-04-22 10:23:30 - INFO --> ======================================================
2015-04-22 10:23:30 - INFO --> ================== Starting process ==================
2015-04-22 10:23:30 - INFO --> ======================================================
2015-04-22 10:23:30 - DEBUG --> Connecting to BigCouch...
2015-04-22 10:23:30 - DEBUG -->  - GET - retrieve account doc bb37491a4286938f0368c1ce71c65f0f
2015-04-22 10:23:30 - DEBUG --> Request coming from 162.216.4.136
2015-04-22 10:23:30 - INFO --> ======================================================
2015-04-22 10:23:30 - INFO --> ================== Starting process ==================
2015-04-22 10:23:30 - INFO --> ======================================================
2015-04-22 10:23:30 - DEBUG --> Connecting to BigCouch...
2015-04-22 10:23:30 - DEBUG -->  - POST - edit account doc bb37491a4286938f0368c1ce71c65f0f
2015-04-22 10:23:30 - DEBUG --> Request coming from 162.216.4.136
2015-04-22 10:23:30 - INFO --> ======================================================
2015-04-22 10:23:30 - INFO --> ================== Starting process ==================
2015-04-22 10:23:30 - INFO --> ======================================================
2015-04-22 10:23:30 - DEBUG --> Connecting to BigCouch...
2015-04-22 10:23:30 - DEBUG -->  - GET - retrieve account doc bb37491a4286938f0368c1ce71c65f0f for mac doc 001565747648
2015-04-22 10:23:30 - DEBUG --> Request coming from 162.216.4.136
2015-04-22 10:23:30 - INFO --> ======================================================
2015-04-22 10:23:30 - INFO --> ================== Starting process ==================
2015-04-22 10:23:30 - INFO --> ======================================================
2015-04-22 10:23:30 - DEBUG --> Connecting to BigCouch...
2015-04-22 10:23:30 - DEBUG -->  - POST - edit in doc bb37491a4286938f0368c1ce71c65f0f mac address 001565747648
2015-04-22 10:23:30 - DEBUG --> Request coming from 162.216.4.136
2015-04-22 10:23:31 - DEBUG --> Will now edit the mac_lookup...
2015-04-22 10:23:31 - DEBUG --> done... Edit for account bb37491a4286938f0368c1ce71c65f0f and mac_address 001565747648 SUCCESS
2015-04-22 10:24:59 - INFO --> ======================================================
2015-04-22 10:24:59 - INFO --> ================== Starting process ==================
2015-04-22 10:24:59 - INFO --> ======================================================
2015-04-22 10:24:59 - DEBUG --> Connecting to BigCouch...
2015-04-22 10:24:59 - DEBUG -->  - GET - retrieve account doc bb37491a4286938f0368c1ce71c65f0f
2015-04-22 10:24:59 - DEBUG --> Request coming from 162.216.4.136
2015-04-22 10:24:59 - INFO --> ======================================================
2015-04-22 10:24:59 - INFO --> ================== Starting process ==================
2015-04-22 10:24:59 - INFO --> ======================================================
2015-04-22 10:24:59 - DEBUG --> Connecting to BigCouch...
2015-04-22 10:24:59 - DEBUG -->  - POST - edit account doc bb37491a4286938f0368c1ce71c65f0f
2015-04-22 10:24:59 - DEBUG --> Request coming from 162.216.4.136
2015-04-22 10:24:59 - INFO --> ======================================================
2015-04-22 10:24:59 - INFO --> ================== Starting process ==================
2015-04-22 10:24:59 - INFO --> ======================================================
2015-04-22 10:24:59 - DEBUG --> Connecting to BigCouch...
2015-04-22 10:24:59 - DEBUG -->  - GET - retrieve account doc bb37491a4286938f0368c1ce71c65f0f for mac doc 00156578c0ac
2015-04-22 10:24:59 - DEBUG --> Request coming from 162.216.4.136
2015-04-22 10:24:59 - DEBUG --> No doc for this mac address - EXIT
2015-04-22 10:24:59 - INFO --> ======================================================
2015-04-22 10:24:59 - INFO --> ================== Starting process ==================
2015-04-22 10:24:59 - INFO --> ======================================================
2015-04-22 10:24:59 - DEBUG --> Connecting to BigCouch...
2015-04-22 10:24:59 - DEBUG -->  - PUT - Adding account first...
2015-04-22 10:24:59 - DEBUG --> Request coming from 162.216.4.136
2015-04-22 10:24:59 - DEBUG --> Adding the device with mac_address 00156578c0ac...
2015-04-22 10:24:59 - DEBUG --> Could not add the mac_lookup entry... EXIT
2015-04-22 10:36:25 - INFO --> ======================================================
2015-04-22 10:36:25 - INFO --> ================== Starting process ==================
2015-04-22 10:36:25 - INFO --> ======================================================
2015-04-22 10:36:25 - DEBUG --> Connecting to BigCouch...
2015-04-22 10:36:25 - DEBUG -->  - GET - retrieve account doc bb37491a4286938f0368c1ce71c65f0f
2015-04-22 10:36:25 - DEBUG --> Request coming from 162.216.4.136
2015-04-22 10:36:26 - INFO --> ======================================================
2015-04-22 10:36:26 - INFO --> ================== Starting process ==================
2015-04-22 10:36:26 - INFO --> ======================================================
2015-04-22 10:36:26 - DEBUG --> Connecting to BigCouch...
2015-04-22 10:36:26 - DEBUG -->  - POST - edit account doc bb37491a4286938f0368c1ce71c65f0f
2015-04-22 10:36:26 - DEBUG --> Request coming from 162.216.4.136
2015-04-22 10:36:26 - INFO --> ======================================================
2015-04-22 10:36:26 - INFO --> ================== Starting process ==================
2015-04-22 10:36:26 - INFO --> ======================================================
2015-04-22 10:36:26 - DEBUG --> Connecting to BigCouch...
2015-04-22 10:36:26 - DEBUG -->  - GET - retrieve account doc bb37491a4286938f0368c1ce71c65f0f for mac doc 00156578ba54
2015-04-22 10:36:26 - DEBUG --> Request coming from 162.216.4.136
2015-04-22 10:36:26 - DEBUG --> No doc for this mac address - EXIT
2015-04-22 10:36:26 - INFO --> ======================================================
2015-04-22 10:36:26 - INFO --> ================== Starting process ==================
2015-04-22 10:36:26 - INFO --> ======================================================
2015-04-22 10:36:26 - DEBUG --> Connecting to BigCouch...
2015-04-22 10:36:26 - DEBUG -->  - PUT - Adding account first...
2015-04-22 10:36:26 - DEBUG --> Request coming from 162.216.4.136
2015-04-22 10:36:26 - DEBUG --> Adding the device with mac_address 00156578ba54...
2015-04-22 10:36:26 - DEBUG --> Could not add the mac_lookup entry... EXIT
2015-04-22 10:37:54 - INFO --> ======================================================
2015-04-22 10:37:54 - INFO --> ================== Starting process ==================
2015-04-22 10:37:54 - INFO --> ======================================================
2015-04-22 10:37:54 - DEBUG --> Connecting to BigCouch...
2015-04-22 10:37:54 - DEBUG -->  - GET - retrieve account doc bb37491a4286938f0368c1ce71c65f0f
2015-04-22 10:37:54 - DEBUG --> Request coming from 162.216.4.136
2015-04-22 10:37:54 - INFO --> ======================================================
2015-04-22 10:37:54 - INFO --> ================== Starting process ==================
2015-04-22 10:37:54 - INFO --> ======================================================
2015-04-22 10:37:54 - DEBUG --> Connecting to BigCouch...
2015-04-22 10:37:54 - DEBUG -->  - POST - edit account doc bb37491a4286938f0368c1ce71c65f0f
2015-04-22 10:37:54 - DEBUG --> Request coming from 162.216.4.136
2015-04-22 10:37:54 - INFO --> ======================================================
2015-04-22 10:37:54 - INFO --> ================== Starting process ==================
2015-04-22 10:37:54 - INFO --> ======================================================
2015-04-22 10:37:54 - DEBUG --> Connecting to BigCouch...
2015-04-22 10:37:54 - DEBUG -->  - GET - retrieve account doc bb37491a4286938f0368c1ce71c65f0f for mac doc 00156578ba54
2015-04-22 10:37:54 - DEBUG --> Request coming from 162.216.4.136
2015-04-22 10:37:54 - INFO --> ======================================================
2015-04-22 10:37:54 - INFO --> ================== Starting process ==================
2015-04-22 10:37:54 - INFO --> ======================================================
2015-04-22 10:37:54 - DEBUG --> Connecting to BigCouch...
2015-04-22 10:37:54 - DEBUG -->  - POST - edit in doc bb37491a4286938f0368c1ce71c65f0f mac address 00156578ba54
2015-04-22 10:37:54 - DEBUG --> Request coming from 162.216.4.136
2015-04-22 10:37:54 - DEBUG --> Will now edit the mac_lookup...
2015-04-22 10:37:54 - DEBUG --> done... Edit for account bb37491a4286938f0368c1ce71c65f0f and mac_address 00156578ba54 SUCCESS
2015-04-22 10:37:55 - INFO --> ======================================================
2015-04-22 10:37:55 - INFO --> ================== Starting process ==================
2015-04-22 10:37:55 - INFO --> ======================================================
2015-04-22 10:37:55 - DEBUG --> Connecting to BigCouch...
2015-04-22 10:37:55 - DEBUG -->  - GET - retrieve account doc bb37491a4286938f0368c1ce71c65f0f
2015-04-22 10:37:55 - DEBUG --> Request coming from 162.216.4.136
2015-04-22 10:37:55 - INFO --> ======================================================
2015-04-22 10:37:55 - INFO --> ================== Starting process ==================
2015-04-22 10:37:55 - INFO --> ======================================================
2015-04-22 10:37:55 - DEBUG --> Connecting to BigCouch...
2015-04-22 10:37:55 - DEBUG -->  - POST - edit account doc bb37491a4286938f0368c1ce71c65f0f
2015-04-22 10:37:55 - DEBUG --> Request coming from 162.216.4.136
2015-04-22 10:37:55 - INFO --> ======================================================
2015-04-22 10:37:55 - INFO --> ================== Starting process ==================
2015-04-22 10:37:55 - INFO --> ======================================================
2015-04-22 10:37:55 - DEBUG --> Connecting to BigCouch...
2015-04-22 10:37:55 - DEBUG -->  - GET - retrieve account doc bb37491a4286938f0368c1ce71c65f0f for mac doc 00156578ba54
2015-04-22 10:37:55 - DEBUG --> Request coming from 162.216.4.136
2015-04-22 10:37:55 - INFO --> ======================================================
2015-04-22 10:37:55 - INFO --> ================== Starting process ==================
2015-04-22 10:37:55 - INFO --> ======================================================
2015-04-22 10:37:55 - DEBUG --> Connecting to BigCouch...
2015-04-22 10:37:55 - DEBUG -->  - POST - edit in doc bb37491a4286938f0368c1ce71c65f0f mac address 00156578ba54
2015-04-22 10:37:55 - DEBUG --> Request coming from 162.216.4.136
2015-04-22 10:37:56 - INFO --> ======================================================
2015-04-22 10:37:56 - INFO --> ================== Starting process ==================
2015-04-22 10:37:56 - INFO --> ======================================================
2015-04-22 10:37:56 - DEBUG --> Connecting to BigCouch...
2015-04-22 10:37:56 - DEBUG -->  - GET - retrieve account doc bb37491a4286938f0368c1ce71c65f0f
2015-04-22 10:37:56 - DEBUG --> Request coming from 162.216.4.136
2015-04-22 10:37:56 - DEBUG --> Will now edit the mac_lookup...
2015-04-22 10:37:56 - DEBUG --> done... Edit for account bb37491a4286938f0368c1ce71c65f0f and mac_address 00156578ba54 SUCCESS
2015-04-22 10:37:56 - INFO --> ======================================================
2015-04-22 10:37:56 - INFO --> ================== Starting process ==================
2015-04-22 10:37:56 - INFO --> ======================================================
2015-04-22 10:37:56 - DEBUG --> Connecting to BigCouch...
2015-04-22 10:37:56 - DEBUG -->  - POST - edit account doc bb37491a4286938f0368c1ce71c65f0f
2015-04-22 10:37:56 - DEBUG --> Request coming from 162.216.4.136
2015-04-22 10:37:56 - INFO --> ======================================================
2015-04-22 10:37:56 - INFO --> ================== Starting process ==================
2015-04-22 10:37:56 - INFO --> ======================================================
2015-04-22 10:37:56 - DEBUG --> Connecting to BigCouch...
2015-04-22 10:37:56 - DEBUG -->  - GET - retrieve account doc bb37491a4286938f0368c1ce71c65f0f for mac doc 00156578ba54
2015-04-22 10:37:56 - DEBUG --> Request coming from 162.216.4.136
2015-04-22 10:37:56 - INFO --> ======================================================
2015-04-22 10:37:56 - INFO --> ================== Starting process ==================
2015-04-22 10:37:56 - INFO --> ======================================================
2015-04-22 10:37:56 - DEBUG --> Connecting to BigCouch...
2015-04-22 10:37:56 - DEBUG -->  - POST - edit in doc bb37491a4286938f0368c1ce71c65f0f mac address 00156578ba54
2015-04-22 10:37:56 - DEBUG --> Request coming from 162.216.4.136
2015-04-22 10:37:56 - DEBUG --> Will now edit the mac_lookup...
2015-04-22 10:37:56 - DEBUG --> done... Edit for account bb37491a4286938f0368c1ce71c65f0f and mac_address 00156578ba54 SUCCESS
2015-04-22 10:39:38 - INFO --> ======================================================
2015-04-22 10:39:38 - INFO --> ================== Starting process ==================
2015-04-22 10:39:38 - INFO --> ======================================================
2015-04-22 10:39:38 - DEBUG --> Connecting to BigCouch...
2015-04-22 10:39:38 - DEBUG -->  - GET - retrieve account doc bb37491a4286938f0368c1ce71c65f0f
2015-04-22 10:39:38 - DEBUG --> Request coming from 162.216.4.136
2015-04-22 10:39:38 - INFO --> ======================================================
2015-04-22 10:39:38 - INFO --> ================== Starting process ==================
2015-04-22 10:39:38 - INFO --> ======================================================
2015-04-22 10:39:38 - DEBUG --> Connecting to BigCouch...
2015-04-22 10:39:38 - DEBUG -->  - POST - edit account doc bb37491a4286938f0368c1ce71c65f0f
2015-04-22 10:39:38 - DEBUG --> Request coming from 162.216.4.136
2015-04-22 10:39:38 - INFO --> ======================================================
2015-04-22 10:39:38 - INFO --> ================== Starting process ==================
2015-04-22 10:39:38 - INFO --> ======================================================
2015-04-22 10:39:38 - DEBUG --> Connecting to BigCouch...
2015-04-22 10:39:38 - DEBUG -->  - GET - retrieve account doc bb37491a4286938f0368c1ce71c65f0f for mac doc 00156578ba54
2015-04-22 10:39:38 - DEBUG --> Request coming from 162.216.4.136
2015-04-22 10:39:38 - INFO --> ======================================================
2015-04-22 10:39:38 - INFO --> ================== Starting process ==================
2015-04-22 10:39:38 - INFO --> ======================================================
2015-04-22 10:39:38 - DEBUG --> Connecting to BigCouch...
2015-04-22 10:39:38 - DEBUG -->  - POST - edit in doc bb37491a4286938f0368c1ce71c65f0f mac address 00156578ba54
2015-04-22 10:39:38 - DEBUG --> Request coming from 162.216.4.136
2015-04-22 10:39:39 - DEBUG --> Will now edit the mac_lookup...
2015-04-22 10:39:39 - DEBUG --> done... Edit for account bb37491a4286938f0368c1ce71c65f0f and mac_address 00156578ba54 SUCCESS
