2016-01-06 9:27:44 - INFO --> ======================================================
2016-01-06 9:27:44 - INFO --> ================== Starting process ==================
2016-01-06 9:27:44 - INFO --> ======================================================
2016-01-06 9:27:44 - DEBUG --> Connecting to BigCouch...
2016-01-06 9:27:44 - DEBUG -->  - GET - retrieve account doc 22a9e436757c03ea85697bbcc4def680
2016-01-06 9:27:44 - DEBUG --> Request coming from 162.216.4.136
2016-01-06 9:27:45 - INFO --> ======================================================
2016-01-06 9:27:45 - INFO --> ================== Starting process ==================
2016-01-06 9:27:45 - INFO --> ======================================================
2016-01-06 9:27:45 - DEBUG --> Connecting to BigCouch...
2016-01-06 9:27:45 - DEBUG -->  - POST - edit account doc 22a9e436757c03ea85697bbcc4def680
2016-01-06 9:27:45 - DEBUG --> Request coming from 162.216.4.136
2016-01-06 9:28:15 - INFO --> ======================================================
2016-01-06 9:28:15 - INFO --> ================== Starting process ==================
2016-01-06 9:28:15 - INFO --> ======================================================
2016-01-06 9:28:15 - DEBUG --> Connecting to BigCouch...
2016-01-06 9:28:15 - DEBUG -->  - GET - retrieve account doc 22a9e436757c03ea85697bbcc4def680
2016-01-06 9:28:15 - DEBUG --> Request coming from 162.216.4.136
2016-01-06 9:28:16 - INFO --> ======================================================
2016-01-06 9:28:16 - INFO --> ================== Starting process ==================
2016-01-06 9:28:16 - INFO --> ======================================================
2016-01-06 9:28:16 - DEBUG --> Connecting to BigCouch...
2016-01-06 9:28:16 - DEBUG -->  - POST - edit account doc 22a9e436757c03ea85697bbcc4def680
2016-01-06 9:28:16 - DEBUG --> Request coming from 162.216.4.136
2016-01-06 9:29:01 - INFO --> ======================================================
2016-01-06 9:29:01 - INFO --> ================== Starting process ==================
2016-01-06 9:29:01 - INFO --> ======================================================
2016-01-06 9:29:01 - DEBUG --> Connecting to BigCouch...
2016-01-06 9:29:01 - DEBUG -->  - GET - retrieve account doc 22a9e436757c03ea85697bbcc4def680
2016-01-06 9:29:01 - DEBUG --> Request coming from 162.216.4.136
2016-01-06 9:29:02 - INFO --> ======================================================
2016-01-06 9:29:02 - INFO --> ================== Starting process ==================
2016-01-06 9:29:02 - INFO --> ======================================================
2016-01-06 9:29:02 - DEBUG --> Connecting to BigCouch...
2016-01-06 9:29:02 - DEBUG -->  - POST - edit account doc 22a9e436757c03ea85697bbcc4def680
2016-01-06 9:29:02 - DEBUG --> Request coming from 162.216.4.136
2016-01-06 9:29:58 - INFO --> ======================================================
2016-01-06 9:29:58 - INFO --> ================== Starting process ==================
2016-01-06 9:29:58 - INFO --> ======================================================
2016-01-06 9:29:58 - DEBUG --> Connecting to BigCouch...
2016-01-06 9:29:58 - DEBUG -->  - GET - retrieve account doc 22a9e436757c03ea85697bbcc4def680
2016-01-06 9:29:58 - DEBUG --> Request coming from 162.216.4.136
2016-01-06 9:29:58 - INFO --> ======================================================
2016-01-06 9:29:58 - INFO --> ================== Starting process ==================
2016-01-06 9:29:58 - INFO --> ======================================================
2016-01-06 9:29:58 - DEBUG --> Connecting to BigCouch...
2016-01-06 9:29:58 - DEBUG -->  - POST - edit account doc 22a9e436757c03ea85697bbcc4def680
2016-01-06 9:29:58 - DEBUG --> Request coming from 162.216.4.136
2016-01-06 9:30:13 - INFO --> ======================================================
2016-01-06 9:30:13 - INFO --> ================== Starting process ==================
2016-01-06 9:30:13 - INFO --> ======================================================
2016-01-06 9:30:13 - DEBUG --> Connecting to BigCouch...
2016-01-06 9:30:13 - DEBUG -->  - GET - retrieve account doc 22a9e436757c03ea85697bbcc4def680
2016-01-06 9:30:13 - DEBUG --> Request coming from 162.216.4.136
2016-01-06 9:30:13 - INFO --> ======================================================
2016-01-06 9:30:13 - INFO --> ================== Starting process ==================
2016-01-06 9:30:13 - INFO --> ======================================================
2016-01-06 9:30:13 - DEBUG --> Connecting to BigCouch...
2016-01-06 9:30:13 - DEBUG -->  - POST - edit account doc 22a9e436757c03ea85697bbcc4def680
2016-01-06 9:30:13 - DEBUG --> Request coming from 162.216.4.136
2016-01-06 9:32:06 - INFO --> ======================================================
2016-01-06 9:32:06 - INFO --> ================== Starting process ==================
2016-01-06 9:32:06 - INFO --> ======================================================
2016-01-06 9:32:06 - DEBUG --> Connecting to BigCouch...
2016-01-06 9:32:06 - DEBUG -->  - GET - retrieve account doc 22a9e436757c03ea85697bbcc4def680
2016-01-06 9:32:06 - DEBUG --> Request coming from 162.216.4.136
2016-01-06 9:32:07 - INFO --> ======================================================
2016-01-06 9:32:07 - INFO --> ================== Starting process ==================
2016-01-06 9:32:07 - INFO --> ======================================================
2016-01-06 9:32:07 - DEBUG --> Connecting to BigCouch...
2016-01-06 9:32:07 - DEBUG -->  - POST - edit account doc 22a9e436757c03ea85697bbcc4def680
2016-01-06 9:32:07 - DEBUG --> Request coming from 162.216.4.136
2016-01-06 12:15:06 - INFO --> ======================================================
2016-01-06 12:15:06 - INFO --> ================== Starting process ==================
2016-01-06 12:15:06 - INFO --> ======================================================
2016-01-06 12:15:06 - DEBUG --> Connecting to BigCouch...
2016-01-06 12:15:06 - DEBUG -->  - GET - retrieve account doc 568e8f83182fc81d4bae5d1826ceffd0
2016-01-06 12:15:06 - DEBUG --> Request coming from 162.216.4.136
2016-01-06 12:15:06 - INFO --> ======================================================
2016-01-06 12:15:06 - INFO --> ================== Starting process ==================
2016-01-06 12:15:06 - INFO --> ======================================================
2016-01-06 12:15:06 - DEBUG --> Connecting to BigCouch...
2016-01-06 12:15:06 - DEBUG -->  - POST - edit account doc 568e8f83182fc81d4bae5d1826ceffd0
2016-01-06 12:15:06 - DEBUG --> Request coming from 162.216.4.136
2016-01-06 12:15:07 - INFO --> ======================================================
2016-01-06 12:15:07 - INFO --> ================== Starting process ==================
2016-01-06 12:15:07 - INFO --> ======================================================
2016-01-06 12:15:07 - DEBUG --> Connecting to BigCouch...
2016-01-06 12:15:07 - DEBUG -->  - DELETE - Deleting a device (687f74dba397) for account 568e8f83182fc81d4bae5d1826ceffd0...
2016-01-06 12:15:07 - DEBUG --> Request coming from 162.216.4.136
2016-01-06 12:15:07 - DEBUG --> The device does exist... let's delete it
2016-01-06 12:15:07 - DEBUG --> Now deleting the mac lookup entry...
2016-01-06 12:15:07 - DEBUG --> Successfully deleted device (687f74dba397)
2016-01-06 12:15:07 - INFO --> ======================================================
2016-01-06 12:15:07 - INFO --> ================== Starting process ==================
2016-01-06 12:15:07 - INFO --> ======================================================
2016-01-06 12:15:07 - DEBUG --> Connecting to BigCouch...
2016-01-06 12:15:07 - DEBUG -->  - GET - retrieve account doc 568e8f83182fc81d4bae5d1826ceffd0 for mac doc 00e16db820c3
2016-01-06 12:15:07 - DEBUG --> Request coming from 162.216.4.136
2016-01-06 12:15:07 - DEBUG --> No doc for this mac address - EXIT
2016-01-06 12:15:07 - INFO --> ======================================================
2016-01-06 12:15:07 - INFO --> ================== Starting process ==================
2016-01-06 12:15:07 - INFO --> ======================================================
2016-01-06 12:15:07 - DEBUG --> Connecting to BigCouch...
2016-01-06 12:15:07 - DEBUG -->  - PUT - Adding account first...
2016-01-06 12:15:07 - DEBUG --> Request coming from 162.216.4.136
2016-01-06 12:15:07 - DEBUG --> Adding the device with mac_address 00e16db820c3...
2016-01-06 12:15:07 - DEBUG --> The mac_lookup...
2016-01-06 12:15:07 - DEBUG --> SUCCESS! exit...
2016-01-06 15:50:29 - INFO --> ======================================================
2016-01-06 15:50:29 - INFO --> ================== Starting process ==================
2016-01-06 15:50:29 - INFO --> ======================================================
2016-01-06 15:50:29 - DEBUG --> Connecting to BigCouch...
2016-01-06 15:50:29 - DEBUG -->  - GET - retrieve account doc bbf1153eb23215ab88db5a2c2d751d2a
2016-01-06 15:50:29 - DEBUG --> Request coming from 162.216.4.136
2016-01-06 15:50:29 - INFO --> ======================================================
2016-01-06 15:50:29 - INFO --> ================== Starting process ==================
2016-01-06 15:50:29 - INFO --> ======================================================
2016-01-06 15:50:29 - DEBUG --> Connecting to BigCouch...
2016-01-06 15:50:29 - DEBUG -->  - POST - edit account doc bbf1153eb23215ab88db5a2c2d751d2a
2016-01-06 15:50:29 - DEBUG --> Request coming from 162.216.4.136
2016-01-06 15:50:29 - INFO --> ======================================================
2016-01-06 15:50:29 - INFO --> ================== Starting process ==================
2016-01-06 15:50:29 - INFO --> ======================================================
2016-01-06 15:50:29 - DEBUG --> Connecting to BigCouch...
2016-01-06 15:50:29 - DEBUG -->  - GET - retrieve account doc bbf1153eb23215ab88db5a2c2d751d2a for mac doc 00156590f987
2016-01-06 15:50:29 - DEBUG --> Request coming from 162.216.4.136
2016-01-06 15:50:30 - DEBUG --> No doc for this mac address - EXIT
2016-01-06 15:50:30 - INFO --> ======================================================
2016-01-06 15:50:30 - INFO --> ================== Starting process ==================
2016-01-06 15:50:30 - INFO --> ======================================================
2016-01-06 15:50:30 - DEBUG --> Connecting to BigCouch...
2016-01-06 15:50:30 - DEBUG -->  - PUT - Adding account first...
2016-01-06 15:50:30 - DEBUG --> Request coming from 162.216.4.136
2016-01-06 15:50:30 - DEBUG --> Adding the device with mac_address 00156590f987...
2016-01-06 15:50:30 - DEBUG --> The mac_lookup...
2016-01-06 15:50:30 - DEBUG --> SUCCESS! exit...
2016-01-06 15:50:40 - INFO --> ======================================================
2016-01-06 15:50:40 - INFO --> ================== Starting process ==================
2016-01-06 15:50:40 - INFO --> ======================================================
2016-01-06 15:50:40 - DEBUG --> Connecting to BigCouch...
2016-01-06 15:50:40 - DEBUG -->  - GET - retrieve account doc bbf1153eb23215ab88db5a2c2d751d2a
2016-01-06 15:50:40 - DEBUG --> Request coming from 162.216.4.136
2016-01-06 15:50:41 - INFO --> ======================================================
2016-01-06 15:50:41 - INFO --> ================== Starting process ==================
2016-01-06 15:50:41 - INFO --> ======================================================
2016-01-06 15:50:41 - DEBUG --> Connecting to BigCouch...
2016-01-06 15:50:41 - DEBUG -->  - POST - edit account doc bbf1153eb23215ab88db5a2c2d751d2a
2016-01-06 15:50:41 - DEBUG --> Request coming from 162.216.4.136
2016-01-06 15:50:41 - INFO --> ======================================================
2016-01-06 15:50:41 - INFO --> ================== Starting process ==================
2016-01-06 15:50:41 - INFO --> ======================================================
2016-01-06 15:50:41 - DEBUG --> Connecting to BigCouch...
2016-01-06 15:50:41 - DEBUG -->  - GET - retrieve account doc bbf1153eb23215ab88db5a2c2d751d2a for mac doc 00156590f987
2016-01-06 15:50:41 - DEBUG --> Request coming from 162.216.4.136
2016-01-06 15:50:41 - INFO --> ======================================================
2016-01-06 15:50:41 - INFO --> ================== Starting process ==================
2016-01-06 15:50:41 - INFO --> ======================================================
2016-01-06 15:50:41 - DEBUG --> Connecting to BigCouch...
2016-01-06 15:50:41 - DEBUG -->  - POST - edit in doc bbf1153eb23215ab88db5a2c2d751d2a mac address 00156590f987
2016-01-06 15:50:41 - DEBUG --> Request coming from 162.216.4.136
2016-01-06 15:50:41 - DEBUG --> Will now edit the mac_lookup...
2016-01-06 15:50:41 - DEBUG --> done... Edit for account bbf1153eb23215ab88db5a2c2d751d2a and mac_address 00156590f987 SUCCESS
2016-01-06 15:54:21 - INFO --> ======================================================
2016-01-06 15:54:21 - INFO --> ================== Starting process ==================
2016-01-06 15:54:21 - INFO --> ======================================================
2016-01-06 15:54:21 - DEBUG --> Connecting to BigCouch...
2016-01-06 15:54:21 - DEBUG -->  - GET - retrieve account doc e6c330a0721af3c6f466bede18c8bdcb
2016-01-06 15:54:21 - DEBUG --> Request coming from 162.216.4.136
2016-01-06 15:54:21 - INFO --> ======================================================
2016-01-06 15:54:21 - INFO --> ================== Starting process ==================
2016-01-06 15:54:21 - INFO --> ======================================================
2016-01-06 15:54:21 - DEBUG --> Connecting to BigCouch...
2016-01-06 15:54:21 - DEBUG -->  - POST - edit account doc e6c330a0721af3c6f466bede18c8bdcb
2016-01-06 15:54:21 - DEBUG --> Request coming from 162.216.4.136
2016-01-06 15:55:19 - INFO --> ======================================================
2016-01-06 15:55:19 - INFO --> ================== Starting process ==================
2016-01-06 15:55:19 - INFO --> ======================================================
2016-01-06 15:55:19 - DEBUG --> Connecting to BigCouch...
2016-01-06 15:55:19 - DEBUG -->  - GET - retrieve account doc bbf1153eb23215ab88db5a2c2d751d2a
2016-01-06 15:55:19 - DEBUG --> Request coming from 162.216.4.136
2016-01-06 15:55:20 - INFO --> ======================================================
2016-01-06 15:55:20 - INFO --> ================== Starting process ==================
2016-01-06 15:55:20 - INFO --> ======================================================
2016-01-06 15:55:20 - DEBUG --> Connecting to BigCouch...
2016-01-06 15:55:20 - DEBUG -->  - POST - edit account doc bbf1153eb23215ab88db5a2c2d751d2a
2016-01-06 15:55:20 - DEBUG --> Request coming from 162.216.4.136
2016-01-06 15:55:20 - INFO --> ======================================================
2016-01-06 15:55:20 - INFO --> ================== Starting process ==================
2016-01-06 15:55:20 - INFO --> ======================================================
2016-01-06 15:55:20 - DEBUG --> Connecting to BigCouch...
2016-01-06 15:55:20 - DEBUG -->  - GET - retrieve account doc bbf1153eb23215ab88db5a2c2d751d2a for mac doc 00156590f987
2016-01-06 15:55:20 - DEBUG --> Request coming from 162.216.4.136
2016-01-06 15:55:20 - INFO --> ======================================================
2016-01-06 15:55:20 - INFO --> ================== Starting process ==================
2016-01-06 15:55:20 - INFO --> ======================================================
2016-01-06 15:55:20 - DEBUG --> Connecting to BigCouch...
2016-01-06 15:55:20 - DEBUG -->  - POST - edit in doc bbf1153eb23215ab88db5a2c2d751d2a mac address 00156590f987
2016-01-06 15:55:20 - DEBUG --> Request coming from 162.216.4.136
2016-01-06 15:55:20 - DEBUG --> Will now edit the mac_lookup...
2016-01-06 15:55:20 - DEBUG --> done... Edit for account bbf1153eb23215ab88db5a2c2d751d2a and mac_address 00156590f987 SUCCESS
2016-01-06 15:55:28 - INFO --> ======================================================
2016-01-06 15:55:28 - INFO --> ================== Starting process ==================
2016-01-06 15:55:28 - INFO --> ======================================================
2016-01-06 15:55:28 - DEBUG --> Connecting to BigCouch...
2016-01-06 15:55:28 - DEBUG -->  - GET - retrieve account doc a3d9f761fa324367af8e2425373000bf
2016-01-06 15:55:28 - DEBUG --> Request coming from 162.216.4.136
2016-01-06 15:55:28 - INFO --> ======================================================
2016-01-06 15:55:28 - INFO --> ================== Starting process ==================
2016-01-06 15:55:28 - INFO --> ======================================================
2016-01-06 15:55:28 - DEBUG --> Connecting to BigCouch...
2016-01-06 15:55:28 - DEBUG -->  - GET - retrieve account doc a3d9f761fa324367af8e2425373000bf
2016-01-06 15:55:28 - DEBUG --> Request coming from 162.216.4.136
2016-01-06 15:55:28 - INFO --> ======================================================
2016-01-06 15:55:28 - INFO --> ================== Starting process ==================
2016-01-06 15:55:28 - INFO --> ======================================================
2016-01-06 15:55:28 - DEBUG --> Connecting to BigCouch...
2016-01-06 15:55:28 - DEBUG -->  - POST - edit account doc a3d9f761fa324367af8e2425373000bf
2016-01-06 15:55:28 - DEBUG --> Request coming from 162.216.4.136
2016-01-06 15:55:28 - INFO --> ======================================================
2016-01-06 15:55:28 - INFO --> ================== Starting process ==================
2016-01-06 15:55:28 - INFO --> ======================================================
2016-01-06 15:55:28 - DEBUG --> Connecting to BigCouch...
2016-01-06 15:55:28 - DEBUG -->  - POST - edit account doc a3d9f761fa324367af8e2425373000bf
2016-01-06 15:55:28 - DEBUG --> Request coming from 162.216.4.136
2016-01-06 15:55:29 - INFO --> ======================================================
2016-01-06 15:55:29 - INFO --> ================== Starting process ==================
2016-01-06 15:55:29 - INFO --> ======================================================
2016-01-06 15:55:29 - DEBUG --> Connecting to BigCouch...
2016-01-06 15:55:29 - DEBUG -->  - GET - retrieve account doc a3d9f761fa324367af8e2425373000bf
2016-01-06 15:55:29 - DEBUG --> Request coming from 162.216.4.136
2016-01-06 15:55:29 - INFO --> ======================================================
2016-01-06 15:55:29 - INFO --> ================== Starting process ==================
2016-01-06 15:55:29 - INFO --> ======================================================
2016-01-06 15:55:29 - DEBUG --> Connecting to BigCouch...
2016-01-06 15:55:29 - DEBUG -->  - GET - retrieve account doc a3d9f761fa324367af8e2425373000bf
2016-01-06 15:55:29 - DEBUG --> Request coming from 162.216.4.136
2016-01-06 15:55:29 - INFO --> ======================================================
2016-01-06 15:55:29 - INFO --> ================== Starting process ==================
2016-01-06 15:55:29 - INFO --> ======================================================
2016-01-06 15:55:29 - DEBUG --> Connecting to BigCouch...
2016-01-06 15:55:29 - DEBUG -->  - POST - edit account doc a3d9f761fa324367af8e2425373000bf
2016-01-06 15:55:29 - DEBUG --> Request coming from 162.216.4.136
2016-01-06 15:55:29 - INFO --> ======================================================
2016-01-06 15:55:29 - INFO --> ================== Starting process ==================
2016-01-06 15:55:29 - INFO --> ======================================================
2016-01-06 15:55:29 - DEBUG --> Connecting to BigCouch...
2016-01-06 15:55:29 - DEBUG -->  - POST - edit account doc a3d9f761fa324367af8e2425373000bf
2016-01-06 15:55:29 - DEBUG --> Request coming from 162.216.4.136
2016-01-06 15:55:42 - INFO --> ======================================================
2016-01-06 15:55:42 - INFO --> ================== Starting process ==================
2016-01-06 15:55:42 - INFO --> ======================================================
2016-01-06 15:55:42 - DEBUG --> Connecting to BigCouch...
2016-01-06 15:55:42 - DEBUG -->  - GET - retrieve account doc bbf1153eb23215ab88db5a2c2d751d2a
2016-01-06 15:55:42 - DEBUG --> Request coming from 162.216.4.136
2016-01-06 15:55:42 - INFO --> ======================================================
2016-01-06 15:55:42 - INFO --> ================== Starting process ==================
2016-01-06 15:55:42 - INFO --> ======================================================
2016-01-06 15:55:42 - DEBUG --> Connecting to BigCouch...
2016-01-06 15:55:42 - DEBUG -->  - POST - edit account doc bbf1153eb23215ab88db5a2c2d751d2a
2016-01-06 15:55:42 - DEBUG --> Request coming from 162.216.4.136
2016-01-06 15:56:23 - INFO --> ======================================================
2016-01-06 15:56:23 - INFO --> ================== Starting process ==================
2016-01-06 15:56:23 - INFO --> ======================================================
2016-01-06 15:56:23 - DEBUG --> Connecting to BigCouch...
2016-01-06 15:56:23 - DEBUG -->  - GET - retrieve account doc bbf1153eb23215ab88db5a2c2d751d2a
2016-01-06 15:56:23 - DEBUG --> Request coming from 162.216.4.136
2016-01-06 15:56:24 - INFO --> ======================================================
2016-01-06 15:56:24 - INFO --> ================== Starting process ==================
2016-01-06 15:56:24 - INFO --> ======================================================
2016-01-06 15:56:24 - DEBUG --> Connecting to BigCouch...
2016-01-06 15:56:24 - DEBUG -->  - POST - edit account doc bbf1153eb23215ab88db5a2c2d751d2a
2016-01-06 15:56:24 - DEBUG --> Request coming from 162.216.4.136
2016-01-06 16:04:36 - INFO --> ======================================================
2016-01-06 16:04:36 - INFO --> ================== Starting process ==================
2016-01-06 16:04:36 - INFO --> ======================================================
2016-01-06 16:04:36 - DEBUG --> Connecting to BigCouch...
2016-01-06 16:04:36 - DEBUG -->  - GET - retrieve account doc bbf1153eb23215ab88db5a2c2d751d2a
2016-01-06 16:04:36 - DEBUG --> Request coming from 162.216.4.136
2016-01-06 16:04:36 - INFO --> ======================================================
2016-01-06 16:04:36 - INFO --> ================== Starting process ==================
2016-01-06 16:04:36 - INFO --> ======================================================
2016-01-06 16:04:36 - DEBUG --> Connecting to BigCouch...
2016-01-06 16:04:36 - DEBUG -->  - GET - retrieve account doc bbf1153eb23215ab88db5a2c2d751d2a
2016-01-06 16:04:36 - DEBUG --> Request coming from 162.216.4.136
2016-01-06 16:04:36 - INFO --> ======================================================
2016-01-06 16:04:36 - INFO --> ================== Starting process ==================
2016-01-06 16:04:36 - INFO --> ======================================================
2016-01-06 16:04:36 - DEBUG --> Connecting to BigCouch...
2016-01-06 16:04:36 - DEBUG -->  - GET - retrieve account doc bbf1153eb23215ab88db5a2c2d751d2a
2016-01-06 16:04:36 - DEBUG --> Request coming from 162.216.4.136
2016-01-06 16:04:36 - INFO --> ======================================================
2016-01-06 16:04:36 - INFO --> ================== Starting process ==================
2016-01-06 16:04:36 - INFO --> ======================================================
2016-01-06 16:04:36 - DEBUG --> Connecting to BigCouch...
2016-01-06 16:04:36 - DEBUG -->  - GET - retrieve account doc bbf1153eb23215ab88db5a2c2d751d2a
2016-01-06 16:04:36 - DEBUG --> Request coming from 162.216.4.136
2016-01-06 16:04:36 - INFO --> ======================================================
2016-01-06 16:04:36 - INFO --> ================== Starting process ==================
2016-01-06 16:04:36 - INFO --> ======================================================
2016-01-06 16:04:36 - DEBUG --> Connecting to BigCouch...
2016-01-06 16:04:36 - DEBUG -->  - POST - edit account doc bbf1153eb23215ab88db5a2c2d751d2a
2016-01-06 16:04:36 - DEBUG --> Request coming from 162.216.4.136
2016-01-06 16:04:36 - INFO --> ======================================================
2016-01-06 16:04:36 - INFO --> ================== Starting process ==================
2016-01-06 16:04:36 - INFO --> ======================================================
2016-01-06 16:04:36 - DEBUG --> Connecting to BigCouch...
2016-01-06 16:04:36 - DEBUG -->  - POST - edit account doc bbf1153eb23215ab88db5a2c2d751d2a
2016-01-06 16:04:36 - DEBUG --> Request coming from 162.216.4.136
2016-01-06 16:04:36 - INFO --> ======================================================
2016-01-06 16:04:36 - INFO --> ================== Starting process ==================
2016-01-06 16:04:36 - INFO --> ======================================================
2016-01-06 16:04:36 - DEBUG --> Connecting to BigCouch...
2016-01-06 16:04:36 - DEBUG -->  - POST - edit account doc bbf1153eb23215ab88db5a2c2d751d2a
2016-01-06 16:04:36 - DEBUG --> Request coming from 162.216.4.136
2016-01-06 16:04:36 - INFO --> ======================================================
2016-01-06 16:04:36 - INFO --> ================== Starting process ==================
2016-01-06 16:04:36 - INFO --> ======================================================
2016-01-06 16:04:36 - DEBUG --> Connecting to BigCouch...
2016-01-06 16:04:36 - DEBUG -->  - POST - edit account doc bbf1153eb23215ab88db5a2c2d751d2a
2016-01-06 16:04:36 - DEBUG --> Request coming from 162.216.4.136
2016-01-06 16:04:36 - DEBUG --> Could not save key:provider_id - EXIT
2016-01-06 16:04:36 - DEBUG --> Could not save key:name - EXIT
2016-01-06 16:04:36 - DEBUG --> Could not save key:provider_id - EXIT
2016-01-06 16:08:51 - INFO --> ======================================================
2016-01-06 16:08:51 - INFO --> ================== Starting process ==================
2016-01-06 16:08:51 - INFO --> ======================================================
2016-01-06 16:08:51 - DEBUG --> Connecting to BigCouch...
2016-01-06 16:08:51 - DEBUG -->  - GET - retrieve account doc bbf1153eb23215ab88db5a2c2d751d2a
2016-01-06 16:08:51 - DEBUG --> Request coming from 162.216.4.136
2016-01-06 16:08:51 - INFO --> ======================================================
2016-01-06 16:08:51 - INFO --> ================== Starting process ==================
2016-01-06 16:08:51 - INFO --> ======================================================
2016-01-06 16:08:51 - DEBUG --> Connecting to BigCouch...
2016-01-06 16:08:51 - DEBUG -->  - POST - edit account doc bbf1153eb23215ab88db5a2c2d751d2a
2016-01-06 16:08:51 - DEBUG --> Request coming from 162.216.4.136
