2015-08-16 11:50:15 - INFO --> ======================================================
2015-08-16 11:50:15 - INFO --> ================== Starting process ==================
2015-08-16 11:50:15 - INFO --> ======================================================
2015-08-16 11:50:15 - DEBUG --> Connecting to BigCouch...
2015-08-16 11:50:15 - DEBUG -->  - GET - retrieve account doc 36a53d34f60076e4b31d2fecb44fc010
2015-08-16 11:50:15 - DEBUG --> Request coming from 162.216.4.136
2015-08-16 11:50:16 - INFO --> ======================================================
2015-08-16 11:50:16 - INFO --> ================== Starting process ==================
2015-08-16 11:50:16 - INFO --> ======================================================
2015-08-16 11:50:16 - DEBUG --> Connecting to BigCouch...
2015-08-16 11:50:16 - DEBUG -->  - POST - edit account doc 36a53d34f60076e4b31d2fecb44fc010
2015-08-16 11:50:16 - DEBUG --> Request coming from 162.216.4.136
2015-08-16 11:50:24 - INFO --> ======================================================
2015-08-16 11:50:24 - INFO --> ================== Starting process ==================
2015-08-16 11:50:24 - INFO --> ======================================================
2015-08-16 11:50:24 - DEBUG --> Connecting to BigCouch...
2015-08-16 11:50:24 - DEBUG -->  - GET - retrieve account doc 36a53d34f60076e4b31d2fecb44fc010
2015-08-16 11:50:24 - DEBUG --> Request coming from 162.216.4.136
2015-08-16 11:50:24 - INFO --> ======================================================
2015-08-16 11:50:24 - INFO --> ================== Starting process ==================
2015-08-16 11:50:24 - INFO --> ======================================================
2015-08-16 11:50:24 - DEBUG --> Connecting to BigCouch...
2015-08-16 11:50:24 - DEBUG -->  - POST - edit account doc 36a53d34f60076e4b31d2fecb44fc010
2015-08-16 11:50:24 - DEBUG --> Request coming from 162.216.4.136
